vivado-vcd/cdc_fifo.vcd
$date
   Sat Aug 22 17:34:32 2020
$end
$version
  2020.1
$end
$timescale
  1ps
$end
$scope module cdc_fifo_gray_tb $end
$var reg 32 ! ERRORS $end
$var reg 1 " src_rst_ni $end
$var reg 1 # src_clk_i $end
$var reg 32 $ src_data_i [31:0] $end
$var reg 1 % src_valid_i $end
$var reg 1 & src_ready_o $end
$var reg 1 ' dst_rst_ni $end
$var reg 1 ( dst_clk_i $end
$var reg 32 ) dst_data_o [31:0] $end
$var reg 1 * dst_valid_o $end
$var reg 1 + dst_ready_i $end
$var parameter 32 , N [31:0] $end
$upscope $end
$enddefinitions $end
#0
$dumpvars
b0 !
0"
x#
b0 $
x%
1&
1'
x(
b0 )
x*
x+
b11110100001001000000 ,
$end
#250
0'
0*
#1000
1"
#1250
1'
#2000
b0 $
1%
#2001
1#
1&
#2250
1(
1+
#3000
0#
#3250
0(
#4000
b1 $
#4001
1#
1&
#4250
1(
1*
#5000
0#
#5250
0(
#6000
b10 $
#6001
1#
1&
#6250
1(
b1 )
1*
#7000
0#
#7250
0(
#8000
b11 $
#8001
1#
1&
#8250
1(
b10 )
1*
#9000
0#
#9250
0(
#10000
b100 $
#10001
1#
1&
#10250
1(
b11 )
1*
#11000
0#
#11250
0(
#12000
b101 $
#12001
1#
1&
#12250
1(
b100 )
1*
#13000
0#
#13250
0(
#14000
b110 $
#14001
1#
1&
#14250
1(
b101 )
1*
#15000
0#
#15250
0(
#16000
b111 $
#16001
1#
1&
#16250
1(
b110 )
1*
#17000
0#
#17250
0(
#18000
b1000 $
#18001
1#
1&
#18250
1(
b111 )
1*
#19000
0#
#19250
0(
#20000
b1001 $
#20001
1#
1&
#20250
1(
b1000 )
1*
#21000
0#
#21250
0(
#22000
b1010 $
#22001
1#
1&
#22250
1(
b1001 )
1*
#23000
0#
#23250
0(
#24000
b1011 $
#24001
1#
1&
#24250
1(
b1010 )
1*
#25000
0#
#25250
0(
#26000
b1100 $
#26001
1#
1&
#26250
1(
b1011 )
1*
#27000
0#
#27250
0(
#28000
b1101 $
#28001
1#
1&
#28250
1(
b1100 )
1*
#29000
0#
#29250
0(
#30000
b1110 $
#30001
1#
1&
#30250
1(
b1101 )
1*
#31000
0#
#31250
0(
#32000
b1111 $
#32001
1#
1&
#32250
1(
b1110 )
1*
#33000
0#
#33250
0(
#34000
b10000 $
#34001
1#
1&
#34250
1(
b1111 )
1*
#35000
0#
#35250
0(
#36000
b10001 $
#36001
1#
1&
#36250
1(
b10000 )
1*
#37000
0#
#37250
0(
#38000
b10010 $
#38001
1#
1&
#38250
1(
b10001 )
1*
#39000
0#
#39250
0(
#40000
b10011 $
#40001
1#
1&
#40250
1(
b10010 )
1*
#41000
0#
#41250
0(
#42000
b10100 $
#42001
1#
1&
#42250
1(
b10011 )
1*
#43000
0#
#43250
0(
#44000
b10101 $
#44001
1#
1&
#44250
1(
b10100 )
1*
#45000
0#
#45250
0(
#46000
b10110 $
#46001
1#
1&
#46250
1(
b10101 )
1*
#47000
0#
#47250
0(
#48000
b10111 $
#48001
1#
1&
#48250
1(
b10110 )
1*
#49000
0#
#49250
0(
#50000
b11000 $
#50001
1#
1&
#50250
1(
b10111 )
1*
#51000
0#
#51250
0(
#52000
b11001 $
#52001
1#
1&
#52250
1(
b11000 )
1*
#53000
0#
#53250
0(
#54000
b11010 $
#54001
1#
1&
#54250
1(
b11001 )
1*
#55000
0#
#55250
0(
#56000
b11011 $
#56001
1#
1&
#56250
1(
b11010 )
1*
#57000
0#
#57250
0(
#58000
b11100 $
#58001
1#
1&
#58250
1(
b11011 )
1*
#59000
0#
#59250
0(
#60000
b11101 $
#60001
1#
1&
#60250
1(
b11100 )
1*
#61000
0#
#61250
0(
#62000
b11110 $
#62001
1#
1&
#62250
1(
b11101 )
1*
#63000
0#
#63250
0(
#64000
b11111 $
#64001
1#
1&
#64250
1(
b11110 )
1*
#65000
0#
#65250
0(
#66000
b100000 $
#66001
1#
1&
#66250
1(
b11111 )
1*
#67000
0#
#67250
0(
#68000
b100001 $
#68001
1#
1&
#68250
1(
b100000 )
1*
#69000
0#
#69250
0(
#70000
b100010 $
#70001
1#
1&
#70250
1(
b100001 )
1*
#71000
0#
#71250
0(
#72000
b100011 $
#72001
1#
1&
#72250
1(
b100010 )
1*
#73000
0#
#73250
0(
#74000
b100100 $
#74001
1#
1&
#74250
1(
b100011 )
1*
#75000
0#
#75250
0(
#76000
b100101 $
#76001
1#
1&
#76250
1(
b100100 )
1*
#77000
0#
#77250
0(
#78000
b100110 $
#78001
1#
1&
#78250
1(
b100101 )
1*
#79000
0#
#79250
0(
#80000
b100111 $
#80001
1#
1&
#80250
1(
b100110 )
1*
#81000
0#
#81250
0(
#82000
b101000 $
#82001
1#
1&
#82250
1(
b100111 )
1*
#83000
0#
#83250
0(
#84000
b101001 $
#84001
1#
1&
#84250
1(
b101000 )
1*
#85000
0#
#85250
0(
#86000
b101010 $
#86001
1#
1&
#86250
1(
b101001 )
1*
#87000
0#
#87250
0(
#88000
b101011 $
#88001
1#
1&
#88250
1(
b101010 )
1*
#89000
0#
#89250
0(
#90000
b101100 $
#90001
1#
1&
#90250
1(
b101011 )
1*
#91000
0#
#91250
0(
#92000
b101101 $
#92001
1#
1&
#92250
1(
b101100 )
1*
#93000
0#
#93250
0(
#94000
b101110 $
#94001
1#
1&
#94250
1(
b101101 )
1*
#95000
0#
#95250
0(
#96000
b101111 $
#96001
1#
1&
#96250
1(
b101110 )
1*
#97000
0#
#97250
0(
#98000
b110000 $
#98001
1#
1&
#98250
1(
b101111 )
1*
#99000
0#
#99250
0(
#100000
b110001 $
#100001
1#
1&
#100250
1(
b110000 )
1*
#101000
0#
#101250
0(
#102000
b110010 $
#102001
1#
1&
#102250
1(
b110001 )
1*
#103000
0#
#103250
0(
#104000
b110011 $
#104001
1#
1&
#104250
1(
b110010 )
1*
#105000
0#
#105250
0(
#106000
b110100 $
#106001
1#
1&
#106250
1(
b110011 )
1*
#107000
0#
#107250
0(
#108000
b110101 $
#108001
1#
1&
#108250
1(
b110100 )
1*
#109000
0#
#109250
0(
#110000
b110110 $
#110001
1#
1&
#110250
1(
b110101 )
1*
#111000
0#
#111250
0(
#112000
b110111 $
#112001
1#
1&
#112250
1(
b110110 )
1*
#113000
0#
#113250
0(
#114000
b111000 $
#114001
1#
1&
#114250
1(
b110111 )
1*
#115000
0#
#115250
0(
#116000
b111001 $
#116001
1#
1&
#116250
1(
b111000 )
1*
#117000
0#
#117250
0(
#118000
b111010 $
#118001
1#
1&
#118250
1(
b111001 )
1*
#119000
0#
#119250
0(
#120000
b111011 $
#120001
1#
1&
#120250
1(
b111010 )
1*
#121000
0#
#121250
0(
#122000
b111100 $
#122001
1#
1&
#122250
1(
b111011 )
1*
#123000
0#
#123250
0(
#124000
b111101 $
#124001
1#
1&
#124250
1(
b111100 )
1*
#125000
0#
#125250
0(
#126000
b111110 $
#126001
1#
1&
#126250
1(
b111101 )
1*
#127000
0#
#127250
0(
#128000
b111111 $
#128001
1#
1&
#128250
1(
b111110 )
1*
#129000
0#
#129250
0(
#130000
b1000000 $
#130001
1#
1&
#130250
1(
b111111 )
1*
#131000
0#
#131250
0(
#132000
b1000001 $
#132001
1#
1&
#132250
1(
b1000000 )
1*
#133000
0#
#133250
0(
#134000
b1000010 $
#134001
1#
1&
#134250
1(
b1000001 )
1*
#135000
0#
#135250
0(
#136000
b1000011 $
#136001
1#
1&
#136250
1(
b1000010 )
1*
#137000
0#
#137250
0(
#138000
b1000100 $
#138001
1#
1&
#138250
1(
b1000011 )
1*
#139000
0#
#139250
0(
#140000
b1000101 $
#140001
1#
1&
#140250
1(
b1000100 )
1*
#141000
0#
#141250
0(
#142000
b1000110 $
#142001
1#
1&
#142250
1(
b1000101 )
1*
#143000
0#
#143250
0(
#144000
b1000111 $
#144001
1#
1&
#144250
1(
b1000110 )
1*
#145000
0#
#145250
0(
#146000
b1001000 $
#146001
1#
1&
#146250
1(
b1000111 )
1*
#147000
0#
#147250
0(
#148000
b1001001 $
#148001
1#
1&
#148250
1(
b1001000 )
1*
#149000
0#
#149250
0(
#150000
b1001010 $
#150001
1#
1&
#150250
1(
b1001001 )
1*
#151000
0#
#151250
0(
#152000
b1001011 $
#152001
1#
1&
#152250
1(
b1001010 )
1*
#153000
0#
#153250
0(
#154000
b1001100 $
#154001
1#
1&
#154250
1(
b1001011 )
1*
#155000
0#
#155250
0(
#156000
b1001101 $
#156001
1#
1&
#156250
1(
b1001100 )
1*
#157000
0#
#157250
0(
#158000
b1001110 $
#158001
1#
1&
#158250
1(
b1001101 )
1*
#159000
0#
#159250
0(
#160000
b1001111 $
#160001
1#
1&
#160250
1(
b1001110 )
1*
#161000
0#
#161250
0(
#162000
b1010000 $
#162001
1#
1&
#162250
1(
b1001111 )
1*
#163000
0#
#163250
0(
#164000
b1010001 $
#164001
1#
1&
#164250
1(
b1010000 )
1*
#165000
0#
#165250
0(
#166000
b1010010 $
#166001
1#
1&
#166250
1(
b1010001 )
1*
#167000
0#
#167250
0(
#168000
b1010011 $
#168001
1#
1&
#168250
1(
b1010010 )
1*
#169000
0#
#169250
0(
#170000
b1010100 $
#170001
1#
1&
#170250
1(
b1010011 )
1*
#171000
0#
#171250
0(
#172000
b1010101 $
#172001
1#
1&
#172250
1(
b1010100 )
1*
#173000
0#
#173250
0(
#174000
b1010110 $
#174001
1#
1&
#174250
1(
b1010101 )
1*
#175000
0#
#175250
0(
#176000
b1010111 $
#176001
1#
1&
#176250
1(
b1010110 )
1*
#177000
0#
#177250
0(
#178000
b1011000 $
#178001
1#
1&
#178250
1(
b1010111 )
1*
#179000
0#
#179250
0(
#180000
b1011001 $
#180001
1#
1&
#180250
1(
b1011000 )
1*
#181000
0#
#181250
0(
#182000
b1011010 $
#182001
1#
1&
#182250
1(
b1011001 )
1*
#183000
0#
#183250
0(
#184000
b1011011 $
#184001
1#
1&
#184250
1(
b1011010 )
1*
#185000
0#
#185250
0(
#186000
b1011100 $
#186001
1#
1&
#186250
1(
b1011011 )
1*
#187000
0#
#187250
0(
#188000
b1011101 $
#188001
1#
1&
#188250
1(
b1011100 )
1*
#189000
0#
#189250
0(
#190000
b1011110 $
#190001
1#
1&
#190250
1(
b1011101 )
1*
#191000
0#
#191250
0(
#192000
b1011111 $
#192001
1#
1&
#192250
1(
b1011110 )
1*
#193000
0#
#193250
0(
#194000
b1100000 $
#194001
1#
1&
#194250
1(
b1011111 )
1*
#195000
0#
#195250
0(
#196000
b1100001 $
#196001
1#
1&
#196250
1(
b1100000 )
1*
#197000
0#
#197250
0(
#198000
b1100010 $
#198001
1#
1&
#198250
1(
b1100001 )
1*
#199000
0#
#199250
0(
#200000
b1100011 $
#200001
1#
1&
#200250
1(
b1100010 )
1*
#201000
0#
#201250
0(
#202000
b1100100 $
#202001
1#
1&
#202250
1(
b1100011 )
1*
#203000
0#
#203250
0(
#204000
b1100101 $
#204001
1#
1&
#204250
1(
b1100100 )
1*
#205000
0#
#205250
0(
#206000
b1100110 $
#206001
1#
1&
#206250
1(
b1100101 )
1*
#207000
0#
#207250
0(
#208000
b1100111 $
#208001
1#
1&
#208250
1(
b1100110 )
1*
#209000
0#
#209250
0(
#210000
b1101000 $
#210001
1#
1&
#210250
1(
b1100111 )
1*
#211000
0#
#211250
0(
#212000
b1101001 $
#212001
1#
1&
#212250
1(
b1101000 )
1*
#213000
0#
#213250
0(
#214000
b1101010 $
#214001
1#
1&
#214250
1(
b1101001 )
1*
#215000
0#
#215250
0(
#216000
b1101011 $
#216001
1#
1&
#216250
1(
b1101010 )
1*
#217000
0#
#217250
0(
#218000
b1101100 $
#218001
1#
1&
#218250
1(
b1101011 )
1*
#219000
0#
#219250
0(
#220000
b1101101 $
#220001
1#
1&
#220250
1(
b1101100 )
1*
#221000
0#
#221250
0(
#222000
b1101110 $
#222001
1#
1&
#222250
1(
b1101101 )
1*
#223000
0#
#223250
0(
#224000
b1101111 $
#224001
1#
1&
#224250
1(
b1101110 )
1*
#225000
0#
#225250
0(
#226000
b1110000 $
#226001
1#
1&
#226250
1(
b1101111 )
1*
#227000
0#
#227250
0(
#228000
b1110001 $
#228001
1#
1&
#228250
1(
b1110000 )
1*
#229000
0#
#229250
0(
#230000
b1110010 $
#230001
1#
1&
#230250
1(
b1110001 )
1*
#231000
0#
#231250
0(
#232000
b1110011 $
#232001
1#
1&
#232250
1(
b1110010 )
1*
#233000
0#
#233250
0(
#234000
b1110100 $
#234001
1#
1&
#234250
1(
b1110011 )
1*
#235000
0#
#235250
0(
#236000
b1110101 $
#236001
1#
1&
#236250
1(
b1110100 )
1*
#237000
0#
#237250
0(
#238000
b1110110 $
#238001
1#
1&
#238250
1(
b1110101 )
1*
#239000
0#
#239250
0(
#240000
b1110111 $
#240001
1#
1&
#240250
1(
b1110110 )
1*
#241000
0#
#241250
0(
#242000
b1111000 $
#242001
1#
1&
#242250
1(
b1110111 )
1*
#243000
0#
#243250
0(
#244000
b1111001 $
#244001
1#
1&
#244250
1(
b1111000 )
1*
#245000
0#
#245250
0(
#246000
b1111010 $
#246001
1#
1&
#246250
1(
b1111001 )
1*
#247000
0#
#247250
0(
#248000
b1111011 $
#248001
1#
1&
#248250
1(
b1111010 )
1*
#249000
0#
#249250
0(
#250000
b1111100 $
#250001
1#
1&
#250250
1(
b1111011 )
1*
#251000
0#
#251250
0(
#252000
b1111101 $
#252001
1#
1&
#252250
1(
b1111100 )
1*
#253000
0#
#253250
0(
#254000
b1111110 $
#254001
1#
1&
#254250
1(
b1111101 )
1*
#255000
0#
#255250
0(
#256000
b1111111 $
#256001
1#
1&
#256250
1(
b1111110 )
1*
#257000
0#
#257250
0(
#258000
b10000000 $
#258001
1#
1&
#258250
1(
b1111111 )
1*
#259000
0#
#259250
0(
#260000
b10000001 $
#260001
1#
1&
#260250
1(
b10000000 )
1*
#261000
0#
#261250
0(
#262000
b10000010 $
#262001
1#
1&
#262250
1(
b10000001 )
1*
#263000
0#
#263250
0(
#264000
b10000011 $
#264001
1#
1&
#264250
1(
b10000010 )
1*
#265000
0#
#265250
0(
#266000
b10000100 $
#266001
1#
1&
#266250
1(
b10000011 )
1*
#267000
0#
#267250
0(
#268000
b10000101 $
#268001
1#
1&
#268250
1(
b10000100 )
1*
#269000
0#
#269250
0(
#270000
b10000110 $
#270001
1#
1&
#270250
1(
b10000101 )
1*
#271000
0#
#271250
0(
#272000
b10000111 $
#272001
1#
1&
#272250
1(
b10000110 )
1*
#273000
0#
#273250
0(
#274000
b10001000 $
#274001
1#
1&
#274250
1(
b10000111 )
1*
#275000
0#
#275250
0(
#276000
b10001001 $
#276001
1#
1&
#276250
1(
b10001000 )
1*
#277000
0#
#277250
0(
#278000
b10001010 $
#278001
1#
1&
#278250
1(
b10001001 )
1*
#279000
0#
#279250
0(
#280000
b10001011 $
#280001
1#
1&
#280250
1(
b10001010 )
1*
#281000
0#
#281250
0(
#282000
b10001100 $
#282001
1#
1&
#282250
1(
b10001011 )
1*
#283000
0#
#283250
0(
#284000
b10001101 $
#284001
1#
1&
#284250
1(
b10001100 )
1*
#285000
0#
#285250
0(
#286000
b10001110 $
#286001
1#
1&
#286250
1(
b10001101 )
1*
#287000
0#
#287250
0(
#288000
b10001111 $
#288001
1#
1&
#288250
1(
b10001110 )
1*
#289000
0#
#289250
0(
#290000
b10010000 $
#290001
1#
1&
#290250
1(
b10001111 )
1*
#291000
0#
#291250
0(
#292000
b10010001 $
#292001
1#
1&
#292250
1(
b10010000 )
1*
#293000
0#
#293250
0(
#294000
b10010010 $
#294001
1#
1&
#294250
1(
b10010001 )
1*
#295000
0#
#295250
0(
#296000
b10010011 $
#296001
1#
1&
#296250
1(
b10010010 )
1*
#297000
0#
#297250
0(
#298000
b10010100 $
#298001
1#
1&
#298250
1(
b10010011 )
1*
#299000
0#
#299250
0(
#300000
b10010101 $
#300001
1#
1&
#300250
1(
b10010100 )
1*
#301000
0#
#301250
0(
#302000
b10010110 $
#302001
1#
1&
#302250
1(
b10010101 )
1*
#303000
0#
#303250
0(
#304000
b10010111 $
#304001
1#
1&
#304250
1(
b10010110 )
1*
#305000
0#
#305250
0(
#306000
b10011000 $
#306001
1#
1&
#306250
1(
b10010111 )
1*
#307000
0#
#307250
0(
#308000
b10011001 $
#308001
1#
1&
#308250
1(
b10011000 )
1*
#309000
0#
#309250
0(
#310000
b10011010 $
#310001
1#
1&
#310250
1(
b10011001 )
1*
#311000
0#
#311250
0(
#312000
b10011011 $
#312001
1#
1&
#312250
1(
b10011010 )
1*
#313000
0#
#313250
0(
#314000
b10011100 $
#314001
1#
1&
#314250
1(
b10011011 )
1*
#315000
0#
#315250
0(
#316000
b10011101 $
#316001
1#
1&
#316250
1(
b10011100 )
1*
#317000
0#
#317250
0(
#318000
b10011110 $
#318001
1#
1&
#318250
1(
b10011101 )
1*
#319000
0#
#319250
0(
#320000
b10011111 $
#320001
1#
1&
#320250
1(
b10011110 )
1*
#321000
0#
#321250
0(
#322000
b10100000 $
#322001
1#
1&
#322250
1(
b10011111 )
1*
#323000
0#
#323250
0(
#324000
b10100001 $
#324001
1#
1&
#324250
1(
b10100000 )
1*
#325000
0#
#325250
0(
#326000
b10100010 $
#326001
1#
1&
#326250
1(
b10100001 )
1*
#327000
0#
#327250
0(
#328000
b10100011 $
#328001
1#
1&
#328250
1(
b10100010 )
1*
#329000
0#
#329250
0(
#330000
b10100100 $
#330001
1#
1&
#330250
1(
b10100011 )
1*
#331000
0#
#331250
0(
#332000
b10100101 $
#332001
1#
1&
#332250
1(
b10100100 )
1*
#333000
0#
#333250
0(
#334000
b10100110 $
#334001
1#
1&
#334250
1(
b10100101 )
1*
#335000
0#
#335250
0(
#336000
b10100111 $
#336001
1#
1&
#336250
1(
b10100110 )
1*
#337000
0#
#337250
0(
#338000
b10101000 $
#338001
1#
1&
#338250
1(
b10100111 )
1*
#339000
0#
#339250
0(
#340000
b10101001 $
#340001
1#
1&
#340250
1(
b10101000 )
1*
#341000
0#
#341250
0(
#342000
b10101010 $
#342001
1#
1&
#342250
1(
b10101001 )
1*
#343000
0#
#343250
0(
#344000
b10101011 $
#344001
1#
1&
#344250
1(
b10101010 )
1*
#345000
0#
#345250
0(
#346000
b10101100 $
#346001
1#
1&
#346250
1(
b10101011 )
1*
#347000
0#
#347250
0(
#348000
b10101101 $
#348001
1#
1&
#348250
1(
b10101100 )
1*
#349000
0#
#349250
0(
#350000
b10101110 $
#350001
1#
1&
#350250
1(
b10101101 )
1*
#351000
0#
#351250
0(
#352000
b10101111 $
#352001
1#
1&
#352250
1(
b10101110 )
1*
#353000
0#
#353250
0(
#354000
b10110000 $
#354001
1#
1&
#354250
1(
b10101111 )
1*
#355000
0#
#355250
0(
#356000
b10110001 $
#356001
1#
1&
#356250
1(
b10110000 )
1*
#357000
0#
#357250
0(
#358000
b10110010 $
#358001
1#
1&
#358250
1(
b10110001 )
1*
#359000
0#
#359250
0(
#360000
b10110011 $
#360001
1#
1&
#360250
1(
b10110010 )
1*
#361000
0#
#361250
0(
#362000
b10110100 $
#362001
1#
1&
#362250
1(
b10110011 )
1*
#363000
0#
#363250
0(
#364000
b10110101 $
#364001
1#
1&
#364250
1(
b10110100 )
1*
#365000
0#
#365250
0(
#366000
b10110110 $
#366001
1#
1&
#366250
1(
b10110101 )
1*
#367000
0#
#367250
0(
#368000
b10110111 $
#368001
1#
1&
#368250
1(
b10110110 )
1*
#369000
0#
#369250
0(
#370000
b10111000 $
#370001
1#
1&
#370250
1(
b10110111 )
1*
#371000
0#
#371250
0(
#372000
b10111001 $
#372001
1#
1&
#372250
1(
b10111000 )
1*
#373000
0#
#373250
0(
#374000
b10111010 $
#374001
1#
1&
#374250
1(
b10111001 )
1*
#375000
0#
#375250
0(
#376000
b10111011 $
#376001
1#
1&
#376250
1(
b10111010 )
1*
#377000
0#
#377250
0(
#378000
b10111100 $
#378001
1#
1&
#378250
1(
b10111011 )
1*
#379000
0#
#379250
0(
#380000
b10111101 $
#380001
1#
1&
#380250
1(
b10111100 )
1*
#381000
0#
#381250
0(
#382000
b10111110 $
#382001
1#
1&
#382250
1(
b10111101 )
1*
#383000
0#
#383250
0(
#384000
b10111111 $
#384001
1#
1&
#384250
1(
b10111110 )
1*
#385000
0#
#385250
0(
#386000
b11000000 $
#386001
1#
1&
#386250
1(
b10111111 )
1*
#387000
0#
#387250
0(
#388000
b11000001 $
#388001
1#
1&
#388250
1(
b11000000 )
1*
#389000
0#
#389250
0(
#390000
b11000010 $
#390001
1#
1&
#390250
1(
b11000001 )
1*
#391000
0#
#391250
0(
#392000
b11000011 $
#392001
1#
1&
#392250
1(
b11000010 )
1*
#393000
0#
#393250
0(
#394000
b11000100 $
#394001
1#
1&
#394250
1(
b11000011 )
1*
#395000
0#
#395250
0(
#396000
b11000101 $
#396001
1#
1&
#396250
1(
b11000100 )
1*
#397000
0#
#397250
0(
#398000
b11000110 $
#398001
1#
1&
#398250
1(
b11000101 )
1*
#399000
0#
#399250
0(
#400000
b11000111 $
#400001
1#
1&
#400250
1(
b11000110 )
1*
#401000
0#
#401250
0(
#402000
b11001000 $
#402001
1#
1&
#402250
1(
b11000111 )
1*
#403000
0#
#403250
0(
#404000
b11001001 $
#404001
1#
1&
#404250
1(
b11001000 )
1*
#405000
0#
#405250
0(
#406000
b11001010 $
#406001
1#
1&
#406250
1(
b11001001 )
1*
#407000
0#
#407250
0(
#408000
b11001011 $
#408001
1#
1&
#408250
1(
b11001010 )
1*
#409000
0#
#409250
0(
#410000
b11001100 $
#410001
1#
1&
#410250
1(
b11001011 )
1*
#411000
0#
#411250
0(
#412000
b11001101 $
#412001
1#
1&
#412250
1(
b11001100 )
1*
#413000
0#
#413250
0(
#414000
b11001110 $
#414001
1#
1&
#414250
1(
b11001101 )
1*
#415000
0#
#415250
0(
#416000
b11001111 $
#416001
1#
1&
#416250
1(
b11001110 )
1*
#417000
0#
#417250
0(
#418000
b11010000 $
#418001
1#
1&
#418250
1(
b11001111 )
1*
#419000
0#
#419250
0(
#420000
b11010001 $
#420001
1#
1&
#420250
1(
b11010000 )
1*
#421000
0#
#421250
0(
#422000
b11010010 $
#422001
1#
1&
#422250
1(
b11010001 )
1*
#423000
0#
#423250
0(
#424000
b11010011 $
#424001
1#
1&
#424250
1(
b11010010 )
1*
#425000
0#
#425250
0(
#426000
b11010100 $
#426001
1#
1&
#426250
1(
b11010011 )
1*
#427000
0#
#427250
0(
#428000
b11010101 $
#428001
1#
1&
#428250
1(
b11010100 )
1*
#429000
0#
#429250
0(
#430000
b11010110 $
#430001
1#
1&
#430250
1(
b11010101 )
1*
#431000
0#
#431250
0(
#432000
b11010111 $
#432001
1#
1&
#432250
1(
b11010110 )
1*
#433000
0#
#433250
0(
#434000
b11011000 $
#434001
1#
1&
#434250
1(
b11010111 )
1*
#435000
0#
#435250
0(
#436000
b11011001 $
#436001
1#
1&
#436250
1(
b11011000 )
1*
#437000
0#
#437250
0(
#438000
b11011010 $
#438001
1#
1&
#438250
1(
b11011001 )
1*
#439000
0#
#439250
0(
#440000
b11011011 $
#440001
1#
1&
#440250
1(
b11011010 )
1*
#441000
0#
#441250
0(
#442000
b11011100 $
#442001
1#
1&
#442250
1(
b11011011 )
1*
#443000
0#
#443250
0(
#444000
b11011101 $
#444001
1#
1&
#444250
1(
b11011100 )
1*
#445000
0#
#445250
0(
#446000
b11011110 $
#446001
1#
1&
#446250
1(
b11011101 )
1*
#447000
0#
#447250
0(
#448000
b11011111 $
#448001
1#
1&
#448250
1(
b11011110 )
1*
#449000
0#
#449250
0(
#450000
b11100000 $
#450001
1#
1&
#450250
1(
b11011111 )
1*
#451000
0#
#451250
0(
#452000
b11100001 $
#452001
1#
1&
#452250
1(
b11100000 )
1*
#453000
0#
#453250
0(
#454000
b11100010 $
#454001
1#
1&
#454250
1(
b11100001 )
1*
#455000
0#
#455250
0(
#456000
b11100011 $
#456001
1#
1&
#456250
1(
b11100010 )
1*
#457000
0#
#457250
0(
#458000
b11100100 $
#458001
1#
1&
#458250
1(
b11100011 )
1*
#459000
0#
#459250
0(
#460000
b11100101 $
#460001
1#
1&
#460250
1(
b11100100 )
1*
#461000
0#
#461250
0(
#462000
b11100110 $
#462001
1#
1&
#462250
1(
b11100101 )
1*
#463000
0#
#463250
0(
#464000
b11100111 $
#464001
1#
1&
#464250
1(
b11100110 )
1*
#465000
0#
#465250
0(
#466000
b11101000 $
#466001
1#
1&
#466250
1(
b11100111 )
1*
#467000
0#
#467250
0(
#468000
b11101001 $
#468001
1#
1&
#468250
1(
b11101000 )
1*
#469000
0#
#469250
0(
#470000
b11101010 $
#470001
1#
1&
#470250
1(
b11101001 )
1*
#471000
0#
#471250
0(
#472000
b11101011 $
#472001
1#
1&
#472250
1(
b11101010 )
1*
#473000
0#
#473250
0(
#474000
b11101100 $
#474001
1#
1&
#474250
1(
b11101011 )
1*
#475000
0#
#475250
0(
#476000
b11101101 $
#476001
1#
1&
#476250
1(
b11101100 )
1*
#477000
0#
#477250
0(
#478000
b11101110 $
#478001
1#
1&
#478250
1(
b11101101 )
1*
#479000
0#
#479250
0(
#480000
b11101111 $
#480001
1#
1&
#480250
1(
b11101110 )
1*
#481000
0#
#481250
0(
#482000
b11110000 $
#482001
1#
1&
#482250
1(
b11101111 )
1*
#483000
0#
#483250
0(
#484000
b11110001 $
#484001
1#
1&
#484250
1(
b11110000 )
1*
#485000
0#
#485250
0(
#486000
b11110010 $
#486001
1#
1&
#486250
1(
b11110001 )
1*
#487000
0#
#487250
0(
#488000
b11110011 $
#488001
1#
1&
#488250
1(
b11110010 )
1*
#489000
0#
#489250
0(
#490000
b11110100 $
#490001
1#
1&
#490250
1(
b11110011 )
1*
#491000
0#
#491250
0(
#492000
b11110101 $
#492001
1#
1&
#492250
1(
b11110100 )
1*
#493000
0#
#493250
0(
#494000
b11110110 $
#494001
1#
1&
#494250
1(
b11110101 )
1*
#495000
0#
#495250
0(
#496000
b11110111 $
#496001
1#
1&
#496250
1(
b11110110 )
1*
#497000
0#
#497250
0(
#498000
b11111000 $
#498001
1#
1&
#498250
1(
b11110111 )
1*
#499000
0#
#499250
0(
#500000
b11111001 $
#500001
1#
1&
#500250
1(
b11111000 )
1*
#501000
0#
#501250
0(
#502000
b11111010 $
#502001
1#
1&
#502250
1(
b11111001 )
1*
#503000
0#
#503250
0(
#504000
b11111011 $
#504001
1#
1&
#504250
1(
b11111010 )
1*
#505000
0#
#505250
0(
#506000
b11111100 $
#506001
1#
1&
#506250
1(
b11111011 )
1*
#507000
0#
#507250
0(
#508000
b11111101 $
#508001
1#
1&
#508250
1(
b11111100 )
1*
#509000
0#
#509250
0(
#510000
b11111110 $
#510001
1#
1&
#510250
1(
b11111101 )
1*
#511000
0#
#511250
0(
#512000
b11111111 $
#512001
1#
1&
#512250
1(
b11111110 )
1*
#513000
0#
#513250
0(
#514000
b100000000 $
#514001
1#
1&
#514250
1(
b11111111 )
1*
#515000
0#
#515250
0(
#516000
b100000001 $
#516001
1#
1&
#516250
1(
b100000000 )
1*
#517000
0#
#517250
0(
#518000
b100000010 $
#518001
1#
1&
#518250
1(
b100000001 )
1*
#519000
0#
#519250
0(
#520000
b100000011 $
#520001
1#
1&
#520250
1(
b100000010 )
1*
#521000
0#
#521250
0(
#522000
b100000100 $
#522001
1#
1&
#522250
1(
b100000011 )
1*
#523000
0#
#523250
0(
#524000
b100000101 $
#524001
1#
1&
#524250
1(
b100000100 )
1*
#525000
0#
#525250
0(
#526000
b100000110 $
#526001
1#
1&
#526250
1(
b100000101 )
1*
#527000
0#
#527250
0(
#528000
b100000111 $
#528001
1#
1&
#528250
1(
b100000110 )
1*
#529000
0#
#529250
0(
#530000
b100001000 $
#530001
1#
1&
#530250
1(
b100000111 )
1*
#531000
0#
#531250
0(
#532000
b100001001 $
#532001
1#
1&
#532250
1(
b100001000 )
1*
#533000
0#
#533250
0(
#534000
b100001010 $
#534001
1#
1&
#534250
1(
b100001001 )
1*
#535000
0#
#535250
0(
#536000
b100001011 $
#536001
1#
1&
#536250
1(
b100001010 )
1*
#537000
0#
#537250
0(
#538000
b100001100 $
#538001
1#
1&
#538250
1(
b100001011 )
1*
#539000
0#
#539250
0(
#540000
b100001101 $
#540001
1#
1&
#540250
1(
b100001100 )
1*
#541000
0#
#541250
0(
#542000
b100001110 $
#542001
1#
1&
#542250
1(
b100001101 )
1*
#543000
0#
#543250
0(
#544000
b100001111 $
#544001
1#
1&
#544250
1(
b100001110 )
1*
#545000
0#
#545250
0(
#546000
b100010000 $
#546001
1#
1&
#546250
1(
b100001111 )
1*
#547000
0#
#547250
0(
#548000
b100010001 $
#548001
1#
1&
#548250
1(
b100010000 )
1*
#549000
0#
#549250
0(
#550000
b100010010 $
#550001
1#
1&
#550250
1(
b100010001 )
1*
#551000
0#
#551250
0(
#552000
b100010011 $
#552001
1#
1&
#552250
1(
b100010010 )
1*
#553000
0#
#553250
0(
#554000
b100010100 $
#554001
1#
1&
#554250
1(
b100010011 )
1*
#555000
0#
#555250
0(
#556000
b100010101 $
#556001
1#
1&
#556250
1(
b100010100 )
1*
#557000
0#
#557250
0(
#558000
b100010110 $
#558001
1#
1&
#558250
1(
b100010101 )
1*
#559000
0#
#559250
0(
#560000
b100010111 $
#560001
1#
1&
#560250
1(
b100010110 )
1*
#561000
0#
#561250
0(
#562000
b100011000 $
#562001
1#
1&
#562250
1(
b100010111 )
1*
#563000
0#
#563250
0(
#564000
b100011001 $
#564001
1#
1&
#564250
1(
b100011000 )
1*
#565000
0#
#565250
0(
#566000
b100011010 $
#566001
1#
1&
#566250
1(
b100011001 )
1*
#567000
0#
#567250
0(
#568000
b100011011 $
