vivado-vcd/cdc_2phase.vcd
$date
   Sat Aug 22 17:30:53 2020
$end
$version
  2020.1
$end
$timescale
  1ps
$end
$scope module cdc_2phase_tb $end
$var reg 32 ! ERRORS $end
$var reg 1 " src_rst_ni $end
$var reg 1 # src_clk_i $end
$var reg 32 $ src_data_i $end
$var reg 1 % src_valid_i $end
$var reg 1 & src_ready_o $end
$var reg 1 ' dst_rst_ni $end
$var reg 1 ( dst_clk_i $end
$var reg 32 ) dst_data_o $end
$var reg 1 * dst_valid_o $end
$var reg 1 + dst_ready_i $end
$var parameter 32 , N [31:0] $end
$upscope $end
$enddefinitions $end
#0
$dumpvars
b0 !
0"
x#
b0 $
x%
1&
0'
x(
b0 )
0*
x+
b1111010000100100000 ,
$end
#1000
1"
1'
#2000
1#
1%
0&
1(
1+
#3000
0#
0(
#4000
1#
1(
#5000
0#
0(
#6000
1#
1(
#7000
0#
0(
#8000
1#
1(
1*
#9000
0#
0(
#10000
1#
1(
0*
#11000
0#
0(
#12000
1#
1(
#13000
0#
0(
#14000
1#
1&
1(
#15000
0#
0(
#16000
1#
b1 $
0&
1(
#17000
0#
0(
#18000
1#
1(
#19000
0#
0(
#20000
1#
1(
#21000
0#
0(
#22000
1#
1(
b1 )
1*
#23000
0#
0(
#24000
1#
1(
0*
#25000
0#
0(
#26000
1#
1(
#27000
0#
0(
#28000
1#
1&
1(
#29000
0#
0(
#30000
1#
b10 $
0&
1(
#31000
0#
0(
#32000
1#
1(
#33000
0#
0(
#34000
1#
1(
#35000
0#
0(
#36000
1#
1(
b10 )
1*
#37000
0#
0(
#38000
1#
1(
0*
#39000
0#
0(
#40000
1#
1(
#41000
0#
0(
#42000
1#
1&
1(
#43000
0#
0(
#44000
1#
b11 $
0&
1(
#45000
0#
0(
#46000
1#
1(
#47000
0#
0(
#48000
1#
1(
#49000
0#
0(
#50000
1#
1(
b11 )
1*
#51000
0#
0(
#52000
1#
1(
0*
#53000
0#
0(
#54000
1#
1(
#55000
0#
0(
#56000
1#
1&
1(
#57000
0#
0(
#58000
1#
b100 $
0&
1(
#59000
0#
0(
#60000
1#
1(
#61000
0#
0(
#62000
1#
1(
#63000
0#
0(
#64000
1#
1(
b100 )
1*
#65000
0#
0(
#66000
1#
1(
0*
#67000
0#
0(
#68000
1#
1(
#69000
0#
0(
#70000
1#
1&
1(
#71000
0#
0(
#72000
1#
b101 $
0&
1(
#73000
0#
0(
#74000
1#
1(
#75000
0#
0(
#76000
1#
1(
#77000
0#
0(
#78000
1#
1(
b101 )
1*
#79000
0#
0(
#80000
1#
1(
0*
#81000
0#
0(
#82000
1#
1(
#83000
0#
0(
#84000
1#
1&
1(
#85000
0#
0(
#86000
1#
b110 $
0&
1(
#87000
0#
0(
#88000
1#
1(
#89000
0#
0(
#90000
1#
1(
#91000
0#
0(
#92000
1#
1(
b110 )
1*
#93000
0#
0(
#94000
1#
1(
0*
#95000
0#
0(
#96000
1#
1(
#97000
0#
0(
#98000
1#
1&
1(
#99000
0#
0(
#100000
1#
b111 $
0&
1(
#101000
0#
0(
#102000
1#
1(
#103000
0#
0(
#104000
1#
1(
#105000
0#
0(
#106000
1#
1(
b111 )
1*
#107000
0#
0(
#108000
1#
1(
0*
#109000
0#
0(
#110000
1#
1(
#111000
0#
0(
#112000
1#
1&
1(
#113000
0#
0(
#114000
1#
b1000 $
0&
1(
#115000
0#
0(
#116000
1#
1(
#117000
0#
0(
#118000
1#
1(
#119000
0#
0(
#120000
1#
1(
b1000 )
1*
#121000
0#
0(
#122000
1#
1(
0*
#123000
0#
0(
#124000
1#
1(
#125000
0#
0(
#126000
1#
1&
1(
#127000
0#
0(
#128000
1#
b1001 $
0&
1(
#129000
0#
0(
#130000
1#
1(
#131000
0#
0(
#132000
1#
1(
#133000
0#
0(
#134000
1#
1(
b1001 )
1*
#135000
0#
0(
#136000
1#
1(
0*
#137000
0#
0(
#138000
1#
1(
#139000
0#
0(
#140000
1#
1&
1(
#141000
0#
0(
#142000
1#
b1010 $
0&
1(
#143000
0#
0(
#144000
1#
1(
#145000
0#
0(
#146000
1#
1(
#147000
0#
0(
#148000
1#
1(
b1010 )
1*
#149000
0#
0(
#150000
1#
1(
0*
#151000
0#
0(
#152000
1#
1(
#153000
0#
0(
#154000
1#
1&
1(
#155000
0#
0(
#156000
1#
b1011 $
0&
1(
#157000
0#
0(
#158000
1#
1(
#159000
0#
0(
#160000
1#
1(
#161000
0#
0(
#162000
1#
1(
b1011 )
1*
#163000
0#
0(
#164000
1#
1(
0*
#165000
0#
0(
#166000
1#
1(
#167000
0#
0(
#168000
1#
1&
1(
#169000
0#
0(
#170000
1#
b1100 $
0&
1(
#171000
0#
0(
#172000
1#
1(
#173000
0#
0(
#174000
1#
1(
#175000
0#
0(
#176000
1#
1(
b1100 )
1*
#177000
0#
0(
#178000
1#
1(
0*
#179000
0#
0(
#180000
1#
1(
#181000
0#
0(
#182000
1#
1&
1(
#183000
0#
0(
#184000
1#
b1101 $
0&
1(
#185000
0#
0(
#186000
1#
1(
#187000
0#
0(
#188000
1#
1(
#189000
0#
0(
#190000
1#
1(
b1101 )
1*
#191000
0#
0(
#192000
1#
1(
0*
#193000
0#
0(
#194000
1#
1(
#195000
0#
0(
#196000
1#
1&
1(
#197000
0#
0(
#198000
1#
b1110 $
0&
1(
#199000
0#
0(
#200000
1#
1(
#201000
0#
0(
#202000
1#
1(
#203000
0#
0(
#204000
1#
1(
b1110 )
1*
#205000
0#
0(
#206000
1#
1(
0*
#207000
0#
0(
#208000
1#
1(
#209000
0#
0(
#210000
1#
1&
1(
#211000
0#
0(
#212000
1#
b1111 $
0&
1(
#213000
0#
0(
#214000
1#
1(
#215000
0#
0(
#216000
1#
1(
#217000
0#
0(
#218000
1#
1(
b1111 )
1*
#219000
0#
0(
#220000
1#
1(
0*
#221000
0#
0(
#222000
1#
1(
#223000
0#
0(
#224000
1#
1&
1(
#225000
0#
0(
#226000
1#
b10000 $
0&
1(
#227000
0#
0(
#228000
1#
1(
#229000
0#
0(
#230000
1#
1(
#231000
0#
0(
#232000
1#
1(
b10000 )
1*
#233000
0#
0(
#234000
1#
1(
0*
#235000
0#
0(
#236000
1#
1(
#237000
0#
0(
#238000
1#
1&
1(
#239000
0#
0(
#240000
1#
b10001 $
0&
1(
#241000
0#
0(
#242000
1#
1(
#243000
0#
0(
#244000
1#
1(
#245000
0#
0(
#246000
1#
1(
b10001 )
1*
#247000
0#
0(
#248000
1#
1(
0*
#249000
0#
0(
#250000
1#
1(
#251000
0#
0(
#252000
1#
1&
1(
#253000
0#
0(
#254000
1#
b10010 $
0&
1(
#255000
0#
0(
#256000
1#
1(
#257000
0#
0(
#258000
1#
1(
#259000
0#
0(
#260000
1#
1(
b10010 )
1*
#261000
0#
0(
#262000
1#
1(
0*
#263000
0#
0(
#264000
1#
1(
#265000
0#
0(
#266000
1#
1&
1(
#267000
0#
0(
#268000
1#
b10011 $
0&
1(
#269000
0#
0(
#270000
1#
1(
#271000
0#
0(
#272000
1#
1(
#273000
0#
0(
#274000
1#
1(
b10011 )
1*
#275000
0#
0(
#276000
1#
1(
0*
#277000
0#
0(
#278000
1#
1(
#279000
0#
0(
#280000
1#
1&
1(
#281000
0#
0(
#282000
1#
b10100 $
0&
1(
#283000
0#
0(
#284000
1#
1(
#285000
0#
0(
#286000
1#
1(
#287000
0#
0(
#288000
1#
1(
b10100 )
1*
#289000
0#
0(
#290000
1#
1(
0*
#291000
0#
0(
#292000
1#
1(
#293000
0#
0(
#294000
1#
1&
1(
#295000
0#
0(
#296000
1#
b10101 $
0&
1(
#297000
0#
0(
#298000
1#
1(
#299000
0#
0(
#300000
1#
1(
#301000
0#
0(
#302000
1#
1(
b10101 )
1*
#303000
0#
0(
#304000
1#
1(
0*
#305000
0#
0(
#306000
1#
1(
#307000
0#
0(
#308000
1#
1&
1(
#309000
0#
0(
#310000
1#
b10110 $
0&
1(
#311000
0#
0(
#312000
1#
1(
#313000
0#
0(
#314000
1#
1(
#315000
0#
0(
#316000
1#
1(
b10110 )
1*
#317000
0#
0(
#318000
1#
1(
0*
#319000
0#
0(
#320000
1#
1(
#321000
0#
0(
#322000
1#
1&
1(
#323000
0#
0(
#324000
1#
b10111 $
0&
1(
#325000
0#
0(
#326000
1#
1(
#327000
0#
0(
#328000
1#
1(
#329000
0#
0(
#330000
1#
1(
b10111 )
1*
#331000
0#
0(
#332000
1#
1(
0*
#333000
0#
0(
#334000
1#
1(
#335000
0#
0(
#336000
1#
1&
1(
#337000
0#
0(
#338000
1#
b11000 $
0&
1(
#339000
0#
0(
#340000
1#
1(
#341000
0#
0(
#342000
1#
1(
#343000
0#
0(
#344000
1#
1(
b11000 )
1*
#345000
0#
0(
#346000
1#
1(
0*
#347000
0#
0(
#348000
1#
1(
#349000
0#
0(
#350000
1#
1&
1(
#351000
0#
0(
#352000
1#
b11001 $
0&
1(
#353000
0#
0(
#354000
1#
1(
#355000
0#
0(
#356000
1#
1(
#357000
0#
0(
#358000
1#
1(
b11001 )
1*
#359000
0#
0(
#360000
1#
1(
0*
#361000
0#
0(
#362000
1#
1(
#363000
0#
0(
#364000
1#
1&
1(
#365000
0#
0(
#366000
1#
b11010 $
0&
1(
#367000
0#
0(
#368000
1#
1(
#369000
0#
0(
#370000
1#
1(
#371000
0#
0(
#372000
1#
1(
b11010 )
1*
#373000
0#
0(
#374000
1#
1(
0*
#375000
0#
0(
#376000
1#
1(
#377000
0#
0(
#378000
1#
1&
1(
#379000
0#
0(
#380000
1#
b11011 $
0&
1(
#381000
0#
0(
#382000
1#
1(
#383000
0#
0(
#384000
1#
1(
#385000
0#
0(
#386000
1#
1(
b11011 )
1*
#387000
0#
0(
#388000
1#
1(
0*
#389000
0#
0(
#390000
1#
1(
#391000
0#
0(
#392000
1#
1&
1(
#393000
0#
0(
#394000
1#
b11100 $
0&
1(
#395000
0#
0(
#396000
1#
1(
#397000
0#
0(
#398000
1#
1(
#399000
0#
0(
#400000
1#
1(
b11100 )
1*
#401000
0#
0(
#402000
1#
1(
0*
#403000
0#
0(
#404000
1#
1(
#405000
0#
0(
#406000
1#
1&
1(
#407000
0#
0(
#408000
1#
b11101 $
0&
1(
#409000
0#
0(
#410000
1#
1(
#411000
0#
0(
#412000
1#
1(
#413000
0#
0(
#414000
1#
1(
b11101 )
1*
#415000
0#
0(
#416000
1#
1(
0*
#417000
0#
0(
#418000
1#
1(
#419000
0#
0(
#420000
1#
1&
1(
#421000
0#
0(
#422000
1#
b11110 $
0&
1(
#423000
0#
0(
#424000
1#
1(
#425000
0#
0(
#426000
1#
1(
#427000
0#
0(
#428000
1#
1(
b11110 )
1*
#429000
0#
0(
#430000
1#
1(
0*
#431000
0#
0(
#432000
1#
1(
#433000
0#
0(
#434000
1#
1&
1(
#435000
0#
0(
#436000
1#
b11111 $
0&
1(
#437000
0#
0(
#438000
1#
1(
#439000
0#
0(
#440000
1#
1(
#441000
0#
0(
#442000
1#
1(
b11111 )
1*
#443000
0#
0(
#444000
1#
1(
0*
#445000
0#
0(
#446000
1#
1(
#447000
0#
0(
#448000
1#
1&
1(
#449000
0#
0(
#450000
1#
b100000 $
0&
1(
#451000
0#
0(
#452000
1#
1(
#453000
0#
0(
#454000
1#
1(
#455000
0#
0(
#456000
1#
1(
b100000 )
1*
#457000
0#
0(
#458000
1#
1(
0*
#459000
0#
0(
#460000
1#
1(
#461000
0#
0(
#462000
1#
1&
1(
#463000
0#
0(
#464000
1#
b100001 $
0&
1(
#465000
0#
0(
#466000
1#
1(
#467000
0#
0(
#468000
1#
1(
#469000
0#
0(
#470000
1#
1(
b100001 )
1*
#471000
0#
0(
#472000
1#
1(
0*
#473000
0#
0(
#474000
1#
1(
#475000
0#
0(
#476000
1#
1&
1(
#477000
0#
0(
#478000
1#
b100010 $
0&
1(
#479000
0#
0(
#480000
1#
1(
#481000
0#
0(
#482000
1#
1(
#483000
0#
0(
#484000
1#
1(
b100010 )
1*
#485000
0#
0(
#486000
1#
1(
0*
#487000
0#
0(
#488000
1#
1(
#489000
0#
0(
#490000
1#
1&
1(
#491000
0#
0(
#492000
1#
b100011 $
0&
1(
#493000
0#
0(
#494000
1#
1(
#495000
0#
0(
#496000
1#
1(
#497000
0#
0(
#498000
1#
1(
b100011 )
1*
#499000
0#
0(
#500000
1#
1(
0*
#501000
0#
0(
#502000
1#
1(
#503000
0#
0(
#504000
1#
1&
1(
#505000
0#
0(
#506000
1#
b100100 $
0&
1(
#507000
0#
0(
#508000
1#
1(
#509000
0#
0(
#510000
1#
1(
#511000
0#
0(
#512000
1#
1(
b100100 )
1*
#513000
0#
0(
#514000
1#
1(
0*
#515000
0#
0(
#516000
1#
1(
#517000
0#
0(
#518000
1#
1&
1(
#519000
0#
0(
#520000
1#
b100101 $
0&
1(
#521000
0#
0(
#522000
1#
1(
#523000
0#
0(
#524000
1#
1(
#525000
0#
0(
#526000
1#
1(
b100101 )
1*
#527000
0#
0(
#528000
1#
1(
0*
#529000
0#
0(
#530000
1#
1(
#531000
0#
0(
#532000
1#
1&
1(
#533000
0#
0(
#534000
1#
b100110 $
0&
1(
#535000
0#
0(
#536000
1#
1(
#537000
0#
0(
#538000
1#
1(
#539000
0#
0(
#540000
1#
1(
b100110 )
1*
#541000
0#
0(
#542000
1#
1(
0*
#543000
0#
0(
#544000
1#
1(
#545000
0#
0(
#546000
1#
1&
1(
#547000
0#
0(
#548000
1#
b100111 $
0&
1(
#549000
0#
0(
#550000
1#
1(
#551000
0#
0(
#552000
1#
1(
#553000
0#
0(
#554000
1#
1(
b100111 )
1*
#555000
0#
0(
#556000
1#
1(
0*
#557000
0#
0(
#558000
1#
1(
#559000
0#
0(
#560000
1#
1&
1(
#561000
0#
0(
#562000
1#
b101000 $
0&
1(
#563000
0#
0(
#564000
1#
1(
#565000
0#
0(
#566000
1#
1(
#567000
0#
0(
#568000
1#
1(
b101000 )
1*
#569000
0#
0(
#570000
1#
1(
0*
#571000
0#
0(
#572000
1#
1(
#573000
0#
0(
#574000
1#
1&
1(
#575000
0#
0(
#576000
1#
b101001 $
0&
1(
#577000
0#
0(
#578000
1#
1(
#579000
0#
0(
#580000
1#
1(
#581000
0#
0(
#582000
1#
1(
b101001 )
1*
#583000
0#
0(
#584000
1#
1(
0*
#585000
0#
0(
#586000
1#
1(
#587000
0#
0(
#588000
1#
1&
1(
#589000
0#
0(
#590000
1#
b101010 $
0&
1(
#591000
0#
0(
#592000
1#
1(
#593000
0#
0(
#594000
1#
1(
#595000
0#
0(
#596000
1#
1(
b101010 )
1*
#597000
0#
0(
#598000
1#
1(
0*
#599000
0#
0(
#600000
1#
1(
#601000
0#
0(
#602000
1#
1&
1(
#603000
0#
0(
#604000
1#
b101011 $
0&
1(
#605000
0#
0(
#606000
1#
1(
#607000
0#
0(
#608000
1#
1(
#609000
0#
0(
#610000
1#
1(
b101011 )
1*
#611000
0#
0(
#612000
1#
1(
0*
#613000
0#
0(
#614000
1#
1(
#615000
0#
0(
#616000
1#
1&
1(
#617000
0#
0(
#618000
1#
b101100 $
0&
1(
#619000
0#
0(
#620000
1#
1(
#621000
0#
0(
#622000
1#
1(
#623000
0#
0(
#624000
1#
1(
b101100 )
1*
#625000
0#
0(
#626000
1#
1(
0*
#627000
0#
0(
#628000
1#
1(
#629000
0#
0(
#630000
1#
1&
1(
#631000
0#
0(
#632000
1#
b101101 $
0&
1(
#633000
0#
0(
#634000
1#
1(
#635000
0#
0(
#636000
1#
1(
#637000
0#
0(
#638000
1#
1(
b101101 )
1*
#639000
0#
0(
#640000
1#
1(
0*
#641000
0#
0(
#642000
1#
1(
#643000
0#
0(
#644000
1#
1&
1(
#645000
0#
0(
#646000
1#
b101110 $
0&
1(
#647000
0#
0(
#648000
1#
1(
#649000
0#
0(
#650000
1#
1(
#651000
0#
0(
#652000
1#
1(
b101110 )
1*
#653000
0#
0(
#654000
1#
1(
0*
#655000
0#
0(
#656000
1#
1(
#657000
0#
0(
#658000
1#
1&
1(
#659000
0#
0(
#660000
1#
b101111 $
0&
1(
#661000
0#
0(
#662000
1#
1(
#663000
0#
0(
#664000
1#
1(
#665000
0#
0(
#666000
1#
1(
b101111 )
1*
#667000
0#
0(
#668000
1#
1(
0*
#669000
0#
0(
#670000
1#
1(
#671000
0#
0(
#672000
1#
1&
1(
#673000
0#
0(
#674000
1#
b110000 $
0&
1(
#675000
0#
0(
#676000
1#
1(
#677000
0#
0(
#678000
1#
1(
#679000
0#
0(
#680000
1#
1(
b110000 )
1*
#681000
0#
0(
#682000
1#
1(
0*
#683000
0#
0(
#684000
1#
1(
#685000
0#
0(
#686000
1#
1&
1(
#687000
0#
0(
#688000
1#
b110001 $
0&
1(
#689000
0#
0(
#690000
1#
1(
#691000
0#
0(
#692000
1#
1(
#693000
0#
0(
#694000
1#
1(
b110001 )
1*
#695000
0#
0(
#696000
1#
1(
0*
#697000
0#
0(
#698000
1#
1(
#699000
0#
0(
#700000
1#
1&
1(
#701000
0#
0(
#702000
1#
b110010 $
0&
1(
#703000
0#
0(
#704000
1#
1(
#705000
0#
0(
#706000
1#
1(
#707000
0#
0(
#708000
1#
1(
b110010 )
1*
#709000
0#
0(
#710000
1#
1(
0*
#711000
0#
0(
#712000
1#
1(
#713000
0#
0(
#714000
1#
1&
1(
#715000
0#
0(
#716000
1#
b110011 $
0&
1(
#717000
0#
0(
#718000
1#
1(
#719000
0#
0(
#720000
1#
1(
#721000
0#
0(
#722000
1#
1(
b110011 )
1*
#723000
0#
0(
#724000
1#
1(
0*
#725000
0#
0(
#726000
1#
1(
#727000
0#
0(
#728000
1#
1&
1(
#729000
0#
0(
#730000
1#
b110100 $
0&
1(
#731000
0#
0(
#732000
1#
1(
#733000
0#
0(
#734000
1#
1(
#735000
0#
0(
#736000
1#
1(
b110100 )
1*
#737000
0#
0(
#738000
1#
1(
0*
#739000
0#
0(
#740000
1#
1(
#741000
0#
0(
#742000
1#
1&
1(
#743000
0#
0(
#744000
1#
b110101 $
0&
1(
#745000
0#
0(
#746000
1#
1(
#747000
0#
0(
#748000
1#
1(
#749000
0#
0(
#750000
1#
1(
b110101 )
1*
#751000
0#
0(
#752000
1#
1(
0*
#753000
0#
0(
#754000
1#
1(
#755000
0#
0(
#756000
1#
1&
1(
#757000
0#
0(
#758000
1#
b110110 $
0&
1(
#759000
0#
0(
#760000
1#
1(
#761000
0#
0(
#762000
1#
1(
#763000
0#
0(
#764000
1#
1(
b110110 )
1*
#765000
0#
0(
#766000
1#
1(
0*
#767000
0#
0(
#768000
1#
1(
#769000
0#
0(
#770000
1#
1&
1(
#771000
0#
0(
#772000
1#
b110111 $
0&
1(
#773000
0#
0(
#774000
1#
1(
#775000
0#
0(
#776000
1#
1(
#777000
0#
0(
#778000
1#
1(
b110111 )
1*
#779000
0#
0(
#780000
1#
1(
0*
#781000
0#
0(
#782000
1#
1(
#783000
0#
0(
#784000
1#
1&
1(
#785000
0#
0(
#786000
1#
b111000 $
0&
1(
#787000
0#
0(
#788000
1#
1(
#789000
0#
0(
#790000
1#
1(
#791000
0#
0(
#792000
1#
1(
b111000 )
1*
#793000
0#
0(
#794000
1#
1(
0*
#795000
0#
0(
#796000
1#
1(
#797000
0#
0(
#798000
1#
1&
1(
#799000
0#
0(
#800000
1#
b111001 $
0&
1(
#801000
0#
0(
#802000
1#
1(
#803000
0#
0(
#804000
1#
1(
#805000
0#
0(
#806000
1#
1(
b111001 )
1*
#807000
0#
0(
#808000
1#
1(
0*
#809000
0#
0(
#810000
1#
1(
#811000
0#
0(
#812000
1#
1&
1(
#813000
0#
0(
#814000
1#
b111010 $
0&
1(
#815000
0#
0(
#816000
1#
1(
#817000
0#
0(
#818000
1#
1(
#819000
0#
0(
#820000
1#
1(
b111010 )
1*
#821000
0#
0(
#822000
1#
1(
0*
#823000
0#
0(
#824000
1#
1(
#825000
0#
0(
#826000
1#
1&
1(
#827000
0#
0(
#828000
1#
b111011 $
0&
1(
#829000
0#
0(
#830000
1#
1(
#831000
0#
0(
#832000
1#
1(
#833000
0#
0(
#834000
1#
1(
b111011 )
1*
#835000
0#
0(
#836000
1#
1(
0*
#837000
0#
0(
#838000
1#
1(
#839000
0#
0(
#840000
1#
1&
1(
#841000
0#
0(
#842000
1#
b111100 $
0&
1(
#843000
0#
0(
#844000
1#
1(
#845000
0#
0(
#846000
1#
1(
#847000
0#
0(
#848000
1#
1(
b111100 )
1*
#849000
0#
0(
#850000
1#
1(
0*
#851000
0#
0(
#852000
1#
1(
#853000
0#
0(
#854000
1#
1&
1(
#855000
0#
0(
#856000
1#
b111101 $
0&
1(
#857000
0#
0(
#858000
1#
1(
#859000
0#
0(
#860000
1#
1(
#861000
0#
0(
#862000
1#
1(
b111101 )
1*
#863000
0#
0(
#864000
1#
1(
0*
#865000
0#
0(
#866000
1#
1(
#867000
0#
0(
#868000
1#
1&
1(
#869000
0#
0(
#870000
1#
b111110 $
0&
1(
#871000
0#
0(
#872000
1#
1(
#873000
0#
0(
#874000
1#
1(
#875000
0#
0(
#876000
1#
1(
b111110 )
1*
#877000
0#
0(
#878000
1#
1(
0*
#879000
0#
0(
#880000
1#
1(
#881000
0#
0(
#882000
1#
1&
1(
#883000
0#
0(
#884000
1#
b111111 $
0&
1(
#885000
0#
0(
#886000
1#
1(
#887000
0#
0(
#888000
1#
1(
#889000
0#
0(
#890000
1#
1(
b111111 )
1*
#891000
0#
0(
#892000
1#
1(
0*
#893000
0#
0(
#894000
1#
1(
#895000
0#
0(
#896000
1#
1&
1(
#897000
0#
0(
#898000
1#
b1000000 $
0&
1(
#899000
0#
0(
#900000
1#
1(
#901000
0#
0(
#902000
1#
1(
#903000
0#
0(
#904000
1#
1(
b1000000 )
1*
#905000
0#
0(
#906000
1#
1(
0*
#907000
0#
0(
#908000
1#
1(
#909000
0#
0(
#910000
1#
1&
1(
#911000
0#
0(
#912000
1#
b1000001 $
0&
1(
#913000
0#
0(
#914000
1#
1(
#915000
0#
0(
#916000
1#
1(
#917000
0#
0(
#918000
1#
1(
b1000001 )
1*
#919000
0#
0(
#920000
1#
1(
0*
#921000
0#
0(
#922000
1#
1(
#923000
0#
0(
#924000
1#
1&
1(
#925000
0#
0(
#926000
1#
b1000010 $
0&
1(
#927000
0#
0(
#928000
1#
1(
#929000
0#
0(
#930000
1#
1(
#931000
0#
0(
#932000
1#
1(
b1000010 )
1*
#933000
0#
0(
#934000
1#
1(
0*
#935000
0#
0(
#936000
1#
1(
#937000
0#
0(
#938000
1#
1&
1(
#939000
0#
0(
#940000
1#
b1000011 $
0&
1(
#941000
0#
0(
#942000
1#
1(
#943000
0#
0(
#944000
1#
1(
#945000
0#
0(
#946000
1#
1(
b1000011 )
1*
#947000
0#
0(
#948000
1#
1(
0*
#949000
0#
0(
#950000
1#
1(
#951000
0#
0(
#952000
1#
1&
1(
#953000
0#
0(
#954000
1#
b1000100 $
0&
1(
#955000
0#
0(
#956000
1#
1(
#957000
0#
0(
#958000
1#
1(
#959000
0#
0(
#960000
1#
1(
b1000100 )
1*
#961000
0#
0(
#962000
1#
1(
0*
#963000
0#
0(
#964000
1#
1(
#965000
0#
0(
#966000
1#
1&
1(
#967000
0#
0(
#968000
1#
b1000101 $
0&
1(
#969000
0#
0(
#970000
1#
1(
#971000
0#
0(
#972000
1#
1(
#973000
0#
0(
#974000
1#
1(
b1000101 )
1*
#975000
0#
0(
#976000
1#
1(
0*
#977000
0#
0(
#978000
1#
1(
#979000
0#
0(
#980000
1#
1&
1(
#981000
0#
0(
#982000
1#
b1000110 $
0&
1(
#983000
0#
0(
#984000
1#
1(
#985000
0#
0(
#986000
1#
1(
#987000
0#
0(
#988000
1#
1(
b1000110 )
1*
#989000
0#
0(
#990000
1#
1(
0*
#991000
0#
0(
#992000
1#
1(
#993000
0#
0(
#994000
1#
1&
1(
#995000
0#
0(
#996000
1#
b1000111 $
0&
1(
#997000
0#
0(
#998000
1#
1(
#999000
0#
0(
#1000000
1#
1(
#1001000
0#
0(
#1002000
1#
1(
b1000111 )
1*
#1003000
0#
0(
#1004000
1#
1(
0*
#1005000
0#
0(
#1006000
1#
1(
#1007000
0#
0(
#1008000
1#
1&
1(
#1009000
0#
0(
#1010000
1#
b1001000 $
0&
1(
#1011000
0#
0(
#1012000
1#
1(
#1013000
0#
0(
#1014000
1#
1(
#1015000
0#
0(
#1016000
1#
1(
b1001000 )
1*
#1017000
0#
0(
#1018000
1#
1(
0*
#1019000
0#
0(
#1020000
1#
1(
#1021000
0#
0(
#1022000
1#
1&
1(
#1023000
0#
0(
#1024000
1#
b1001001 $
0&
1(
#1025000
0#
0(
#1026000
1#
1(
#1027000
0#
0(
#1028000
1#
1(
#1029000
0#
0(
#1030000
1#
1(
b1001001 )
1*
#1031000
0#
0(
#1032000
1#
1(
0*
#1033000
0#
0(
#1034000
1#
1(
#1035000
0#
0(
#1036000
1#
1&
1(
#1037000
0#
0(
#1038000
1#
b1001010 $
0&
1(
#1039000
0#
0(
#1040000
1#
1(
#1041000
0#
0(
#1042000
1#
1(
#1043000
0#
0(
#1044000
1#
1(
b1001010 )
1*
#1045000
0#
0(
#1046000
1#
1(
0*
#1047000
0#
0(
#1048000
1#
1(
#1049000
0#
0(
#1050000
1#
1&
1(
#1051000
0#
0(
#1052000
1#
b1001011 $
0&
1(
#1053000
0#
0(
#1054000
1#
1(
#1055000
0#
0(
#1056000
1#
1(
#1057000
0#
0(
#1058000
1#
1(
b1001011 )
1*
#1059000
0#
0(
#1060000
1#
1(
0*
#1061000
0#
0(
#1062000
1#
1(
#1063000
0#
0(
#1064000
1#
1&
1(
#1065000
0#
0(
#1066000
1#
b1001100 $
0&
1(
#1067000
0#
0(
#1068000
1#
1(
#1069000
0#
0(
#1070000
1#
1(
#1071000
0#
0(
#1072000
1#
1(
b1001100 )
1*
#1073000
0#
0(
#1074000
1#
1(
0*
#1075000
0#
0(
#1076000
1#
1(
#1077000
0#
0(
#1078000
1#
1&
1(
#1079000
0#
0(
#1080000
1#
b1001101 $
0&
1(
#1081000
0#
0(
#1082000
1#
1(
#1083000
0#
0(
#1084000
1#
1(
#1085000
0#
0(
#1086000
1#
1(
b1001101 )
1*
#1087000
0#
0(
#1088000
1#
1(
0*
#1089000
0#
0(
#1090000
1#
1(
#1091000
0#
0(
#1092000
1#
1&
1(
#1093000
0#
0(
#1094000
1#
b1001110 $
0&
1(
#1095000
0#
0(
#1096000
1#
1(
#1097000
0#
0(
#1098000
1#
1(
#1099000
0#
0(
#1100000
1#
1(
b1001110 )
1*
#1101000
0#
0(
#1102000
1#
1(
0*
#1103000
0#
0(
#1104000
1#
1(
#1105000
0#
0(
#1106000
1#
1&
1(
#1107000
0#
0(
#1108000
1#
b1001111 $
0&
1(
#1109000
0#
0(
#1110000
1#
1(
#1111000
0#
0(
#1112000
1#
1(
#1113000
0#
0(
#1114000
1#
1(
b1001111 )
1*
#1115000
0#
0(
#1116000
1#
1(
0*
#1117000
0#
0(
#1118000
1#
1(
#1119000
0#
0(
#1120000
1#
1&
1(
#1121000
0#
0(
#1122000
1#
b1010000 $
0&
1(
#1123000
0#
0(
#1124000
1#
1(
#1125000
0#
0(
#1126000
1#
1(
#1127000
0#
0(
#1128000
1#
1(
b1010000 )
1*
#1129000
0#
0(
#1130000
1#
1(
0*
#1131000
0#
0(
#1132000
1#
1(
#1133000
0#
0(
#1134000
1#
1&
1(
#1135000
0#
0(
#1136000
1#
b1010001 $
0&
1(
#1137000
0#
0(
#1138000
1#
1(
#1139000
0#
0(
#1140000
1#
1(
#1141000
0#
0(
#1142000
1#
1(
b1010001 )
1*
#1143000
0#
0(
#1144000
1#
1(
0*
#1145000
0#
0(
#1146000
1#
1(
#1147000
0#
0(
#1148000
1#
1&
1(
#1149000
0#
0(
#1150000
1#
b1010010 $
0&
1(
#1151000
0#
0(
#1152000
1#
1(
#1153000
0#
0(
#1154000
1#
1(
#1155000
0#
0(
#1156000
1#
1(
b1010010 )
1*
#1157000
0#
0(
#1158000
1#
1(
0*
#1159000
0#
0(
#1160000
1#
1(
#1161000
0#
0(
#1162000
1#
1&
1(
#1163000
0#
0(
#1164000
1#
b1010011 $
0&
1(
#1165000
0#
0(
#1166000
1#
1(
#1167000
0#
0(
#1168000
1#
1(
#1169000
0#
0(
#1170000
1#
1(
b1010011 )
1*
#1171000
0#
0(
#1172000
1#
1(
0*
#1173000
0#
0(
#1174000
1#
1(
#1175000
0#
0(
#1176000
1#
1&
1(
#1177000
0#
0(
#1178000
1#
b1010100 $
0&
1(
#1179000
0#
0(
#1180000
1#
1(
#1181000
0#
0(
#1182000
1#
1(
#1183000
0#
0(
#1184000
1#
1(
b1010100 )
1*
#1185000
0#
0(
#1186000
1#
1(
0*
#1187000
0#
0(
#1188000
1#
1(
#1189000
0#
0(
#1190000
1#
1&
1(
#1191000
0#
0(
#1192000
1#
b1010101 $
0&
1(
#1193000
0#
0(
#1194000
1#
1(
#1195000
0#
0(
#1196000
1#
1(
#1197000
0#
0(
#1198000
1#
1(
b1010101 )
1*
#1199000
0#
0(
#1200000
1#
1(
0*
#1201000
0#
0(
#1202000
1#
1(
#1203000
0#
0(
#1204000
1#
1&
1(
#1205000
0#
0(
#1206000
1#
b1010110 $
0&
1(
#1207000
0#
0(
#1208000
1#
1(
#1209000
0#
0(
#1210000
1#
1(
#1211000
0#
0(
#1212000
1#
1(
b1010110 )
1*
#1213000
0#
0(
#1214000
1#
1(
0*
#1215000
0#
0(
#1216000
1#
1(
#1217000
0#
0(
#1218000
1#
1&
1(
#1219000
0#
0(
#1220000
1#
b1010111 $
0&
1(
#1221000
0#
0(
#1222000
1#
1(
#1223000
0#
0(
#1224000
1#
1(
#1225000
0#
0(
