vivado-vcd/fifo_v3.vcd
$date
   Sat Aug 22 17:37:37 2020
$end
$version
  2020.1
$end
$timescale
  1ps
$end
$scope module fifo_v3_tb $end
$var reg 1 ! clk_i $end
$var reg 1 " rst_ni $end
$var reg 1 # full_o $end
$var reg 1 $ empty_o $end
$var reg 32 % data_i $end
$var reg 1 & push_i $end
$var reg 32 ' data_o $end
$var reg 1 ( pop_i $end
$upscope $end
$enddefinitions $end
#0
$dumpvars
x!
1"
x#
x$
b0 %
x&
b0 '
x(
$end
#1000
0"
0#
1$
#1250
1$
1&
0(
#2000
1"
#5000
1!
0#
0$
#5250
b1 %
1(
#6000
0!
#7000
1!
b1 '
#7250
b10 %
#8000
0!
#9000
1!
b10 '
#9250
b11 %
#10000
0!
#11000
1!
b11 '
#11250
b100 %
#12000
0!
#13000
1!
b100 '
#13250
b101 %
#14000
0!
#15000
1!
b101 '
#15250
b110 %
#16000
0!
#17000
1!
b110 '
#17250
b111 %
#18000
0!
#19000
1!
b111 '
#19250
b1000 %
#20000
0!
#21000
1!
b1000 '
#21250
b1001 %
#22000
0!
#23000
1!
b1001 '
#23250
b1010 %
#24000
0!
#25000
1!
b1010 '
#25250
b1011 %
#26000
0!
#27000
1!
b1011 '
#27250
b1100 %
#28000
0!
#29000
1!
b1100 '
#29250
b1101 %
#30000
0!
#31000
1!
b1101 '
#31250
b1110 %
#32000
0!
#33000
1!
b1110 '
#33250
b1111 %
#34000
0!
#35000
1!
b1111 '
#35250
b10000 %
#36000
0!
#37000
1!
b10000 '
#37250
b10001 %
#38000
0!
#39000
1!
b10001 '
#39250
b10010 %
#40000
0!
#41000
1!
b10010 '
#41250
b10011 %
#42000
0!
#43000
1!
b10011 '
#43250
b10100 %
#44000
0!
#45000
1!
b10100 '
#45250
b10101 %
#46000
0!
#47000
1!
b10101 '
#47250
b10110 %
#48000
0!
#49000
1!
b10110 '
#49250
b10111 %
#50000
0!
#51000
1!
b10111 '
#51250
b11000 %
#52000
0!
#53000
1!
b11000 '
#53250
b11001 %
#54000
0!
#55000
1!
b11001 '
#55250
b11010 %
#56000
0!
#57000
1!
b11010 '
#57250
b11011 %
#58000
0!
#59000
1!
b11011 '
#59250
b11100 %
#60000
0!
#61000
1!
b11100 '
#61250
b11101 %
#62000
0!
#63000
1!
b11101 '
#63250
b11110 %
#64000
0!
#65000
1!
b11110 '
#65250
b11111 %
#66000
0!
#67000
1!
b11111 '
#67250
b100000 %
#68000
0!
#69000
1!
b100000 '
#69250
b100001 %
#70000
0!
#71000
1!
b100001 '
#71250
b100010 %
#72000
0!
#73000
1!
b100010 '
#73250
b100011 %
#74000
0!
#75000
1!
b100011 '
#75250
b100100 %
#76000
0!
#77000
1!
b100100 '
#77250
b100101 %
#78000
0!
#79000
1!
b100101 '
#79250
b100110 %
#80000
0!
#81000
1!
b100110 '
#81250
b100111 %
#82000
0!
#83000
1!
b100111 '
#83250
b101000 %
#84000
0!
#85000
1!
b101000 '
#85250
b101001 %
#86000
0!
#87000
1!
b101001 '
#87250
b101010 %
#88000
0!
#89000
1!
b101010 '
#89250
b101011 %
#90000
0!
#91000
1!
b101011 '
#91250
b101100 %
#92000
0!
#93000
1!
b101100 '
#93250
b101101 %
#94000
0!
#95000
1!
b101101 '
#95250
b101110 %
#96000
0!
#97000
1!
b101110 '
#97250
b101111 %
#98000
0!
#99000
1!
b101111 '
#99250
b110000 %
#100000
0!
#101000
1!
b110000 '
#101250
b110001 %
#102000
0!
#103000
1!
b110001 '
#103250
b110010 %
#104000
0!
#105000
1!
b110010 '
#105250
b110011 %
#106000
0!
#107000
1!
b110011 '
#107250
b110100 %
#108000
0!
#109000
1!
b110100 '
#109250
b110101 %
#110000
0!
#111000
1!
b110101 '
#111250
b110110 %
#112000
0!
#113000
1!
b110110 '
#113250
b110111 %
#114000
0!
#115000
1!
b110111 '
#115250
b111000 %
#116000
0!
#117000
1!
b111000 '
#117250
b111001 %
#118000
0!
#119000
1!
b111001 '
#119250
b111010 %
#120000
0!
#121000
1!
b111010 '
#121250
b111011 %
#122000
0!
#123000
1!
b111011 '
#123250
b111100 %
#124000
0!
#125000
1!
b111100 '
#125250
b111101 %
#126000
0!
#127000
1!
b111101 '
#127250
b111110 %
#128000
0!
#129000
1!
b111110 '
#129250
b111111 %
#130000
0!
#131000
1!
b111111 '
#131250
b1000000 %
#132000
0!
#133000
1!
b1000000 '
#133250
b1000001 %
#134000
0!
#135000
1!
b1000001 '
#135250
b1000010 %
#136000
0!
#137000
1!
b1000010 '
#137250
b1000011 %
#138000
0!
#139000
1!
b1000011 '
#139250
b1000100 %
#140000
0!
#141000
1!
b1000100 '
#141250
b1000101 %
#142000
0!
#143000
1!
b1000101 '
#143250
b1000110 %
#144000
0!
#145000
1!
b1000110 '
#145250
b1000111 %
#146000
0!
#147000
1!
b1000111 '
#147250
b1001000 %
#148000
0!
#149000
1!
b1001000 '
#149250
b1001001 %
#150000
0!
#151000
1!
b1001001 '
#151250
b1001010 %
#152000
0!
#153000
1!
b1001010 '
#153250
b1001011 %
#154000
0!
#155000
1!
b1001011 '
#155250
b1001100 %
#156000
0!
#157000
1!
b1001100 '
#157250
b1001101 %
#158000
0!
#159000
1!
b1001101 '
#159250
b1001110 %
#160000
0!
#161000
1!
b1001110 '
#161250
b1001111 %
#162000
0!
#163000
1!
b1001111 '
#163250
b1010000 %
#164000
0!
#165000
1!
b1010000 '
#165250
b1010001 %
#166000
0!
#167000
1!
b1010001 '
#167250
b1010010 %
#168000
0!
#169000
1!
b1010010 '
#169250
b1010011 %
#170000
0!
#171000
1!
b1010011 '
#171250
b1010100 %
#172000
0!
#173000
1!
b1010100 '
#173250
b1010101 %
#174000
0!
#175000
1!
b1010101 '
#175250
b1010110 %
#176000
0!
#177000
1!
b1010110 '
#177250
b1010111 %
#178000
0!
#179000
1!
b1010111 '
#179250
b1011000 %
#180000
0!
#181000
1!
b1011000 '
#181250
b1011001 %
#182000
0!
#183000
1!
b1011001 '
#183250
b1011010 %
#184000
0!
#185000
1!
b1011010 '
#185250
b1011011 %
#186000
0!
#187000
1!
b1011011 '
#187250
b1011100 %
#188000
0!
#189000
1!
b1011100 '
#189250
b1011101 %
#190000
0!
#191000
1!
b1011101 '
#191250
b1011110 %
#192000
0!
#193000
1!
b1011110 '
#193250
b1011111 %
#194000
0!
#195000
1!
b1011111 '
#195250
b1100000 %
#196000
0!
#197000
1!
b1100000 '
#197250
b1100001 %
#198000
0!
#199000
1!
b1100001 '
#199250
b1100010 %
#200000
0!
#201000
1!
b1100010 '
#201250
b1100011 %
#202000
0!
#203000
1!
b1100011 '
#203250
b1100100 %
#204000
0!
#205000
1!
b1100100 '
#205250
b1100101 %
#206000
0!
#207000
1!
b1100101 '
#207250
b1100110 %
#208000
0!
#209000
1!
b1100110 '
#209250
b1100111 %
#210000
0!
#211000
1!
b1100111 '
#211250
b1101000 %
#212000
0!
#213000
1!
b1101000 '
#213250
b1101001 %
#214000
0!
#215000
1!
b1101001 '
#215250
b1101010 %
#216000
0!
#217000
1!
b1101010 '
#217250
b1101011 %
#218000
0!
#219000
1!
b1101011 '
#219250
b1101100 %
#220000
0!
#221000
1!
b1101100 '
#221250
b1101101 %
#222000
0!
#223000
1!
b1101101 '
#223250
b1101110 %
#224000
0!
#225000
1!
b1101110 '
#225250
b1101111 %
#226000
0!
#227000
1!
b1101111 '
#227250
b1110000 %
#228000
0!
#229000
1!
b1110000 '
#229250
b1110001 %
#230000
0!
#231000
1!
b1110001 '
#231250
b1110010 %
#232000
0!
#233000
1!
b1110010 '
#233250
b1110011 %
#234000
0!
#235000
1!
b1110011 '
#235250
b1110100 %
#236000
0!
#237000
1!
b1110100 '
#237250
b1110101 %
#238000
0!
#239000
1!
b1110101 '
#239250
b1110110 %
#240000
0!
#241000
1!
b1110110 '
#241250
b1110111 %
#242000
0!
#243000
1!
b1110111 '
#243250
b1111000 %
#244000
0!
#245000
1!
b1111000 '
#245250
b1111001 %
#246000
0!
#247000
1!
b1111001 '
#247250
b1111010 %
#248000
0!
#249000
1!
b1111010 '
#249250
b1111011 %
#250000
0!
#251000
1!
b1111011 '
#251250
b1111100 %
#252000
0!
#253000
1!
b1111100 '
#253250
b1111101 %
#254000
0!
#255000
1!
b1111101 '
#255250
b1111110 %
#256000
0!
#257000
1!
b1111110 '
#257250
b1111111 %
#258000
0!
#259000
1!
b1111111 '
#259250
b10000000 %
#260000
0!
#261000
1!
b10000000 '
#261250
b10000001 %
#262000
0!
#263000
1!
b10000001 '
#263250
b10000010 %
#264000
0!
#265000
1!
b10000010 '
#265250
b10000011 %
#266000
0!
#267000
1!
b10000011 '
#267250
b10000100 %
#268000
0!
#269000
1!
b10000100 '
#269250
b10000101 %
#270000
0!
#271000
1!
b10000101 '
#271250
b10000110 %
#272000
0!
#273000
1!
b10000110 '
#273250
b10000111 %
#274000
0!
#275000
1!
b10000111 '
#275250
b10001000 %
#276000
0!
#277000
1!
b10001000 '
#277250
b10001001 %
#278000
0!
#279000
1!
b10001001 '
#279250
b10001010 %
#280000
0!
#281000
1!
b10001010 '
#281250
b10001011 %
#282000
0!
#283000
1!
b10001011 '
#283250
b10001100 %
#284000
0!
#285000
1!
b10001100 '
#285250
b10001101 %
#286000
0!
#287000
1!
b10001101 '
#287250
b10001110 %
#288000
0!
#289000
1!
b10001110 '
#289250
b10001111 %
#290000
0!
#291000
1!
b10001111 '
#291250
b10010000 %
#292000
0!
#293000
1!
b10010000 '
#293250
b10010001 %
#294000
0!
#295000
1!
b10010001 '
#295250
b10010010 %
#296000
0!
#297000
1!
b10010010 '
#297250
b10010011 %
#298000
0!
#299000
1!
b10010011 '
#299250
b10010100 %
#300000
0!
#301000
1!
b10010100 '
#301250
b10010101 %
#302000
0!
#303000
1!
b10010101 '
#303250
b10010110 %
#304000
0!
#305000
1!
b10010110 '
#305250
b10010111 %
#306000
0!
#307000
1!
b10010111 '
#307250
b10011000 %
#308000
0!
#309000
1!
b10011000 '
#309250
b10011001 %
#310000
0!
#311000
1!
b10011001 '
#311250
b10011010 %
#312000
0!
#313000
1!
b10011010 '
#313250
b10011011 %
#314000
0!
#315000
1!
b10011011 '
#315250
b10011100 %
#316000
0!
#317000
1!
b10011100 '
#317250
b10011101 %
#318000
0!
#319000
1!
b10011101 '
#319250
b10011110 %
#320000
0!
#321000
1!
b10011110 '
#321250
b10011111 %
#322000
0!
#323000
1!
b10011111 '
#323250
b10100000 %
#324000
0!
#325000
1!
b10100000 '
#325250
b10100001 %
#326000
0!
#327000
1!
b10100001 '
#327250
b10100010 %
#328000
0!
#329000
1!
b10100010 '
#329250
b10100011 %
#330000
0!
#331000
1!
b10100011 '
#331250
b10100100 %
#332000
0!
#333000
1!
b10100100 '
#333250
b10100101 %
#334000
0!
#335000
1!
b10100101 '
#335250
b10100110 %
#336000
0!
#337000
1!
b10100110 '
#337250
b10100111 %
#338000
0!
#339000
1!
b10100111 '
#339250
b10101000 %
#340000
0!
#341000
1!
b10101000 '
#341250
b10101001 %
#342000
0!
#343000
1!
b10101001 '
#343250
b10101010 %
#344000
0!
#345000
1!
b10101010 '
#345250
b10101011 %
#346000
0!
#347000
1!
b10101011 '
#347250
b10101100 %
#348000
0!
#349000
1!
b10101100 '
#349250
b10101101 %
#350000
0!
#351000
1!
b10101101 '
#351250
b10101110 %
#352000
0!
#353000
1!
b10101110 '
#353250
b10101111 %
#354000
0!
#355000
1!
b10101111 '
#355250
b10110000 %
#356000
0!
#357000
1!
b10110000 '
#357250
b10110001 %
#358000
0!
#359000
1!
b10110001 '
#359250
b10110010 %
#360000
0!
#361000
1!
b10110010 '
#361250
b10110011 %
#362000
0!
#363000
1!
b10110011 '
#363250
b10110100 %
#364000
0!
#365000
1!
b10110100 '
#365250
b10110101 %
#366000
0!
#367000
1!
b10110101 '
#367250
b10110110 %
#368000
0!
#369000
1!
b10110110 '
#369250
b10110111 %
#370000
0!
#371000
1!
b10110111 '
#371250
b10111000 %
#372000
0!
#373000
1!
b10111000 '
#373250
b10111001 %
#374000
0!
#375000
1!
b10111001 '
#375250
b10111010 %
#376000
0!
#377000
1!
b10111010 '
#377250
b10111011 %
#378000
0!
#379000
1!
b10111011 '
#379250
b10111100 %
#380000
0!
#381000
1!
b10111100 '
#381250
b10111101 %
#382000
0!
#383000
1!
b10111101 '
#383250
b10111110 %
#384000
0!
#385000
1!
b10111110 '
#385250
b10111111 %
#386000
0!
#387000
1!
b10111111 '
#387250
b11000000 %
#388000
0!
#389000
1!
b11000000 '
#389250
b11000001 %
#390000
0!
#391000
1!
b11000001 '
#391250
b11000010 %
#392000
0!
#393000
1!
b11000010 '
#393250
b11000011 %
#394000
0!
#395000
1!
b11000011 '
#395250
b11000100 %
#396000
0!
#397000
1!
b11000100 '
#397250
b11000101 %
#398000
0!
#399000
1!
b11000101 '
#399250
b11000110 %
#400000
0!
#401000
1!
b11000110 '
#401250
b11000111 %
#402000
0!
#403000
1!
b11000111 '
#403250
b11001000 %
#404000
0!
#405000
1!
b11001000 '
#405250
b11001001 %
#406000
0!
#407000
1!
b11001001 '
#407250
b11001010 %
#408000
0!
#409000
1!
b11001010 '
#409250
b11001011 %
#410000
0!
#411000
1!
b11001011 '
#411250
b11001100 %
#412000
0!
#413000
1!
b11001100 '
#413250
b11001101 %
#414000
0!
#415000
1!
b11001101 '
#415250
b11001110 %
#416000
0!
#417000
1!
b11001110 '
#417250
b11001111 %
#418000
0!
#419000
1!
b11001111 '
#419250
b11010000 %
#420000
0!
#421000
1!
b11010000 '
#421250
b11010001 %
#422000
0!
#423000
1!
b11010001 '
#423250
b11010010 %
#424000
0!
#425000
1!
b11010010 '
#425250
b11010011 %
#426000
0!
#427000
1!
b11010011 '
#427250
b11010100 %
#428000
0!
#429000
1!
b11010100 '
#429250
b11010101 %
#430000
0!
#431000
1!
b11010101 '
#431250
b11010110 %
#432000
0!
#433000
1!
b11010110 '
#433250
b11010111 %
#434000
0!
#435000
1!
b11010111 '
#435250
b11011000 %
#436000
0!
#437000
1!
b11011000 '
#437250
b11011001 %
#438000
0!
#439000
1!
b11011001 '
#439250
b11011010 %
#440000
0!
#441000
1!
b11011010 '
#441250
b11011011 %
#442000
0!
#443000
1!
b11011011 '
#443250
b11011100 %
#444000
0!
#445000
1!
b11011100 '
#445250
b11011101 %
#446000
0!
#447000
1!
b11011101 '
#447250
b11011110 %
#448000
0!
#449000
1!
b11011110 '
#449250
b11011111 %
#450000
0!
#451000
1!
b11011111 '
#451250
b11100000 %
#452000
0!
#453000
1!
b11100000 '
#453250
b11100001 %
#454000
0!
#455000
1!
b11100001 '
#455250
b11100010 %
#456000
0!
#457000
1!
b11100010 '
#457250
b11100011 %
#458000
0!
#459000
1!
b11100011 '
#459250
b11100100 %
#460000
0!
#461000
1!
b11100100 '
#461250
b11100101 %
#462000
0!
#463000
1!
b11100101 '
#463250
b11100110 %
#464000
0!
#465000
1!
b11100110 '
#465250
b11100111 %
#466000
0!
#467000
1!
b11100111 '
#467250
b11101000 %
#468000
0!
#469000
1!
b11101000 '
#469250
b11101001 %
#470000
0!
#471000
1!
b11101001 '
#471250
b11101010 %
#472000
0!
#473000
1!
b11101010 '
#473250
b11101011 %
#474000
0!
#475000
1!
b11101011 '
#475250
b11101100 %
#476000
0!
#477000
1!
b11101100 '
#477250
b11101101 %
#478000
0!
#479000
1!
b11101101 '
#479250
b11101110 %
#480000
0!
#481000
1!
b11101110 '
#481250
b11101111 %
#482000
0!
#483000
1!
b11101111 '
#483250
b11110000 %
#484000
0!
#485000
1!
b11110000 '
#485250
b11110001 %
#486000
0!
#487000
1!
b11110001 '
#487250
b11110010 %
#488000
0!
#489000
1!
b11110010 '
#489250
b11110011 %
#490000
0!
#491000
1!
b11110011 '
#491250
b11110100 %
#492000
0!
#493000
1!
b11110100 '
#493250
b11110101 %
#494000
0!
#495000
1!
b11110101 '
#495250
b11110110 %
#496000
0!
#497000
1!
b11110110 '
#497250
b11110111 %
#498000
0!
#499000
1!
b11110111 '
#499250
b11111000 %
#500000
0!
#501000
1!
b11111000 '
#501250
b11111001 %
#502000
0!
#503000
1!
b11111001 '
#503250
b11111010 %
#504000
0!
#505000
1!
b11111010 '
#505250
b11111011 %
#506000
0!
#507000
1!
b11111011 '
#507250
b11111100 %
#508000
0!
#509000
1!
b11111100 '
#509250
b11111101 %
#510000
0!
#511000
1!
b11111101 '
#511250
b11111110 %
#512000
0!
#513000
1!
b11111110 '
#513250
b11111111 %
#514000
0!
#515000
1!
b11111111 '
#515250
b100000000 %
#516000
0!
#517000
1!
b100000000 '
#517250
b100000001 %
#518000
0!
#519000
1!
b100000001 '
#519250
b100000010 %
#520000
0!
#521000
1!
b100000010 '
#521250
b100000011 %
#522000
0!
#523000
1!
b100000011 '
#523250
b100000100 %
#524000
0!
#525000
1!
b100000100 '
#525250
b100000101 %
#526000
0!
#527000
1!
b100000101 '
#527250
b100000110 %
#528000
0!
#529000
1!
b100000110 '
#529250
b100000111 %
#530000
0!
#531000
1!
b100000111 '
#531250
b100001000 %
#532000
0!
#533000
1!
b100001000 '
#533250
b100001001 %
#534000
0!
#535000
1!
b100001001 '
#535250
b100001010 %
#536000
0!
#537000
1!
b100001010 '
#537250
b100001011 %
#538000
0!
#539000
1!
b100001011 '
#539250
b100001100 %
#540000
0!
#541000
1!
b100001100 '
#541250
b100001101 %
#542000
0!
#543000
1!
b100001101 '
#543250
b100001110 %
#544000
0!
#545000
1!
b100001110 '
#545250
b100001111 %
#546000
0!
#547000
1!
b100001111 '
#547250
b100010000 %
#548000
0!
#549000
1!
b100010000 '
#549250
b100010001 %
#550000
0!
#551000
1!
b100010001 '
#551250
b100010010 %
#552000
0!
#553000
1!
b100010010 '
#553250
b100010011 %
#554000
0!
#555000
1!
b100010011 '
#555250
b100010100 %
#556000
0!
#557000
1!
b100010100 '
#557250
b100010101 %
#558000
0!
#559000
1!
b100010101 '
#559250
b100010110 %
#560000
0!
#561000
1!
b100010110 '
#561250
b100010111 %
#562000
0!
#563000
1!
b100010111 '
#563250
b100011000 %
#564000
0!
#565000
1!
b100011000 '
#565250
b100011001 %
#566000
0!
#567000
1!
b100011001 '
#567250
b100011010 %
#568000
0!
#569000
1!
b100011010 '
#569250
b100011011 %
#570000
0!
#571000
1!
b100011011 '
#571250
b100011100 %
#572000
0!
#573000
1!
b100011100 '
#573250
b100011101 %
#574000
0!
#575000
1!
b100011101 '
#575250
b100011110 %
#576000
0!
#577000
1!
b100011110 '
#577250
b100011111 %
#578000
0!
#579000
1!
b100011111 '
#579250
b100100000 %
#580000
0!
#581000
1!
b100100000 '
#581250
b100100001 %
#582000
0!
#583000
1!
b100100001 '
#583250
b100100010 %
#584000
0!
#585000
1!
b100100010 '
#585250
b100100011 %
#586000
0!
#587000
1!
b100100011 '
#587250
b100100100 %
#588000
0!
#589000
1!
b100100100 '
#589250
b100100101 %
#590000
0!
#591000
1!
b100100101 '
#591250
b100100110 %
#592000
0!
#593000
1!
b100100110 '
#593250
b100100111 %
#594000
0!
#595000
1!
b100100111 '
#595250
b100101000 %
#596000
0!
#597000
1!
b100101000 '
#597250
b100101001 %
#598000
0!
#599000
1!
b100101001 '
#599250
b100101010 %
#600000
0!
#601000
1!
b100101010 '
#601250
b100101011 %
#602000
0!
#603000
1!
b100101011 '
#603250
b100101100 %
#604000
0!
#605000
1!
b100101100 '
#605250
b100101101 %
#606000
0!
#607000
1!
b100101101 '
#607250
b100101110 %
#608000
0!
#609000
1!
b100101110 '
#609250
b100101111 %
#610000
0!
#611000
1!
b100101111 '
#611250
b100110000 %
#612000
0!
#613000
1!
b100110000 '
#613250
b100110001 %
#614000
0!
#615000
1!
b100110001 '
#615250
b100110010 %
#616000
0!
#617000
1!
b100110010 '
#617250
b100110011 %
#618000
0!
#619000
1!
b100110011 '
#619250
b100110100 %
#620000
0!
#621000
1!
b100110100 '
#621250
b100110101 %
#622000
0!
#623000
1!
b100110101 '
#623250
b100110110 %
#624000
0!
#625000
1!
b100110110 '
#625250
b100110111 %
#626000
0!
#627000
1!
b100110111 '
#627250
b100111000 %
#628000
0!
#629000
1!
b100111000 '
#629250
b100111001 %
#630000
0!
#631000
1!
b100111001 '
#631250
b100111010 %
#632000
0!
#633000
1!
b100111010 '
#633250
b100111011 %
#634000
0!
#635000
1!
b100111011 '
#635250
b100111100 %
#636000
0!
#637000
1!
b100111100 '
#637250
b100111101 %
#638000
0!
#639000
1!
b100111101 '
#639250
b100111110 %
#640000
0!
#641000
1!
b100111110 '
#641250
b100111111 %
#642000
0!
#643000
1!
b100111111 '
#643250
b101000000 %
#644000
0!
#645000
1!
b101000000 '
#645250
b101000001 %
#646000
0!
#647000
1!
b101000001 '
#647250
b101000010 %
#648000
0!
#649000
1!
b101000010 '
#649250
b101000011 %
#650000
0!
#651000
1!
b101000011 '
#651250
b101000100 %
#652000
0!
#653000
1!
b101000100 '
#653250
b101000101 %
#654000
0!
#655000
1!
b101000101 '
#655250
b101000110 %
#656000
0!
#657000
1!
b101000110 '
#657250
b101000111 %
#658000
0!
#659000
1!
b101000111 '
#659250
b101001000 %
#660000
0!
#661000
1!
b101001000 '
#661250
b101001001 %
#662000
0!
#663000
1!
b101001001 '
#663250
b101001010 %
#664000
0!
#665000
1!
b101001010 '
#665250
b101001011 %
#666000
0!
#667000
1!
b101001011 '
#667250
b101001100 %
#668000
0!
#669000
1!
b101001100 '
#669250
b101001101 %
#670000
0!
#671000
1!
b101001101 '
#671250
b101001110 %
#672000
0!
#673000
1!
b101001110 '
#673250
b101001111 %
#674000
0!
#675000
1!
b101001111 '
#675250
b101010000 %
#676000
0!
#677000
1!
b101010000 '
#677250
b101010001 %
#678000
0!
#679000
1!
b101010001 '
#679250
b101010010 %
#680000
0!
#681000
1!
b101010010 '
#681250
b101010011 %
#682000
0!
#683000
1!
b101010011 '
#683250
b101010100 %
#684000
0!
#685000
1!
b101010100 '
#685250
b101010101 %
#686000
0!
#687000
1!
b101010101 '
#687250
b101010110 %
#688000
0!
#689000
1!
b101010110 '
#689250
b101010111 %
#690000
0!
#691000
1!
b101010111 '
#691250
b101011000 %
#692000
0!
#693000
1!
b101011000 '
#693250
b101011001 %
#694000
0!
#695000
1!
b101011001 '
#695250
b101011010 %
#696000
0!
#697000
1!
b101011010 '
#697250
b101011011 %
#698000
0!
#699000
1!
b101011011 '
#699250
b101011100 %
#700000
0!
#701000
1!
b101011100 '
#701250
b101011101 %
#702000
0!
#703000
1!
b101011101 '
#703250
b101011110 %
#704000
0!
#705000
1!
b101011110 '
#705250
b101011111 %
#706000
0!
#707000
1!
b101011111 '
#707250
b101100000 %
#708000
0!
#709000
1!
b101100000 '
#709250
b101100001 %
#710000
0!
#711000
1!
b101100001 '
#711250
b101100010 %
#712000
0!
#713000
1!
b101100010 '
#713250
b101100011 %
#714000
0!
#715000
1!
b101100011 '
#715250
b101100100 %
#716000
0!
#717000
1!
b101100100 '
#717250
b101100101 %
#718000
0!
#719000
1!
b101100101 '
#719250
b101100110 %
#720000
0!
#721000
1!
b101100110 '
#721250
b101100111 %
#722000
0!
#723000
1!
b101100111 '
#723250
b101101000 %
#724000
0!
#725000
1!
b101101000 '
#725250
b101101001 %
#726000
0!
#727000
1!
b101101001 '
#727250
b101101010 %
#728000
0!
#729000
1!
b101101010 '
#729250
b101101011 %
#730000
0!
#731000
1!
b101101011 '
#731250
b101101100 %
#732000
0!
#733000
1!
b101101100 '
#733250
b101101101 %
#734000
0!
#735000
1!
b101101101 '
#735250
b101101110 %
#736000
0!
#737000
1!
b101101110 '
#737250
b101101111 %
#738000
0!
#739000
1!
b101101111 '
#739250
b101110000 %
#740000
0!
#741000
1!
b101110000 '
#741250
b101110001 %
#742000
0!
#743000
1!
b101110001 '
#743250
b101110010 %
#744000
0!
#745000
1!
b101110010 '
#745250
b101110011 %
#746000
0!
#747000
1!
b101110011 '
#747250
b101110100 %
#748000
0!
#749000
1!
b101110100 '
#749250
b101110101 %
#750000
0!
#751000
1!
b101110101 '
#751250
b101110110 %
#752000
0!
#753000
1!
b101110110 '
#753250
b101110111 %
#754000
0!
#755000
1!
b101110111 '
#755250
b101111000 %
#756000
0!
#757000
1!
b101111000 '
#757250
b101111001 %
#758000
0!
#759000
1!
b101111001 '
#759250
b101111010 %
#760000
0!
#761000
1!
b101111010 '
#761250
b101111011 %
#762000
0!
#763000
1!
b101111011 '
#763250
b101111100 %
#764000
0!
#765000
1!
b101111100 '
#765250
b101111101 %
#766000
0!
#767000
1!
b101111101 '
#767250
b101111110 %
#768000
0!
#769000
1!
b101111110 '
#769250
b101111111 %
#770000
0!
#771000
1!
b101111111 '
#771250
b110000000 %
#772000
0!
#773000
1!
b110000000 '
#773250
b110000001 %
#774000
0!
#775000
1!
b110000001 '
#775250
b110000010 %
#776000
0!
#777000
1!
b110000010 '
#777250
b110000011 %
#778000
0!
#779000
1!
b110000011 '
#779250
b110000100 %
#780000
0!
#781000
1!
b110000100 '
#781250
b110000101 %
#782000
0!
#783000
1!
b110000101 '
#783250
b110000110 %
#784000
0!
#785000
1!
b110000110 '
#785250
b110000111 %
#786000
0!
#787000
1!
b110000111 '
#787250
b110001000 %
#788000
0!
#789000
1!
b110001000 '
#789250
b110001001 %
#790000
0!
#791000
1!
b110001001 '
#791250
b110001010 %
#792000
0!
#793000
1!
b110001010 '
#793250
b110001011 %
#794000
0!
#795000
1!
b110001011 '
#795250
b110001100 %
#796000
0!
#797000
1!
b110001100 '
#797250
b110001101 %
#798000
0!
#799000
1!
b110001101 '
#799250
b110001110 %
#800000
0!
#801000
1!
b110001110 '
#801250
b110001111 %
#802000
0!
#803000
1!
b110001111 '
#803250
b110010000 %
#804000
0!
#805000
1!
b110010000 '
#805250
b110010001 %
#806000
0!
#807000
1!
b110010001 '
#807250
b110010010 %
#808000
0!
#809000
1!
b110010010 '
#809250
b110010011 %
#810000
0!
#811000
1!
b110010011 '
#811250
b110010100 %
#812000
0!
#813000
1!
b110010100 '
#813250
b110010101 %
#814000
0!
#815000
1!
b110010101 '
#815250
b110010110 %
#816000
0!
#817000
1!
b110010110 '
#817250
b110010111 %
#818000
0!
#819000
1!
b110010111 '
#819250
b110011000 %
#820000
0!
#821000
1!
b110011000 '
#821250
b110011001 %
#822000
0!
#823000
1!
b110011001 '
#823250
b110011010 %
#824000
0!
#825000
1!
b110011010 '
#825250
b110011011 %
#826000
0!
#827000
1!
b110011011 '
#827250
b110011100 %
#828000
0!
#829000
1!
b110011100 '
#829250
b110011101 %
#830000
0!
#831000
1!
b110011101 '
#831250
b110011110 %
#832000
0!
#833000
1!
b110011110 '
#833250
b110011111 %
#834000
0!
#835000
1!
b110011111 '
#835250
b110100000 %
#836000
0!
#837000
1!
b110100000 '
#837250
b110100001 %
#838000
0!
#839000
1!
b110100001 '
#839250
b110100010 %
#840000
0!
#841000
1!
b110100010 '
#841250
b110100011 %
#842000
0!
#843000
1!
b110100011 '
#843250
b110100100 %
#844000
0!
#845000
1!
b110100100 '
#845250
b110100101 %
#846000
0!
#847000
1!
b110100101 '
#847250
b110100110 %
#848000
0!
#849000
1!
b110100110 '
#849250
b110100111 %
#850000
0!
#851000
1!
b110100111 '
#851250
b110101000 %
#852000
0!
#853000
1!
b110101000 '
#853250
b110101001 %
#854000
0!
#855000
1!
b110101001 '
#855250
b110101010 %
#856000
0!
#857000
1!
b110101010 '
#857250
b110101011 %
#858000
0!
#859000
1!
b110101011 '
#859250
b110101100 %
#860000
0!
#861000
1!
b110101100 '
#861250
b110101101 %
#862000
0!
#863000
1!
b110101101 '
#863250
b110101110 %
#864000
0!
#865000
1!
b110101110 '
#865250
b110101111 %
#866000
0!
#867000
1!
b110101111 '
#867250
b110110000 %
#868000
0!
#869000
1!
b110110000 '
#869250
b110110001 %
#870000
0!
#871000
1!
b110110001 '
#871250
b110110010 %
#872000
0!
#873000
1!
b110110010 '
#873250
b110110011 %
#874000
0!
#875000
1!
b110110011 '
#875250
b110110100 %
#876000
0!
#877000
1!
b110110100 '
#877250
b110110101 %
#878000
0!
#879000
1!
b110110101 '
#879250
b110110110 %
#880000
0!
#881000
1!
b110110110 '
#881250
b110110111 %
#882000
0!
#883000
1!
b110110111 '
#883250
b110111000 %
#884000
0!
#885000
1!
b110111000 '
#885250
b110111001 %
#886000
0!
#887000
1!
b110111001 '
#887250
b110111010 %
#888000
0!
#889000
1!
b110111010 '
#889250
b110111011 %
#890000
0!
#891000
1!
b110111011 '
#891250
b110111100 %
#892000
0!
#893000
1!
b110111100 '
#893250
b110111101 %
#894000
0!
#895000
1!
b110111101 '
#895250
b110111110 %
#896000
0!
#897000
1!
b110111110 '
#897250
b110111111 %
#898000
0!
#899000
1!
b110111111 '
#899250
b111000000 %
#900000
0!
#901000
1!
b111000000 '
#901250
b111000001 %
#902000
0!
#903000
1!
b111000001 '
#903250
b111000010 %
#904000
0!
#905000
1!
b111000010 '
#905250
b111000011 %
#906000
0!
#907000
1!
b111000011 '
#907250
b111000100 %
#908000
0!
#909000
1!
b111000100 '
#909250
b111000101 %
#910000
0!
#911000
1!
b111000101 '
#911250
b111000110 %
#912000
0!
#913000
1!
b111000110 '
#913250
b111000111 %
#914000
0!
#915000
1!
b111000111 '
#915250
b111001000 %
#916000
0!
#917000
1!
b111001000 '
#917250
b111001001 %
#918000
0!
#919000
1!
b111001001 '
#919250
b111001010 %
#920000
0!
#921000
1!
b111001010 '
#921250
b111001011 %
#922000
0!
#923000
1!
b111001011 '
#923250
b111001100 %
#924000
0!
#925000
1!
b111001100 '
#925250
b111001101 %
#926000
0!
#927000
1!
b111001101 '
#927250
b111001110 %
#928000
0!
#929000
1!
b111001110 '
#929250
b111001111 %
#930000
0!
#931000
1!
b111001111 '
#931250
b111010000 %
