vivado-vcd/fifo_v3.vcd
$date
   Sat Aug 22 12:45:48 2020
$end
$version
  2020.1
$end
$timescale
  1ps
$end
$scope module fifo_v3_tb $end
$var reg 1 : clk_i $end
$var reg 1 ; rst_ni $end
$var reg 1 % full_o $end
$var reg 1 & empty_o $end
$var reg 32 ( data_i $end
$var reg 1 < push_i $end
$var reg 32 * data_o $end
$var reg 1 = pop_i $end
$scope module dut $end
$var wire 1 ! clk_i $end
$var wire 1 " rst_ni $end
$var wire 1 # flush_i $end
$var wire 1 $ testmode_i $end
$var reg 1 % full_o $end
$var reg 1 & empty_o $end
$var reg 4 ' usage_o [3:0] $end
$var reg 32 ( data_i [31:0] $end
$var wire 1 ) push_i $end
$var reg 32 * data_o [31:0] $end
$var wire 1 + pop_i $end
$var reg 1 , gate_clock $end
$var reg 4 - read_pointer_n [3:0] $end
$var reg 4 . read_pointer_q [3:0] $end
$var reg 4 / write_pointer_n [3:0] $end
$var reg 4 0 write_pointer_q [3:0] $end
$var reg 5 1 status_cnt_n [4:0] $end
$var reg 5 2 status_cnt_q [4:0] $end
$var reg 512 3 mem_n [15:0] $end
$var reg 512 4 mem_q [15:0] $end
$var parameter 0 5 FALL_THROUGH $end
$var parameter 0 6 DATA_WIDTH $end
$var parameter 0 7 DEPTH $end
$var parameter 0 8 ADDR_DEPTH $end
$var parameter 0 9 FIFO_DEPTH $end
$upscope $end
$upscope $end
$enddefinitions $end
#0
$dumpvars
x!
1"
0#
0$
x%
x&
bx '
b0 (
x)
b0 *
x+
1,
bx -
bx .
bx /
bx 0
bx 1
bx 2
b0 3
b0 4
05
b100000 6
b10000 7
b100 8
b10000 9
x:
1;
x<
x=
$end
#1000
0"
0%
1&
b0 '
b0 -
b0 .
b0 /
b0 0
b0 1
b0 2
b0 4
0;
#1250
1&
1)
0+
0,
b1 /
b1 1
1<
0=
#2000
1"
1;
#5000
1!
0%
0&
b1 '
0,
b10 /
b1 0
b10 1
b1 2
b0 4
1:
#5250
b1 (
1+
0,
b1 -
b10 /
b1 1
b100000000000000000000000000000000 3
1=
#6000
0!
0:
#7000
1!
b1 *
0,
b10 -
b1 .
b11 /
b10 0
b1 1
b10000000000000000000000000000000100000000000000000000000000000000 3
b100000000000000000000000000000000 4
1:
#7250
b10 (
0,
b10 -
b11 /
b1 1
b100000000000000000000000000000000100000000000000000000000000000000 3
#8000
0!
0:
#9000
1!
b10 *
0,
b11 -
b10 .
b100 /
b11 0
b1 1
b10000000000000000000000000000000100000000000000000000000000000000100000000000000000000000000000000 3
b100000000000000000000000000000000100000000000000000000000000000000 4
1:
#9250
b11 (
0,
b11 -
b100 /
b1 1
b11000000000000000000000000000000100000000000000000000000000000000100000000000000000000000000000000 3
#10000
0!
0:
#11000
1!
b11 *
0,
b100 -
b11 .
b101 /
b100 0
b1 1
b1100000000000000000000000000000011000000000000000000000000000000100000000000000000000000000000000100000000000000000000000000000000 3
b11000000000000000000000000000000100000000000000000000000000000000100000000000000000000000000000000 4
1:
#11250
b100 (
0,
b100 -
b101 /
b1 1
b10000000000000000000000000000000011000000000000000000000000000000100000000000000000000000000000000100000000000000000000000000000000 3
#12000
0!
0:
#13000
1!
b100 *
0,
b101 -
b100 .
b110 /
b101 0
b1 1
b1000000000000000000000000000000010000000000000000000000000000000011000000000000000000000000000000100000000000000000000000000000000100000000000000000000000000000000 3
b10000000000000000000000000000000011000000000000000000000000000000100000000000000000000000000000000100000000000000000000000000000000 4
1:
#13250
b101 (
0,
b101 -
b110 /
b1 1
b1010000000000000000000000000000010000000000000000000000000000000011000000000000000000000000000000100000000000000000000000000000000100000000000000000000000000000000 3
#14000
0!
0:
#15000
1!
b101 *
0,
b110 -
b101 .
b111 /
b110 0
b1 1
b101000000000000000000000000000001010000000000000000000000000000010000000000000000000000000000000011000000000000000000000000000000100000000000000000000000000000000100000000000000000000000000000000 3
b1010000000000000000000000000000010000000000000000000000000000000011000000000000000000000000000000100000000000000000000000000000000100000000000000000000000000000000 4
1:
#15250
b110 (
0,
b110 -
b111 /
b1 1
b110000000000000000000000000000001010000000000000000000000000000010000000000000000000000000000000011000000000000000000000000000000100000000000000000000000000000000100000000000000000000000000000000 3
#16000
0!
0:
#17000
1!
b110 *
0,
b111 -
b110 .
b1000 /
b111 0
b1 1
b11000000000000000000000000000000110000000000000000000000000000001010000000000000000000000000000010000000000000000000000000000000011000000000000000000000000000000100000000000000000000000000000000100000000000000000000000000000000 3
b110000000000000000000000000000001010000000000000000000000000000010000000000000000000000000000000011000000000000000000000000000000100000000000000000000000000000000100000000000000000000000000000000 4
1:
#17250
b111 (
0,
b111 -
b1000 /
b1 1
b11100000000000000000000000000000110000000000000000000000000000001010000000000000000000000000000010000000000000000000000000000000011000000000000000000000000000000100000000000000000000000000000000100000000000000000000000000000000 3
#18000
0!
0:
#19000
1!
b111 *
0,
b1000 -
b111 .
b1001 /
b1000 0
b1 1
b1110000000000000000000000000000011100000000000000000000000000000110000000000000000000000000000001010000000000000000000000000000010000000000000000000000000000000011000000000000000000000000000000100000000000000000000000000000000100000000000000000000000000000000 3
b11100000000000000000000000000000110000000000000000000000000000001010000000000000000000000000000010000000000000000000000000000000011000000000000000000000000000000100000000000000000000000000000000100000000000000000000000000000000 4
1:
#19250
b1000 (
0,
b1000 -
b1001 /
b1 1
b10000000000000000000000000000000011100000000000000000000000000000110000000000000000000000000000001010000000000000000000000000000010000000000000000000000000000000011000000000000000000000000000000100000000000000000000000000000000100000000000000000000000000000000 3
#20000
0!
0:
#21000
1!
b1000 *
0,
b1001 -
b1000 .
b1010 /
b1001 0
b1 1
b1000000000000000000000000000000010000000000000000000000000000000011100000000000000000000000000000110000000000000000000000000000001010000000000000000000000000000010000000000000000000000000000000011000000000000000000000000000000100000000000000000000000000000000100000000000000000000000000000000 3
b10000000000000000000000000000000011100000000000000000000000000000110000000000000000000000000000001010000000000000000000000000000010000000000000000000000000000000011000000000000000000000000000000100000000000000000000000000000000100000000000000000000000000000000 4
1:
#21250
b1001 (
0,
b1001 -
b1010 /
b1 1
b1001000000000000000000000000000010000000000000000000000000000000011100000000000000000000000000000110000000000000000000000000000001010000000000000000000000000000010000000000000000000000000000000011000000000000000000000000000000100000000000000000000000000000000100000000000000000000000000000000 3
#22000
0!
0:
#23000
1!
b1001 *
0,
b1010 -
b1001 .
b1011 /
b1010 0
b1 1
b100100000000000000000000000000001001000000000000000000000000000010000000000000000000000000000000011100000000000000000000000000000110000000000000000000000000000001010000000000000000000000000000010000000000000000000000000000000011000000000000000000000000000000100000000000000000000000000000000100000000000000000000000000000000 3
b1001000000000000000000000000000010000000000000000000000000000000011100000000000000000000000000000110000000000000000000000000000001010000000000000000000000000000010000000000000000000000000000000011000000000000000000000000000000100000000000000000000000000000000100000000000000000000000000000000 4
1:
#23250
b1010 (
0,
b1010 -
b1011 /
b1 1
b101000000000000000000000000000001001000000000000000000000000000010000000000000000000000000000000011100000000000000000000000000000110000000000000000000000000000001010000000000000000000000000000010000000000000000000000000000000011000000000000000000000000000000100000000000000000000000000000000100000000000000000000000000000000 3
#24000
0!
0:
#25000
1!
b1010 *
0,
b1011 -
b1010 .
b1100 /
b1011 0
b1 1
b10100000000000000000000000000000101000000000000000000000000000001001000000000000000000000000000010000000000000000000000000000000011100000000000000000000000000000110000000000000000000000000000001010000000000000000000000000000010000000000000000000000000000000011000000000000000000000000000000100000000000000000000000000000000100000000000000000000000000000000 3
b101000000000000000000000000000001001000000000000000000000000000010000000000000000000000000000000011100000000000000000000000000000110000000000000000000000000000001010000000000000000000000000000010000000000000000000000000000000011000000000000000000000000000000100000000000000000000000000000000100000000000000000000000000000000 4
1:
#25250
b1011 (
0,
b1011 -
b1100 /
b1 1
b10110000000000000000000000000000101000000000000000000000000000001001000000000000000000000000000010000000000000000000000000000000011100000000000000000000000000000110000000000000000000000000000001010000000000000000000000000000010000000000000000000000000000000011000000000000000000000000000000100000000000000000000000000000000100000000000000000000000000000000 3
#26000
0!
0:
#27000
1!
b1011 *
0,
b1100 -
b1011 .
b1101 /
b1100 0
b1 1
b1011000000000000000000000000000010110000000000000000000000000000101000000000000000000000000000001001000000000000000000000000000010000000000000000000000000000000011100000000000000000000000000000110000000000000000000000000000001010000000000000000000000000000010000000000000000000000000000000011000000000000000000000000000000100000000000000000000000000000000100000000000000000000000000000000 3
b10110000000000000000000000000000101000000000000000000000000000001001000000000000000000000000000010000000000000000000000000000000011100000000000000000000000000000110000000000000000000000000000001010000000000000000000000000000010000000000000000000000000000000011000000000000000000000000000000100000000000000000000000000000000100000000000000000000000000000000 4
1:
#27250
b1100 (
0,
b1100 -
b1101 /
b1 1
b1100000000000000000000000000000010110000000000000000000000000000101000000000000000000000000000001001000000000000000000000000000010000000000000000000000000000000011100000000000000000000000000000110000000000000000000000000000001010000000000000000000000000000010000000000000000000000000000000011000000000000000000000000000000100000000000000000000000000000000100000000000000000000000000000000 3
#28000
0!
0:
#29000
1!
b1100 *
0,
b1101 -
b1100 .
b1110 /
b1101 0
b1 1
b110000000000000000000000000000001100000000000000000000000000000010110000000000000000000000000000101000000000000000000000000000001001000000000000000000000000000010000000000000000000000000000000011100000000000000000000000000000110000000000000000000000000000001010000000000000000000000000000010000000000000000000000000000000011000000000000000000000000000000100000000000000000000000000000000100000000000000000000000000000000 3
b1100000000000000000000000000000010110000000000000000000000000000101000000000000000000000000000001001000000000000000000000000000010000000000000000000000000000000011100000000000000000000000000000110000000000000000000000000000001010000000000000000000000000000010000000000000000000000000000000011000000000000000000000000000000100000000000000000000000000000000100000000000000000000000000000000 4
1:
#29250
b1101 (
0,
b1101 -
b1110 /
b1 1
b110100000000000000000000000000001100000000000000000000000000000010110000000000000000000000000000101000000000000000000000000000001001000000000000000000000000000010000000000000000000000000000000011100000000000000000000000000000110000000000000000000000000000001010000000000000000000000000000010000000000000000000000000000000011000000000000000000000000000000100000000000000000000000000000000100000000000000000000000000000000 3
#30000
0!
0:
#31000
1!
b1101 *
0,
b1110 -
b1101 .
b1111 /
b1110 0
b1 1
b11010000000000000000000000000000110100000000000000000000000000001100000000000000000000000000000010110000000000000000000000000000101000000000000000000000000000001001000000000000000000000000000010000000000000000000000000000000011100000000000000000000000000000110000000000000000000000000000001010000000000000000000000000000010000000000000000000000000000000011000000000000000000000000000000100000000000000000000000000000000100000000000000000000000000000000 3
b110100000000000000000000000000001100000000000000000000000000000010110000000000000000000000000000101000000000000000000000000000001001000000000000000000000000000010000000000000000000000000000000011100000000000000000000000000000110000000000000000000000000000001010000000000000000000000000000010000000000000000000000000000000011000000000000000000000000000000100000000000000000000000000000000100000000000000000000000000000000 4
1:
#31250
b1110 (
0,
b1110 -
b1111 /
b1 1
b11100000000000000000000000000000110100000000000000000000000000001100000000000000000000000000000010110000000000000000000000000000101000000000000000000000000000001001000000000000000000000000000010000000000000000000000000000000011100000000000000000000000000000110000000000000000000000000000001010000000000000000000000000000010000000000000000000000000000000011000000000000000000000000000000100000000000000000000000000000000100000000000000000000000000000000 3
#32000
0!
0:
#33000
1!
b1110 *
0,
b1111 -
b1110 .
b0 /
b1111 0
b1 1
b1110000000000000000000000000000011100000000000000000000000000000110100000000000000000000000000001100000000000000000000000000000010110000000000000000000000000000101000000000000000000000000000001001000000000000000000000000000010000000000000000000000000000000011100000000000000000000000000000110000000000000000000000000000001010000000000000000000000000000010000000000000000000000000000000011000000000000000000000000000000100000000000000000000000000000000100000000000000000000000000000000 3
b11100000000000000000000000000000110100000000000000000000000000001100000000000000000000000000000010110000000000000000000000000000101000000000000000000000000000001001000000000000000000000000000010000000000000000000000000000000011100000000000000000000000000000110000000000000000000000000000001010000000000000000000000000000010000000000000000000000000000000011000000000000000000000000000000100000000000000000000000000000000100000000000000000000000000000000 4
1:
#33250
b1111 (
0,
b1111 -
b0 /
b1 1
b1111000000000000000000000000000011100000000000000000000000000000110100000000000000000000000000001100000000000000000000000000000010110000000000000000000000000000101000000000000000000000000000001001000000000000000000000000000010000000000000000000000000000000011100000000000000000000000000000110000000000000000000000000000001010000000000000000000000000000010000000000000000000000000000000011000000000000000000000000000000100000000000000000000000000000000100000000000000000000000000000000 3
#34000
0!
0:
#35000
1!
b1111 *
0,
b0 -
b1111 .
b1 /
b0 0
b1 1
b1111000000000000000000000000000011100000000000000000000000000000110100000000000000000000000000001100000000000000000000000000000010110000000000000000000000000000101000000000000000000000000000001001000000000000000000000000000010000000000000000000000000000000011100000000000000000000000000000110000000000000000000000000000001010000000000000000000000000000010000000000000000000000000000000011000000000000000000000000000000100000000000000000000000000000000100000000000000000000000000001111 3
b1111000000000000000000000000000011100000000000000000000000000000110100000000000000000000000000001100000000000000000000000000000010110000000000000000000000000000101000000000000000000000000000001001000000000000000000000000000010000000000000000000000000000000011100000000000000000000000000000110000000000000000000000000000001010000000000000000000000000000010000000000000000000000000000000011000000000000000000000000000000100000000000000000000000000000000100000000000000000000000000000000 4
1:
#35250
b10000 (
0,
b0 -
b1 /
b1 1
b1111000000000000000000000000000011100000000000000000000000000000110100000000000000000000000000001100000000000000000000000000000010110000000000000000000000000000101000000000000000000000000000001001000000000000000000000000000010000000000000000000000000000000011100000000000000000000000000000110000000000000000000000000000001010000000000000000000000000000010000000000000000000000000000000011000000000000000000000000000000100000000000000000000000000000000100000000000000000000000000010000 3
#36000
0!
0:
#37000
1!
b10000 *
0,
b1 -
b0 .
b10 /
b1 0
b1 1
b1111000000000000000000000000000011100000000000000000000000000000110100000000000000000000000000001100000000000000000000000000000010110000000000000000000000000000101000000000000000000000000000001001000000000000000000000000000010000000000000000000000000000000011100000000000000000000000000000110000000000000000000000000000001010000000000000000000000000000010000000000000000000000000000000011000000000000000000000000000000100000000000000000000000000001000000000000000000000000000000010000 3
b1111000000000000000000000000000011100000000000000000000000000000110100000000000000000000000000001100000000000000000000000000000010110000000000000000000000000000101000000000000000000000000000001001000000000000000000000000000010000000000000000000000000000000011100000000000000000000000000000110000000000000000000000000000001010000000000000000000000000000010000000000000000000000000000000011000000000000000000000000000000100000000000000000000000000000000100000000000000000000000000010000 4
1:
#37250
b10001 (
0,
b1 -
b10 /
b1 1
b1111000000000000000000000000000011100000000000000000000000000000110100000000000000000000000000001100000000000000000000000000000010110000000000000000000000000000101000000000000000000000000000001001000000000000000000000000000010000000000000000000000000000000011100000000000000000000000000000110000000000000000000000000000001010000000000000000000000000000010000000000000000000000000000000011000000000000000000000000000000100000000000000000000000000001000100000000000000000000000000010000 3
#38000
0!
0:
#39000
1!
b10001 *
0,
b10 -
b1 .
b11 /
b10 0
b1 1
b1111000000000000000000000000000011100000000000000000000000000000110100000000000000000000000000001100000000000000000000000000000010110000000000000000000000000000101000000000000000000000000000001001000000000000000000000000000010000000000000000000000000000000011100000000000000000000000000000110000000000000000000000000000001010000000000000000000000000000010000000000000000000000000000000011000000000000000000000000000100010000000000000000000000000001000100000000000000000000000000010000 3
b1111000000000000000000000000000011100000000000000000000000000000110100000000000000000000000000001100000000000000000000000000000010110000000000000000000000000000101000000000000000000000000000001001000000000000000000000000000010000000000000000000000000000000011100000000000000000000000000000110000000000000000000000000000001010000000000000000000000000000010000000000000000000000000000000011000000000000000000000000000000100000000000000000000000000001000100000000000000000000000000010000 4
1:
#39250
b10010 (
0,
b10 -
b11 /
b1 1
b1111000000000000000000000000000011100000000000000000000000000000110100000000000000000000000000001100000000000000000000000000000010110000000000000000000000000000101000000000000000000000000000001001000000000000000000000000000010000000000000000000000000000000011100000000000000000000000000000110000000000000000000000000000001010000000000000000000000000000010000000000000000000000000000000011000000000000000000000000000100100000000000000000000000000001000100000000000000000000000000010000 3
#40000
0!
0:
#41000
1!
b10010 *
0,
b11 -
b10 .
b100 /
b11 0
b1 1
b1111000000000000000000000000000011100000000000000000000000000000110100000000000000000000000000001100000000000000000000000000000010110000000000000000000000000000101000000000000000000000000000001001000000000000000000000000000010000000000000000000000000000000011100000000000000000000000000000110000000000000000000000000000001010000000000000000000000000000010000000000000000000000000000010010000000000000000000000000000100100000000000000000000000000001000100000000000000000000000000010000 3
b1111000000000000000000000000000011100000000000000000000000000000110100000000000000000000000000001100000000000000000000000000000010110000000000000000000000000000101000000000000000000000000000001001000000000000000000000000000010000000000000000000000000000000011100000000000000000000000000000110000000000000000000000000000001010000000000000000000000000000010000000000000000000000000000000011000000000000000000000000000100100000000000000000000000000001000100000000000000000000000000010000 4
1:
#41250
b10011 (
0,
b11 -
b100 /
b1 1
b1111000000000000000000000000000011100000000000000000000000000000110100000000000000000000000000001100000000000000000000000000000010110000000000000000000000000000101000000000000000000000000000001001000000000000000000000000000010000000000000000000000000000000011100000000000000000000000000000110000000000000000000000000000001010000000000000000000000000000010000000000000000000000000000010011000000000000000000000000000100100000000000000000000000000001000100000000000000000000000000010000 3
#42000
0!
0:
#43000
1!
b10011 *
0,
b100 -
b11 .
b101 /
b100 0
b1 1
b1111000000000000000000000000000011100000000000000000000000000000110100000000000000000000000000001100000000000000000000000000000010110000000000000000000000000000101000000000000000000000000000001001000000000000000000000000000010000000000000000000000000000000011100000000000000000000000000000110000000000000000000000000000001010000000000000000000000000001001100000000000000000000000000010011000000000000000000000000000100100000000000000000000000000001000100000000000000000000000000010000 3
b1111000000000000000000000000000011100000000000000000000000000000110100000000000000000000000000001100000000000000000000000000000010110000000000000000000000000000101000000000000000000000000000001001000000000000000000000000000010000000000000000000000000000000011100000000000000000000000000000110000000000000000000000000000001010000000000000000000000000000010000000000000000000000000000010011000000000000000000000000000100100000000000000000000000000001000100000000000000000000000000010000 4
1:
#43250
b10100 (
0,
b100 -
b101 /
b1 1
b1111000000000000000000000000000011100000000000000000000000000000110100000000000000000000000000001100000000000000000000000000000010110000000000000000000000000000101000000000000000000000000000001001000000000000000000000000000010000000000000000000000000000000011100000000000000000000000000000110000000000000000000000000000001010000000000000000000000000001010000000000000000000000000000010011000000000000000000000000000100100000000000000000000000000001000100000000000000000000000000010000 3
#44000
0!
0:
#45000
1!
b10100 *
0,
b101 -
b100 .
b110 /
b101 0
b1 1
b1111000000000000000000000000000011100000000000000000000000000000110100000000000000000000000000001100000000000000000000000000000010110000000000000000000000000000101000000000000000000000000000001001000000000000000000000000000010000000000000000000000000000000011100000000000000000000000000000110000000000000000000000000000101000000000000000000000000000001010000000000000000000000000000010011000000000000000000000000000100100000000000000000000000000001000100000000000000000000000000010000 3
b1111000000000000000000000000000011100000000000000000000000000000110100000000000000000000000000001100000000000000000000000000000010110000000000000000000000000000101000000000000000000000000000001001000000000000000000000000000010000000000000000000000000000000011100000000000000000000000000000110000000000000000000000000000001010000000000000000000000000001010000000000000000000000000000010011000000000000000000000000000100100000000000000000000000000001000100000000000000000000000000010000 4
1:
#45250
b10101 (
0,
b101 -
b110 /
b1 1
b1111000000000000000000000000000011100000000000000000000000000000110100000000000000000000000000001100000000000000000000000000000010110000000000000000000000000000101000000000000000000000000000001001000000000000000000000000000010000000000000000000000000000000011100000000000000000000000000000110000000000000000000000000000101010000000000000000000000000001010000000000000000000000000000010011000000000000000000000000000100100000000000000000000000000001000100000000000000000000000000010000 3
#46000
0!
0:
#47000
1!
b10101 *
0,
b110 -
b101 .
b111 /
b110 0
b1 1
b1111000000000000000000000000000011100000000000000000000000000000110100000000000000000000000000001100000000000000000000000000000010110000000000000000000000000000101000000000000000000000000000001001000000000000000000000000000010000000000000000000000000000000011100000000000000000000000000010101000000000000000000000000000101010000000000000000000000000001010000000000000000000000000000010011000000000000000000000000000100100000000000000000000000000001000100000000000000000000000000010000 3
b1111000000000000000000000000000011100000000000000000000000000000110100000000000000000000000000001100000000000000000000000000000010110000000000000000000000000000101000000000000000000000000000001001000000000000000000000000000010000000000000000000000000000000011100000000000000000000000000000110000000000000000000000000000101010000000000000000000000000001010000000000000000000000000000010011000000000000000000000000000100100000000000000000000000000001000100000000000000000000000000010000 4
1:
#47250
b10110 (
0,
b110 -
b111 /
b1 1
b1111000000000000000000000000000011100000000000000000000000000000110100000000000000000000000000001100000000000000000000000000000010110000000000000000000000000000101000000000000000000000000000001001000000000000000000000000000010000000000000000000000000000000011100000000000000000000000000010110000000000000000000000000000101010000000000000000000000000001010000000000000000000000000000010011000000000000000000000000000100100000000000000000000000000001000100000000000000000000000000010000 3
#48000
0!
0:
#49000
1!
b10110 *
0,
b111 -
b110 .
b1000 /
b111 0
b1 1
b1111000000000000000000000000000011100000000000000000000000000000110100000000000000000000000000001100000000000000000000000000000010110000000000000000000000000000101000000000000000000000000000001001000000000000000000000000000010000000000000000000000000000001011000000000000000000000000000010110000000000000000000000000000101010000000000000000000000000001010000000000000000000000000000010011000000000000000000000000000100100000000000000000000000000001000100000000000000000000000000010000 3
b1111000000000000000000000000000011100000000000000000000000000000110100000000000000000000000000001100000000000000000000000000000010110000000000000000000000000000101000000000000000000000000000001001000000000000000000000000000010000000000000000000000000000000011100000000000000000000000000010110000000000000000000000000000101010000000000000000000000000001010000000000000000000000000000010011000000000000000000000000000100100000000000000000000000000001000100000000000000000000000000010000 4
1:
#49250
b10111 (
0,
b111 -
b1000 /
b1 1
b1111000000000000000000000000000011100000000000000000000000000000110100000000000000000000000000001100000000000000000000000000000010110000000000000000000000000000101000000000000000000000000000001001000000000000000000000000000010000000000000000000000000000001011100000000000000000000000000010110000000000000000000000000000101010000000000000000000000000001010000000000000000000000000000010011000000000000000000000000000100100000000000000000000000000001000100000000000000000000000000010000 3
#50000
0!
0:
#51000
1!
b10111 *
0,
b1000 -
b111 .
b1001 /
b1000 0
b1 1
b1111000000000000000000000000000011100000000000000000000000000000110100000000000000000000000000001100000000000000000000000000000010110000000000000000000000000000101000000000000000000000000000001001000000000000000000000000000101110000000000000000000000000001011100000000000000000000000000010110000000000000000000000000000101010000000000000000000000000001010000000000000000000000000000010011000000000000000000000000000100100000000000000000000000000001000100000000000000000000000000010000 3
b1111000000000000000000000000000011100000000000000000000000000000110100000000000000000000000000001100000000000000000000000000000010110000000000000000000000000000101000000000000000000000000000001001000000000000000000000000000010000000000000000000000000000001011100000000000000000000000000010110000000000000000000000000000101010000000000000000000000000001010000000000000000000000000000010011000000000000000000000000000100100000000000000000000000000001000100000000000000000000000000010000 4
1:
#51250
b11000 (
0,
b1000 -
b1001 /
b1 1
b1111000000000000000000000000000011100000000000000000000000000000110100000000000000000000000000001100000000000000000000000000000010110000000000000000000000000000101000000000000000000000000000001001000000000000000000000000000110000000000000000000000000000001011100000000000000000000000000010110000000000000000000000000000101010000000000000000000000000001010000000000000000000000000000010011000000000000000000000000000100100000000000000000000000000001000100000000000000000000000000010000 3
#52000
0!
0:
#53000
1!
b11000 *
0,
b1001 -
b1000 .
b1010 /
b1001 0
b1 1
b1111000000000000000000000000000011100000000000000000000000000000110100000000000000000000000000001100000000000000000000000000000010110000000000000000000000000000101000000000000000000000000000011000000000000000000000000000000110000000000000000000000000000001011100000000000000000000000000010110000000000000000000000000000101010000000000000000000000000001010000000000000000000000000000010011000000000000000000000000000100100000000000000000000000000001000100000000000000000000000000010000 3
b1111000000000000000000000000000011100000000000000000000000000000110100000000000000000000000000001100000000000000000000000000000010110000000000000000000000000000101000000000000000000000000000001001000000000000000000000000000110000000000000000000000000000001011100000000000000000000000000010110000000000000000000000000000101010000000000000000000000000001010000000000000000000000000000010011000000000000000000000000000100100000000000000000000000000001000100000000000000000000000000010000 4
1:
#53250
b11001 (
0,
b1001 -
b1010 /
b1 1
b1111000000000000000000000000000011100000000000000000000000000000110100000000000000000000000000001100000000000000000000000000000010110000000000000000000000000000101000000000000000000000000000011001000000000000000000000000000110000000000000000000000000000001011100000000000000000000000000010110000000000000000000000000000101010000000000000000000000000001010000000000000000000000000000010011000000000000000000000000000100100000000000000000000000000001000100000000000000000000000000010000 3
#54000
0!
0:
#55000
1!
b11001 *
0,
b1010 -
b1001 .
b1011 /
b1010 0
b1 1
b1111000000000000000000000000000011100000000000000000000000000000110100000000000000000000000000001100000000000000000000000000000010110000000000000000000000000001100100000000000000000000000000011001000000000000000000000000000110000000000000000000000000000001011100000000000000000000000000010110000000000000000000000000000101010000000000000000000000000001010000000000000000000000000000010011000000000000000000000000000100100000000000000000000000000001000100000000000000000000000000010000 3
b1111000000000000000000000000000011100000000000000000000000000000110100000000000000000000000000001100000000000000000000000000000010110000000000000000000000000000101000000000000000000000000000011001000000000000000000000000000110000000000000000000000000000001011100000000000000000000000000010110000000000000000000000000000101010000000000000000000000000001010000000000000000000000000000010011000000000000000000000000000100100000000000000000000000000001000100000000000000000000000000010000 4
1:
#55250
b11010 (
0,
b1010 -
b1011 /
b1 1
b1111000000000000000000000000000011100000000000000000000000000000110100000000000000000000000000001100000000000000000000000000000010110000000000000000000000000001101000000000000000000000000000011001000000000000000000000000000110000000000000000000000000000001011100000000000000000000000000010110000000000000000000000000000101010000000000000000000000000001010000000000000000000000000000010011000000000000000000000000000100100000000000000000000000000001000100000000000000000000000000010000 3
#56000
0!
0:
#57000
1!
b11010 *
0,
b1011 -
b1010 .
b1100 /
b1011 0
b1 1
b1111000000000000000000000000000011100000000000000000000000000000110100000000000000000000000000001100000000000000000000000000000110100000000000000000000000000001101000000000000000000000000000011001000000000000000000000000000110000000000000000000000000000001011100000000000000000000000000010110000000000000000000000000000101010000000000000000000000000001010000000000000000000000000000010011000000000000000000000000000100100000000000000000000000000001000100000000000000000000000000010000 3
b1111000000000000000000000000000011100000000000000000000000000000110100000000000000000000000000001100000000000000000000000000000010110000000000000000000000000001101000000000000000000000000000011001000000000000000000000000000110000000000000000000000000000001011100000000000000000000000000010110000000000000000000000000000101010000000000000000000000000001010000000000000000000000000000010011000000000000000000000000000100100000000000000000000000000001000100000000000000000000000000010000 4
1:
#57250
b11011 (
0,
b1011 -
b1100 /
b1 1
b1111000000000000000000000000000011100000000000000000000000000000110100000000000000000000000000001100000000000000000000000000000110110000000000000000000000000001101000000000000000000000000000011001000000000000000000000000000110000000000000000000000000000001011100000000000000000000000000010110000000000000000000000000000101010000000000000000000000000001010000000000000000000000000000010011000000000000000000000000000100100000000000000000000000000001000100000000000000000000000000010000 3
#58000
0!
0:
#59000
1!
b11011 *
0,
b1100 -
b1011 .
b1101 /
b1100 0
b1 1
b1111000000000000000000000000000011100000000000000000000000000000110100000000000000000000000000011011000000000000000000000000000110110000000000000000000000000001101000000000000000000000000000011001000000000000000000000000000110000000000000000000000000000001011100000000000000000000000000010110000000000000000000000000000101010000000000000000000000000001010000000000000000000000000000010011000000000000000000000000000100100000000000000000000000000001000100000000000000000000000000010000 3
b1111000000000000000000000000000011100000000000000000000000000000110100000000000000000000000000001100000000000000000000000000000110110000000000000000000000000001101000000000000000000000000000011001000000000000000000000000000110000000000000000000000000000001011100000000000000000000000000010110000000000000000000000000000101010000000000000000000000000001010000000000000000000000000000010011000000000000000000000000000100100000000000000000000000000001000100000000000000000000000000010000 4
1:
#59250
b11100 (
0,
b1100 -
b1101 /
b1 1
b1111000000000000000000000000000011100000000000000000000000000000110100000000000000000000000000011100000000000000000000000000000110110000000000000000000000000001101000000000000000000000000000011001000000000000000000000000000110000000000000000000000000000001011100000000000000000000000000010110000000000000000000000000000101010000000000000000000000000001010000000000000000000000000000010011000000000000000000000000000100100000000000000000000000000001000100000000000000000000000000010000 3
#60000
0!
0:
#61000
1!
b11100 *
0,
b1101 -
b1100 .
b1110 /
b1101 0
b1 1
b1111000000000000000000000000000011100000000000000000000000000001110000000000000000000000000000011100000000000000000000000000000110110000000000000000000000000001101000000000000000000000000000011001000000000000000000000000000110000000000000000000000000000001011100000000000000000000000000010110000000000000000000000000000101010000000000000000000000000001010000000000000000000000000000010011000000000000000000000000000100100000000000000000000000000001000100000000000000000000000000010000 3
b1111000000000000000000000000000011100000000000000000000000000000110100000000000000000000000000011100000000000000000000000000000110110000000000000000000000000001101000000000000000000000000000011001000000000000000000000000000110000000000000000000000000000001011100000000000000000000000000010110000000000000000000000000000101010000000000000000000000000001010000000000000000000000000000010011000000000000000000000000000100100000000000000000000000000001000100000000000000000000000000010000 4
1:
#61250
b11101 (
0,
b1101 -
b1110 /
b1 1
b1111000000000000000000000000000011100000000000000000000000000001110100000000000000000000000000011100000000000000000000000000000110110000000000000000000000000001101000000000000000000000000000011001000000000000000000000000000110000000000000000000000000000001011100000000000000000000000000010110000000000000000000000000000101010000000000000000000000000001010000000000000000000000000000010011000000000000000000000000000100100000000000000000000000000001000100000000000000000000000000010000 3
#62000
0!
0:
#63000
1!
b11101 *
0,
b1110 -
b1101 .
b1111 /
b1110 0
b1 1
b1111000000000000000000000000000111010000000000000000000000000001110100000000000000000000000000011100000000000000000000000000000110110000000000000000000000000001101000000000000000000000000000011001000000000000000000000000000110000000000000000000000000000001011100000000000000000000000000010110000000000000000000000000000101010000000000000000000000000001010000000000000000000000000000010011000000000000000000000000000100100000000000000000000000000001000100000000000000000000000000010000 3
b1111000000000000000000000000000011100000000000000000000000000001110100000000000000000000000000011100000000000000000000000000000110110000000000000000000000000001101000000000000000000000000000011001000000000000000000000000000110000000000000000000000000000001011100000000000000000000000000010110000000000000000000000000000101010000000000000000000000000001010000000000000000000000000000010011000000000000000000000000000100100000000000000000000000000001000100000000000000000000000000010000 4
1:
#63250
b11110 (
0,
b1110 -
b1111 /
b1 1
b1111000000000000000000000000000111100000000000000000000000000001110100000000000000000000000000011100000000000000000000000000000110110000000000000000000000000001101000000000000000000000000000011001000000000000000000000000000110000000000000000000000000000001011100000000000000000000000000010110000000000000000000000000000101010000000000000000000000000001010000000000000000000000000000010011000000000000000000000000000100100000000000000000000000000001000100000000000000000000000000010000 3
#64000
0!
0:
