vivado-vcd/fir.vcd
$date
   Sat Aug 22 13:25:25 2020
$end
$version
  2020.1
$end
$timescale
  1ps
$end
$scope module fir_tb $end
$var reg 1 ! CLK $end
$var reg 8 " X [7:0] $end
$var reg 32 # W [3:0] $end
$var reg 16 $ Y [15:0] $end
$var parameter 0 % T $end
$var parameter 0 & NI $end
$var parameter 0 ' NO $end
$upscope $end
$enddefinitions $end
#0
$dumpvars
x!
b0 "
b100000000111111111111111110 #
bx $
b100 %
b1000 &
b10000 '
$end
#1000
1!
#1500
b1001 "
#2000
0!
#3000
1!
#3500
b10010 "
#4000
0!
#5000
1!
b10001111100101 $
#5500
b1000 "
b1100111111001 $
#6000
0!
#7000
1!
b1000001000010 $
#7500
b10001 "
b1100100110000 $
#8000
0!
#9000
1!
b10001000101101 $
#9500
b111 "
b1100001000001 $
#10000
0!
#11000
1!
b111000111110 $
#11500
b10000 "
b1011100101100 $
#12000
0!
#13000
1!
b10000000101001 $
#13500
b110 "
b1011000111101 $
#14000
0!
#15000
1!
b110000111010 $
#15500
b1111 "
b1010100101000 $
#16000
0!
#17000
1!
b1111000100101 $
#17500
b101 "
b1010000111001 $
#18000
0!
#19000
1!
b101000110110 $
#19500
b1110 "
b1001100100100 $
#20000
0!
#21000
1!
b1110000100001 $
#21500
b100 "
b1001000110101 $
#22000
0!
#23000
1!
b100000110010 $
#23500
b1101 "
b1000100100000 $
#24000
0!
#25000
1!
b1101000011101 $
#25500
b11 "
b1000000110001 $
#26000
0!
#27000
1!
b11000101110 $
#27500
b1100 "
b111100011100 $
#28000
0!
#29000
1!
b1100000011001 $
#29500
b10 "
b111000101101 $
#30000
0!
#31000
1!
b10000101010 $
#31500
b1011 "
b110100011000 $
#32000
0!
#33000
1!
b1011000010101 $
#33500
b1 "
b110000101001 $
#34000
0!
#35000
1!
b1000100110 $
#35500
b1010 "
b101100010100 $
#36000
0!
#37000
1!
b1010000010001 $
#37500
b0 "
b101000100101 $
#38000
0!
#39000
1!
b100010 $
#39500
b1001 "
b100100010000 $
#40000
0!
#41000
1!
b1001000001101 $
#41500
b10010 "
b1101011111011 $
#42000
0!
#43000
1!
b10001111100101 $
#43500
b1000 "
b1100111111001 $
#44000
0!
#45000
1!
b1000001000010 $
#45500
b10001 "
b1100100110000 $
#46000
0!
#47000
1!
b10001000101101 $
#47500
b111 "
b1100001000001 $
#48000
0!
#49000
1!
b111000111110 $
#49500
b10000 "
b1011100101100 $
#50000
0!
#51000
1!
b10000000101001 $
#51500
b110 "
b1011000111101 $
#52000
0!
#53000
1!
b110000111010 $
#53500
b1111 "
b1010100101000 $
#54000
0!
#55000
1!
b1111000100101 $
#55500
b101 "
b1010000111001 $
#56000
0!
#57000
1!
b101000110110 $
#57500
b1110 "
b1001100100100 $
#58000
0!
#59000
1!
b1110000100001 $
#59500
b100 "
b1001000110101 $
#60000
0!
#61000
1!
b100000110010 $
#61500
b1101 "
b1000100100000 $
#62000
0!
#63000
1!
b1101000011101 $
#63500
b11 "
b1000000110001 $
#64000
0!
#65000
1!
b11000101110 $
#65500
b1100 "
b111100011100 $
#66000
0!
#67000
1!
b1100000011001 $
#67500
b10 "
b111000101101 $
#68000
0!
#69000
1!
b10000101010 $
#69500
b1011 "
b110100011000 $
#70000
0!
#71000
1!
b1011000010101 $
#71500
b1 "
b110000101001 $
#72000
0!
#73000
1!
b1000100110 $
#73500
b1010 "
b101100010100 $
#74000
0!
#75000
1!
b1010000010001 $
#75500
b0 "
b101000100101 $
#76000
0!
#77000
1!
b100010 $
#77500
b1001 "
b100100010000 $
#78000
0!
#79000
1!
b1001000001101 $
#79500
b10010 "
b1101011111011 $
#80000
0!
#81000
1!
b10001111100101 $
#81500
b1000 "
b1100111111001 $
#82000
0!
#83000
1!
b1000001000010 $
#83500
b10001 "
b1100100110000 $
#84000
0!
#85000
1!
b10001000101101 $
#85500
b111 "
b1100001000001 $
#86000
0!
#87000
1!
b111000111110 $
#87500
b10000 "
b1011100101100 $
#88000
0!
#89000
1!
b10000000101001 $
#89500
b110 "
b1011000111101 $
#90000
0!
#91000
1!
b110000111010 $
#91500
b1111 "
b1010100101000 $
#92000
0!
#93000
1!
b1111000100101 $
#93500
b101 "
b1010000111001 $
#94000
0!
#95000
1!
b101000110110 $
#95500
b1110 "
b1001100100100 $
#96000
0!
#97000
1!
b1110000100001 $
#97500
b100 "
b1001000110101 $
#98000
0!
#99000
1!
b100000110010 $
#99500
b1101 "
b1000100100000 $
#100000
0!
#101000
1!
b1101000011101 $
#101500
b11 "
b1000000110001 $
#102000
0!
#103000
1!
b11000101110 $
#103500
b1100 "
b111100011100 $
#104000
0!
#105000
1!
b1100000011001 $
#105500
b10 "
b111000101101 $
#106000
0!
#107000
1!
b10000101010 $
#107500
b1011 "
b110100011000 $
#108000
0!
#109000
1!
b1011000010101 $
#109500
b1 "
b110000101001 $
#110000
0!
#111000
1!
b1000100110 $
#111500
b1010 "
b101100010100 $
#112000
0!
#113000
1!
b1010000010001 $
#113500
b0 "
b101000100101 $
#114000
0!
#115000
1!
b100010 $
#115500
b1001 "
b100100010000 $
#116000
0!
#117000
1!
b1001000001101 $
#117500
b10010 "
b1101011111011 $
#118000
0!
#119000
1!
b10001111100101 $
#119500
b1000 "
b1100111111001 $
#120000
0!
#121000
1!
b1000001000010 $
#121500
b10001 "
b1100100110000 $
#122000
0!
#123000
1!
b10001000101101 $
#123500
b111 "
b1100001000001 $
#124000
0!
#125000
1!
b111000111110 $
#125500
b10000 "
b1011100101100 $
#126000
0!
#127000
1!
b10000000101001 $
#127500
b110 "
b1011000111101 $
#128000
0!
#129000
1!
b110000111010 $
#129500
b1111 "
b1010100101000 $
#130000
0!
#131000
1!
b1111000100101 $
#131500
b101 "
b1010000111001 $
#132000
0!
#133000
1!
b101000110110 $
#133500
b1110 "
b1001100100100 $
#134000
0!
#135000
1!
b1110000100001 $
#135500
b100 "
b1001000110101 $
#136000
0!
#137000
1!
b100000110010 $
#137500
b1101 "
b1000100100000 $
#138000
0!
#139000
1!
b1101000011101 $
#139500
b11 "
b1000000110001 $
#140000
0!
#141000
1!
b11000101110 $
#141500
b1100 "
b111100011100 $
#142000
0!
#143000
1!
b1100000011001 $
#143500
b10 "
b111000101101 $
#144000
0!
#145000
1!
b10000101010 $
#145500
b1011 "
b110100011000 $
#146000
0!
#147000
1!
b1011000010101 $
#147500
b1 "
b110000101001 $
#148000
0!
#149000
1!
b1000100110 $
#149500
b1010 "
b101100010100 $
#150000
0!
#151000
1!
b1010000010001 $
#151500
b0 "
b101000100101 $
#152000
0!
#153000
1!
b100010 $
#153500
b1001 "
b100100010000 $
#154000
0!
#155000
1!
b1001000001101 $
#155500
b10010 "
b1101011111011 $
#156000
0!
#157000
1!
b10001111100101 $
#157500
b1000 "
b1100111111001 $
#158000
0!
#159000
1!
b1000001000010 $
#159500
b10001 "
b1100100110000 $
#160000
0!
#161000
1!
b10001000101101 $
#161500
b111 "
b1100001000001 $
#162000
0!
#163000
1!
b111000111110 $
#163500
b10000 "
b1011100101100 $
#164000
0!
#165000
1!
b10000000101001 $
#165500
b110 "
b1011000111101 $
#166000
0!
#167000
1!
b110000111010 $
#167500
b1111 "
b1010100101000 $
#168000
0!
#169000
1!
b1111000100101 $
#169500
b101 "
b1010000111001 $
#170000
0!
#171000
1!
b101000110110 $
#171500
b1110 "
b1001100100100 $
#172000
0!
#173000
1!
b1110000100001 $
#173500
b100 "
b1001000110101 $
#174000
0!
#175000
1!
b100000110010 $
#175500
b1101 "
b1000100100000 $
#176000
0!
#177000
1!
b1101000011101 $
#177500
b11 "
b1000000110001 $
#178000
0!
#179000
1!
b11000101110 $
#179500
b1100 "
b111100011100 $
#180000
0!
#181000
1!
b1100000011001 $
#181500
b10 "
b111000101101 $
#182000
0!
#183000
1!
b10000101010 $
#183500
b1011 "
b110100011000 $
#184000
0!
#185000
1!
b1011000010101 $
#185500
b1 "
b110000101001 $
#186000
0!
#187000
1!
b1000100110 $
#187500
b1010 "
b101100010100 $
#188000
0!
#189000
1!
b1010000010001 $
#189500
b0 "
b101000100101 $
#190000
0!
#191000
1!
b100010 $
#191500
b1001 "
b100100010000 $
#192000
0!
#193000
1!
b1001000001101 $
#193500
b10010 "
b1101011111011 $
#194000
0!
#195000
1!
b10001111100101 $
#195500
b1000 "
b1100111111001 $
#196000
0!
#197000
1!
b1000001000010 $
#197500
b10001 "
b1100100110000 $
#198000
0!
#199000
1!
b10001000101101 $
#199500
b111 "
b1100001000001 $
#200000
0!
#201000
1!
b111000111110 $
#201500
b10000 "
b1011100101100 $
#202000
0!
#203000
1!
b10000000101001 $
#203500
b110 "
b1011000111101 $
#204000
0!
#205000
1!
b110000111010 $
#205500
b1111 "
b1010100101000 $
#206000
0!
#207000
1!
b1111000100101 $
#207500
b101 "
b1010000111001 $
#208000
0!
#209000
1!
b101000110110 $
#209500
b1110 "
b1001100100100 $
#210000
0!
#211000
1!
b1110000100001 $
#211500
b100 "
b1001000110101 $
#212000
0!
#213000
1!
b100000110010 $
#213500
b1101 "
b1000100100000 $
#214000
0!
#215000
1!
b1101000011101 $
#215500
b11 "
b1000000110001 $
#216000
0!
#217000
1!
b11000101110 $
#217500
b1100 "
b111100011100 $
#218000
0!
#219000
1!
b1100000011001 $
#219500
b10 "
b111000101101 $
#220000
0!
#221000
1!
b10000101010 $
#221500
b1011 "
b110100011000 $
#222000
0!
#223000
1!
b1011000010101 $
#223500
b1 "
b110000101001 $
#224000
0!
#225000
1!
b1000100110 $
#225500
b1010 "
b101100010100 $
#226000
0!
#227000
1!
b1010000010001 $
#227500
b0 "
b101000100101 $
#228000
0!
#229000
1!
b100010 $
#229500
b1001 "
b100100010000 $
#230000
0!
#231000
1!
b1001000001101 $
#231500
b10010 "
b1101011111011 $
#232000
0!
#233000
1!
b10001111100101 $
#233500
b1000 "
b1100111111001 $
#234000
0!
#235000
1!
b1000001000010 $
#235500
b10001 "
b1100100110000 $
#236000
0!
#237000
1!
b10001000101101 $
#237500
b111 "
b1100001000001 $
#238000
0!
#239000
1!
b111000111110 $
#239500
b10000 "
b1011100101100 $
#240000
0!
#241000
1!
b10000000101001 $
#241500
b110 "
b1011000111101 $
#242000
0!
#243000
1!
b110000111010 $
#243500
b1111 "
b1010100101000 $
#244000
0!
#245000
1!
b1111000100101 $
#245500
b101 "
b1010000111001 $
#246000
0!
#247000
1!
b101000110110 $
#247500
b1110 "
b1001100100100 $
#248000
0!
#249000
1!
b1110000100001 $
#249500
b100 "
b1001000110101 $
#250000
0!
#251000
1!
b100000110010 $
#251500
b1101 "
b1000100100000 $
#252000
0!
#253000
1!
b1101000011101 $
#253500
b11 "
b1000000110001 $
#254000
0!
#255000
1!
b11000101110 $
#255500
b1100 "
b111100011100 $
#256000
0!
#257000
1!
b1100000011001 $
#257500
b10 "
b111000101101 $
#258000
0!
#259000
1!
b10000101010 $
#259500
b1011 "
b110100011000 $
#260000
0!
#261000
1!
b1011000010101 $
#261500
b1 "
b110000101001 $
#262000
0!
#263000
1!
b1000100110 $
#263500
b1010 "
b101100010100 $
#264000
0!
#265000
1!
b1010000010001 $
#265500
b0 "
b101000100101 $
#266000
0!
#267000
1!
b100010 $
#267500
b1001 "
b100100010000 $
#268000
0!
#269000
1!
b1001000001101 $
#269500
b10010 "
b1101011111011 $
#270000
0!
#271000
1!
b10001111100101 $
#271500
b1000 "
b1100111111001 $
#272000
0!
#273000
1!
b1000001000010 $
#273500
b10001 "
b1100100110000 $
#274000
0!
#275000
1!
b10001000101101 $
#275500
b111 "
b1100001000001 $
#276000
0!
#277000
1!
b111000111110 $
#277500
b10000 "
b1011100101100 $
#278000
0!
#279000
1!
b10000000101001 $
#279500
b110 "
b1011000111101 $
#280000
0!
#281000
1!
b110000111010 $
#281500
b1111 "
b1010100101000 $
#282000
0!
#283000
1!
b1111000100101 $
#283500
b101 "
b1010000111001 $
#284000
0!
#285000
1!
b101000110110 $
#285500
b1110 "
b1001100100100 $
#286000
0!
#287000
1!
b1110000100001 $
#287500
b100 "
b1001000110101 $
#288000
0!
#289000
1!
b100000110010 $
#289500
b1101 "
b1000100100000 $
#290000
0!
#291000
1!
b1101000011101 $
#291500
b11 "
b1000000110001 $
#292000
0!
#293000
1!
b11000101110 $
#293500
b1100 "
b111100011100 $
#294000
0!
#295000
1!
b1100000011001 $
#295500
b10 "
b111000101101 $
#296000
0!
#297000
1!
b10000101010 $
#297500
b1011 "
b110100011000 $
#298000
0!
#299000
1!
b1011000010101 $
#299500
b1 "
b110000101001 $
#300000
0!
#301000
1!
b1000100110 $
#301500
b1010 "
b101100010100 $
#302000
0!
#303000
1!
b1010000010001 $
#303500
b0 "
b101000100101 $
#304000
0!
#305000
1!
b100010 $
#305500
b1001 "
b100100010000 $
#306000
0!
#307000
1!
b1001000001101 $
#307500
b10010 "
b1101011111011 $
#308000
0!
#309000
1!
b10001111100101 $
#309500
b1000 "
b1100111111001 $
#310000
0!
#311000
1!
b1000001000010 $
#311500
b10001 "
b1100100110000 $
#312000
0!
#313000
1!
b10001000101101 $
#313500
b111 "
b1100001000001 $
#314000
0!
#315000
1!
b111000111110 $
#315500
b10000 "
b1011100101100 $
#316000
0!
#317000
1!
b10000000101001 $
#317500
b110 "
b1011000111101 $
#318000
0!
#319000
1!
b110000111010 $
#319500
b1111 "
b1010100101000 $
#320000
0!
#321000
1!
b1111000100101 $
#321500
b101 "
b1010000111001 $
#322000
0!
#323000
1!
b101000110110 $
#323500
b1110 "
b1001100100100 $
#324000
0!
#325000
1!
b1110000100001 $
#325500
b100 "
b1001000110101 $
#326000
0!
#327000
1!
b100000110010 $
#327500
b1101 "
b1000100100000 $
#328000
0!
#329000
1!
b1101000011101 $
#329500
b11 "
b1000000110001 $
#330000
0!
#331000
1!
b11000101110 $
#331500
b1100 "
b111100011100 $
#332000
0!
#333000
1!
b1100000011001 $
#333500
b10 "
b111000101101 $
#334000
0!
#335000
1!
b10000101010 $
#335500
b1011 "
b110100011000 $
#336000
0!
#337000
1!
b1011000010101 $
#337500
b1 "
b110000101001 $
#338000
0!
#339000
1!
b1000100110 $
#339500
b1010 "
b101100010100 $
#340000
0!
#341000
1!
b1010000010001 $
#341500
b0 "
b101000100101 $
#342000
0!
#343000
1!
b100010 $
#343500
b1001 "
b100100010000 $
#344000
0!
#345000
1!
b1001000001101 $
#345500
b10010 "
b1101011111011 $
#346000
0!
#347000
1!
b10001111100101 $
#347500
b1000 "
b1100111111001 $
#348000
0!
#349000
1!
b1000001000010 $
#349500
b10001 "
b1100100110000 $
#350000
0!
#351000
1!
b10001000101101 $
#351500
b111 "
b1100001000001 $
#352000
0!
#353000
1!
b111000111110 $
#353500
b10000 "
b1011100101100 $
#354000
0!
#355000
1!
b10000000101001 $
#355500
b110 "
b1011000111101 $
#356000
0!
#357000
1!
b110000111010 $
#357500
b1111 "
b1010100101000 $
#358000
0!
#359000
1!
b1111000100101 $
#359500
b101 "
b1010000111001 $
#360000
0!
#361000
1!
b101000110110 $
#361500
b1110 "
b1001100100100 $
#362000
0!
#363000
1!
b1110000100001 $
#363500
b100 "
b1001000110101 $
#364000
0!
#365000
1!
b100000110010 $
#365500
b1101 "
b1000100100000 $
#366000
0!
#367000
1!
b1101000011101 $
#367500
b11 "
b1000000110001 $
#368000
0!
#369000
1!
b11000101110 $
#369500
b1100 "
b111100011100 $
#370000
0!
#371000
1!
b1100000011001 $
#371500
b10 "
b111000101101 $
#372000
0!
#373000
1!
b10000101010 $
#373500
b1011 "
b110100011000 $
#374000
0!
#375000
1!
b1011000010101 $
#375500
b1 "
b110000101001 $
#376000
0!
#377000
1!
b1000100110 $
#377500
b1010 "
b101100010100 $
#378000
0!
#379000
1!
b1010000010001 $
#379500
b0 "
b101000100101 $
#380000
0!
#381000
1!
b100010 $
#381500
b1001 "
b100100010000 $
#382000
0!
#383000
1!
b1001000001101 $
#383500
b10010 "
b1101011111011 $
#384000
0!
#385000
1!
b10001111100101 $
#385500
b1000 "
b1100111111001 $
#386000
0!
#387000
1!
b1000001000010 $
#387500
b10001 "
b1100100110000 $
#388000
0!
#389000
1!
b10001000101101 $
#389500
b111 "
b1100001000001 $
#390000
0!
#391000
1!
b111000111110 $
#391500
b10000 "
b1011100101100 $
#392000
0!
#393000
1!
b10000000101001 $
#393500
b110 "
b1011000111101 $
#394000
0!
#395000
1!
b110000111010 $
#395500
b1111 "
b1010100101000 $
#396000
0!
#397000
1!
b1111000100101 $
#397500
b101 "
b1010000111001 $
#398000
0!
#399000
1!
b101000110110 $
#399500
b1110 "
b1001100100100 $
#400000
0!
#401000
1!
b1110000100001 $
#401500
b100 "
b1001000110101 $
#402000
0!
#403000
1!
b100000110010 $
#403500
b1101 "
b1000100100000 $
#404000
0!
#405000
1!
b1101000011101 $
#405500
b11 "
b1000000110001 $
#406000
0!
#407000
1!
b11000101110 $
#407500
b1100 "
b111100011100 $
#408000
0!
#409000
1!
b1100000011001 $
#409500
b10 "
b111000101101 $
#410000
0!
#411000
1!
b10000101010 $
#411500
b1011 "
b110100011000 $
#412000
0!
#413000
1!
b1011000010101 $
#413500
b1 "
b110000101001 $
#414000
0!
#415000
1!
b1000100110 $
#415500
b1010 "
b101100010100 $
#416000
0!
#417000
1!
b1010000010001 $
#417500
b0 "
b101000100101 $
#418000
0!
#419000
1!
b100010 $
#419500
b1001 "
b100100010000 $
#420000
0!
#421000
1!
b1001000001101 $
#421500
b10010 "
b1101011111011 $
#422000
0!
#423000
1!
b10001111100101 $
#423500
b1000 "
b1100111111001 $
#424000
0!
#425000
1!
b1000001000010 $
#425500
b10001 "
b1100100110000 $
#426000
0!
#427000
1!
b10001000101101 $
#427500
b111 "
b1100001000001 $
#428000
0!
#429000
1!
b111000111110 $
#429500
b10000 "
b1011100101100 $
#430000
0!
#431000
1!
b10000000101001 $
#431500
b110 "
b1011000111101 $
#432000
0!
#433000
1!
b110000111010 $
#433500
b1111 "
b1010100101000 $
#434000
0!
#435000
1!
b1111000100101 $
#435500
b101 "
b1010000111001 $
#436000
0!
#437000
1!
b101000110110 $
#437500
b1110 "
b1001100100100 $
#438000
0!
#439000
1!
b1110000100001 $
#439500
b100 "
b1001000110101 $
#440000
0!
#441000
1!
b100000110010 $
#441500
b1101 "
b1000100100000 $
#442000
0!
#443000
1!
b1101000011101 $
#443500
b11 "
b1000000110001 $
#444000
0!
#445000
1!
b11000101110 $
#445500
b1100 "
b111100011100 $
#446000
0!
#447000
1!
b1100000011001 $
#447500
b10 "
b111000101101 $
#448000
0!
#449000
1!
b10000101010 $
#449500
b1011 "
b110100011000 $
#450000
0!
#451000
1!
b1011000010101 $
#451500
b1 "
b110000101001 $
#452000
0!
#453000
1!
b1000100110 $
#453500
b1010 "
b101100010100 $
#454000
0!
#455000
1!
b1010000010001 $
#455500
b0 "
b101000100101 $
#456000
0!
#457000
1!
b100010 $
#457500
b1001 "
b100100010000 $
#458000
0!
#459000
1!
b1001000001101 $
#459500
b10010 "
b1101011111011 $
#460000
0!
#461000
1!
b10001111100101 $
#461500
b1000 "
b1100111111001 $
#462000
0!
#463000
1!
b1000001000010 $
#463500
b10001 "
b1100100110000 $
#464000
0!
#465000
1!
b10001000101101 $
#465500
b111 "
b1100001000001 $
#466000
0!
#467000
1!
b111000111110 $
#467500
b10000 "
b1011100101100 $
#468000
0!
#469000
1!
b10000000101001 $
#469500
b110 "
b1011000111101 $
#470000
0!
#471000
1!
b110000111010 $
#471500
b1111 "
b1010100101000 $
#472000
0!
#473000
1!
b1111000100101 $
#473500
b101 "
b1010000111001 $
#474000
0!
#475000
1!
b101000110110 $
#475500
b1110 "
b1001100100100 $
#476000
0!
#477000
1!
b1110000100001 $
#477500
b100 "
b1001000110101 $
#478000
0!
#479000
1!
b100000110010 $
#479500
b1101 "
b1000100100000 $
#480000
0!
#481000
1!
b1101000011101 $
#481500
b11 "
b1000000110001 $
#482000
0!
#483000
1!
b11000101110 $
#483500
b1100 "
b111100011100 $
#484000
0!
#485000
1!
b1100000011001 $
#485500
b10 "
b111000101101 $
#486000
0!
#487000
1!
b10000101010 $
#487500
b1011 "
b110100011000 $
#488000
0!
#489000
1!
b1011000010101 $
#489500
b1 "
b110000101001 $
#490000
0!
#491000
1!
b1000100110 $
#491500
b1010 "
b101100010100 $
#492000
0!
#493000
1!
b1010000010001 $
#493500
b0 "
b101000100101 $
#494000
0!
#495000
1!
b100010 $
#495500
b1001 "
b100100010000 $
#496000
0!
#497000
1!
b1001000001101 $
#497500
b10010 "
b1101011111011 $
#498000
0!
#499000
1!
b10001111100101 $
#499500
b1000 "
b1100111111001 $
#500000
0!
#501000
1!
b1000001000010 $
#501500
b10001 "
b1100100110000 $
#502000
0!
#503000
1!
b10001000101101 $
#503500
b111 "
b1100001000001 $
#504000
0!
#505000
1!
b111000111110 $
#505500
b10000 "
b1011100101100 $
#506000
0!
#507000
1!
b10000000101001 $
#507500
b110 "
b1011000111101 $
#508000
0!
#509000
1!
b110000111010 $
#509500
b1111 "
b1010100101000 $
#510000
0!
#511000
1!
b1111000100101 $
#511500
b101 "
b1010000111001 $
#512000
0!
#513000
1!
b101000110110 $
#513500
b1110 "
b1001100100100 $
#514000
0!
#515000
1!
b1110000100001 $
#515500
b100 "
b1001000110101 $
#516000
0!
#517000
1!
b100000110010 $
#517500
b1101 "
b1000100100000 $
#518000
0!
#519000
1!
b1101000011101 $
#519500
b11 "
b1000000110001 $
#520000
0!
#521000
1!
b11000101110 $
#521500
b1100 "
b111100011100 $
#522000
0!
#523000
1!
b1100000011001 $
#523500
b10 "
b111000101101 $
#524000
0!
#525000
1!
b10000101010 $
#525500
b1011 "
b110100011000 $
#526000
0!
#527000
1!
b1011000010101 $
#527500
b1 "
b110000101001 $
#528000
0!
#529000
1!
b1000100110 $
#529500
b1010 "
b101100010100 $
#530000
0!
#531000
1!
b1010000010001 $
#531500
b0 "
b101000100101 $
#532000
0!
#533000
1!
b100010 $
#533500
b1001 "
b100100010000 $
#534000
0!
#535000
1!
b1001000001101 $
#535500
b10010 "
b1101011111011 $
#536000
0!
#537000
1!
b10001111100101 $
#537500
b1000 "
b1100111111001 $
#538000
0!
#539000
1!
b1000001000010 $
#539500
b10001 "
b1100100110000 $
#540000
0!
#541000
1!
b10001000101101 $
#541500
b111 "
b1100001000001 $
#542000
0!
#543000
1!
b111000111110 $
#543500
b10000 "
b1011100101100 $
#544000
0!
#545000
1!
b10000000101001 $
#545500
b110 "
b1011000111101 $
#546000
0!
#547000
1!
b110000111010 $
#547500
b1111 "
b1010100101000 $
#548000
0!
#549000
1!
b1111000100101 $
#549500
b101 "
b1010000111001 $
#550000
0!
#551000
1!
b101000110110 $
#551500
b1110 "
b1001100100100 $
#552000
0!
#553000
1!
b1110000100001 $
#553500
b100 "
b1001000110101 $
#554000
0!
#555000
1!
b100000110010 $
#555500
b1101 "
b1000100100000 $
#556000
0!
#557000
1!
b1101000011101 $
#557500
b11 "
b1000000110001 $
#558000
0!
#559000
1!
b11000101110 $
#559500
b1100 "
b111100011100 $
#560000
0!
#561000
1!
b1100000011001 $
#561500
b10 "
b111000101101 $
#562000
0!
#563000
1!
b10000101010 $
#563500
b1011 "
b110100011000 $
#564000
0!
#565000
1!
b1011000010101 $
#565500
b1 "
b110000101001 $
#566000
0!
#567000
1!
b1000100110 $
#567500
b1010 "
b101100010100 $
#568000
0!
#569000
1!
b1010000010001 $
#569500
b0 "
b101000100101 $
#570000
0!
#571000
1!
b100010 $
#571500
b1001 "
b100100010000 $
#572000
0!
#573000
1!
b1001000001101 $
#573500
b10010 "
b1101011111011 $
#574000
0!
#575000
1!
b10001111100101 $
#575500
b1000 "
b1100111111001 $
#576000
0!
#577000
1!
b1000001000010 $
#577500
b10001 "
b1100100110000 $
#578000
0!
#579000
1!
b10001000101101 $
#579500
b111 "
b1100001000001 $
#580000
0!
#581000
1!
b111000111110 $
#581500
b10000 "
b1011100101100 $
#582000
0!
#583000
1!
b10000000101001 $
#583500
b110 "
b1011000111101 $
#584000
0!
#585000
1!
b110000111010 $
#585500
b1111 "
b1010100101000 $
#586000
0!
#587000
1!
b1111000100101 $
#587500
b101 "
b1010000111001 $
#588000
0!
#589000
1!
b101000110110 $
#589500
b1110 "
b1001100100100 $
#590000
0!
#591000
1!
b1110000100001 $
#591500
b100 "
b1001000110101 $
#592000
0!
#593000
1!
b100000110010 $
#593500
b1101 "
b1000100100000 $
#594000
0!
#595000
1!
b1101000011101 $
#595500
b11 "
b1000000110001 $
#596000
0!
#597000
1!
b11000101110 $
#597500
b1100 "
b111100011100 $
#598000
0!
#599000
1!
b1100000011001 $
#599500
b10 "
b111000101101 $
#600000
0!
#601000
1!
b10000101010 $
#601500
b1011 "
b110100011000 $
#602000
0!
#603000
1!
b1011000010101 $
#603500
b1 "
b110000101001 $
#604000
0!
#605000
1!
b1000100110 $
#605500
b1010 "
b101100010100 $
#606000
0!
#607000
1!
b1010000010001 $
#607500
b0 "
b101000100101 $
#608000
0!
#609000
1!
b100010 $
#609500
b1001 "
b100100010000 $
#610000
0!
#611000
1!
b1001000001101 $
#611500
b10010 "
b1101011111011 $
#612000
0!
#613000
1!
b10001111100101 $
#613500
b1000 "
b1100111111001 $
#614000
0!
#615000
1!
b1000001000010 $
#615500
b10001 "
b1100100110000 $
#616000
0!
#617000
1!
b10001000101101 $
#617500
b111 "
b1100001000001 $
#618000
0!
#619000
1!
b111000111110 $
#619500
b10000 "
b1011100101100 $
#620000
0!
#621000
1!
b10000000101001 $
#621500
b110 "
b1011000111101 $
#622000
0!
#623000
1!
b110000111010 $
#623500
b1111 "
b1010100101000 $
#624000
0!
#625000
1!
b1111000100101 $
#625500
b101 "
b1010000111001 $
#626000
0!
#627000
1!
b101000110110 $
#627500
b1110 "
b1001100100100 $
#628000
0!
#629000
1!
b1110000100001 $
#629500
b100 "
b1001000110101 $
#630000
0!
#631000
1!
b100000110010 $
#631500
b1101 "
b1000100100000 $
#632000
0!
#633000
1!
b1101000011101 $
#633500
b11 "
b1000000110001 $
#634000
0!
#635000
1!
b11000101110 $
#635500
b1100 "
b111100011100 $
#636000
0!
#637000
1!
b1100000011001 $
#637500
b10 "
b111000101101 $
#638000
0!
#639000
1!
b10000101010 $
#639500
b1011 "
b110100011000 $
#640000
0!
#641000
1!
b1011000010101 $
#641500
b1 "
b110000101001 $
#642000
0!
#643000
1!
b1000100110 $
#643500
b1010 "
b101100010100 $
#644000
0!
#645000
1!
b1010000010001 $
#645500
b0 "
b101000100101 $
#646000
0!
#647000
1!
b100010 $
#647500
b1001 "
b100100010000 $
#648000
0!
#649000
1!
b1001000001101 $
#649500
b10010 "
b1101011111011 $
#650000
0!
#651000
1!
b10001111100101 $
#651500
b1000 "
b1100111111001 $
#652000
0!
#653000
1!
b1000001000010 $
#653500
b10001 "
b1100100110000 $
#654000
0!
#655000
1!
b10001000101101 $
#655500
b111 "
b1100001000001 $
#656000
0!
#657000
1!
b111000111110 $
#657500
b10000 "
b1011100101100 $
#658000
0!
#659000
1!
b10000000101001 $
#659500
b110 "
b1011000111101 $
#660000
0!
#661000
1!
b110000111010 $
#661500
b1111 "
b1010100101000 $
#662000
0!
#663000
1!
b1111000100101 $
#663500
b101 "
b1010000111001 $
#664000
0!
#665000
1!
b101000110110 $
#665500
b1110 "
b1001100100100 $
#666000
0!
#667000
1!
b1110000100001 $
#667500
b100 "
b1001000110101 $
#668000
0!
#669000
1!
b100000110010 $
#669500
b1101 "
b1000100100000 $
#670000
0!
#671000
1!
b1101000011101 $
#671500
b11 "
b1000000110001 $
#672000
0!
#673000
1!
b11000101110 $
#673500
b1100 "
b111100011100 $
#674000
0!
#675000
1!
b1100000011001 $
#675500
b10 "
b111000101101 $
#676000
0!
#677000
1!
b10000101010 $
#677500
b1011 "
b110100011000 $
#678000
0!
#679000
1!
b1011000010101 $
#679500
b1 "
b110000101001 $
#680000
0!
#681000
1!
b1000100110 $
#681500
b1010 "
b101100010100 $
#682000
0!
#683000
1!
b1010000010001 $
#683500
b0 "
b101000100101 $
#684000
0!
#685000
1!
b100010 $
#685500
b1001 "
b100100010000 $
#686000
0!
#687000
1!
b1001000001101 $
#687500
b10010 "
b1101011111011 $
#688000
0!
#689000
1!
b10001111100101 $
#689500
b1000 "
b1100111111001 $
#690000
0!
#691000
1!
b1000001000010 $
#691500
b10001 "
b1100100110000 $
#692000
0!
#693000
1!
b10001000101101 $
#693500
b111 "
b1100001000001 $
#694000
0!
#695000
1!
b111000111110 $
#695500
b10000 "
b1011100101100 $
#696000
0!
#697000
1!
b10000000101001 $
#697500
b110 "
b1011000111101 $
#698000
0!
#699000
1!
b110000111010 $
#699500
b1111 "
b1010100101000 $
#700000
0!
#701000
1!
b1111000100101 $
#701500
b101 "
b1010000111001 $
#702000
0!
#703000
1!
b101000110110 $
#703500
b1110 "
b1001100100100 $
#704000
0!
#705000
1!
b1110000100001 $
#705500
b100 "
b1001000110101 $
#706000
0!
#707000
1!
b100000110010 $
#707500
b1101 "
b1000100100000 $
#708000
0!
#709000
1!
b1101000011101 $
#709500
b11 "
b1000000110001 $
#710000
0!
#711000
1!
b11000101110 $
#711500
b1100 "
b111100011100 $
#712000
0!
#713000
1!
b1100000011001 $
#713500
b10 "
b111000101101 $
#714000
0!
#715000
1!
b10000101010 $
#715500
b1011 "
b110100011000 $
#716000
0!
#717000
1!
b1011000010101 $
#717500
b1 "
b110000101001 $
#718000
0!
#719000
1!
b1000100110 $
#719500
b1010 "
b101100010100 $
#720000
0!
#721000
1!
b1010000010001 $
#721500
b0 "
b101000100101 $
#722000
0!
#723000
1!
b100010 $
#723500
b1001 "
b100100010000 $
#724000
0!
#725000
1!
b1001000001101 $
#725500
b10010 "
b1101011111011 $
#726000
0!
