vivado-vcd/fir.vcd
$date
   Sat Aug 22 12:49:16 2020
$end
$version
  2020.1
$end
$timescale
  1ps
$end
$scope module fir_tb $end
$var reg 1 ! CLK $end
$var reg 8 " X [7:0] $end
$var reg 32 # W [3:0] $end
$var reg 16 $ Y [15:0] $end
$var parameter 0 % T $end
$var parameter 0 & NI $end
$var parameter 0 ' NO $end
$upscope $end
$enddefinitions $end
#0
$dumpvars
x!
b0 "
b100000000111111111111111110 #
bx $
b100 %
b1000 &
b10000 '
$end
#1000
1!
#2000
0!
b1001 "
#3000
1!
#4000
0!
b10010 "
#5000
1!
b10001111100101 $
#6000
0!
b1000 "
b1100111111001 $
#7000
1!
b1000001000010 $
#8000
0!
b10001 "
b1100100110000 $
#9000
1!
b10001000101101 $
#10000
0!
b111 "
b1100001000001 $
#11000
1!
b111000111110 $
#12000
0!
b10000 "
b1011100101100 $
#13000
1!
b10000000101001 $
#14000
0!
b110 "
b1011000111101 $
#15000
1!
b110000111010 $
#16000
0!
b1111 "
b1010100101000 $
#17000
1!
b1111000100101 $
#18000
0!
b101 "
b1010000111001 $
#19000
1!
b101000110110 $
#20000
0!
b1110 "
b1001100100100 $
#21000
1!
b1110000100001 $
#22000
0!
b100 "
b1001000110101 $
#23000
1!
b100000110010 $
#24000
0!
b1101 "
b1000100100000 $
#25000
1!
b1101000011101 $
#26000
0!
b11 "
b1000000110001 $
#27000
1!
b11000101110 $
#28000
0!
b1100 "
b111100011100 $
#29000
1!
b1100000011001 $
#30000
0!
b10 "
b111000101101 $
#31000
1!
b10000101010 $
#32000
0!
b1011 "
b110100011000 $
#33000
1!
b1011000010101 $
#34000
0!
b1 "
b110000101001 $
#35000
1!
b1000100110 $
#36000
0!
b1010 "
b101100010100 $
#37000
1!
b1010000010001 $
#38000
0!
b0 "
b101000100101 $
#39000
1!
b100010 $
#40000
0!
b1001 "
b100100010000 $
#41000
1!
b1001000001101 $
#42000
0!
b10010 "
b1101011111011 $
#43000
1!
b10001111100101 $
#44000
0!
b1000 "
b1100111111001 $
#45000
1!
b1000001000010 $
#46000
0!
b10001 "
b1100100110000 $
#47000
1!
b10001000101101 $
#48000
0!
b111 "
b1100001000001 $
#49000
1!
b111000111110 $
#50000
0!
b10000 "
b1011100101100 $
#51000
1!
b10000000101001 $
#52000
0!
b110 "
b1011000111101 $
#53000
1!
b110000111010 $
#54000
0!
b1111 "
b1010100101000 $
#55000
1!
b1111000100101 $
#56000
0!
b101 "
b1010000111001 $
#57000
1!
b101000110110 $
#58000
0!
b1110 "
b1001100100100 $
#59000
1!
b1110000100001 $
#60000
0!
b100 "
b1001000110101 $
#61000
1!
b100000110010 $
#62000
0!
b1101 "
b1000100100000 $
#63000
1!
b1101000011101 $
#64000
0!
b11 "
b1000000110001 $
#65000
1!
b11000101110 $
#66000
0!
b1100 "
b111100011100 $
#67000
1!
b1100000011001 $
#68000
0!
b10 "
b111000101101 $
#69000
1!
b10000101010 $
#70000
0!
b1011 "
b110100011000 $
#71000
1!
b1011000010101 $
#72000
0!
b1 "
b110000101001 $
#73000
1!
b1000100110 $
#74000
0!
b1010 "
b101100010100 $
#75000
1!
b1010000010001 $
#76000
0!
b0 "
b101000100101 $
#77000
1!
b100010 $
#78000
0!
b1001 "
b100100010000 $
#79000
1!
b1001000001101 $
#80000
0!
b10010 "
b1101011111011 $
#81000
1!
b10001111100101 $
#82000
0!
b1000 "
b1100111111001 $
#83000
1!
b1000001000010 $
#84000
0!
b10001 "
b1100100110000 $
#85000
1!
b10001000101101 $
#86000
0!
b111 "
b1100001000001 $
#87000
1!
b111000111110 $
#88000
0!
b10000 "
b1011100101100 $
#89000
1!
b10000000101001 $
#90000
0!
b110 "
b1011000111101 $
#91000
1!
b110000111010 $
#92000
0!
b1111 "
b1010100101000 $
#93000
1!
b1111000100101 $
#94000
0!
b101 "
b1010000111001 $
#95000
1!
b101000110110 $
#96000
0!
b1110 "
b1001100100100 $
#97000
1!
b1110000100001 $
#98000
0!
b100 "
b1001000110101 $
#99000
1!
b100000110010 $
#100000
0!
b1101 "
b1000100100000 $
#101000
1!
b1101000011101 $
#102000
0!
b11 "
b1000000110001 $
#103000
1!
b11000101110 $
#104000
0!
b1100 "
b111100011100 $
#105000
1!
b1100000011001 $
#106000
0!
b10 "
b111000101101 $
#107000
1!
b10000101010 $
#108000
0!
b1011 "
b110100011000 $
#109000
1!
b1011000010101 $
#110000
0!
b1 "
b110000101001 $
#111000
1!
b1000100110 $
#112000
0!
b1010 "
b101100010100 $
#113000
1!
b1010000010001 $
#114000
0!
b0 "
b101000100101 $
#115000
1!
b100010 $
#116000
0!
b1001 "
b100100010000 $
#117000
1!
b1001000001101 $
#118000
0!
b10010 "
b1101011111011 $
#119000
1!
b10001111100101 $
#120000
0!
b1000 "
b1100111111001 $
#121000
1!
b1000001000010 $
#122000
0!
b10001 "
b1100100110000 $
#123000
1!
b10001000101101 $
#124000
0!
b111 "
b1100001000001 $
#125000
1!
b111000111110 $
#126000
0!
b10000 "
b1011100101100 $
#127000
1!
b10000000101001 $
#128000
0!
b110 "
b1011000111101 $
#129000
1!
b110000111010 $
#130000
0!
b1111 "
b1010100101000 $
#131000
1!
b1111000100101 $
#132000
0!
b101 "
b1010000111001 $
#133000
1!
b101000110110 $
#134000
0!
b1110 "
b1001100100100 $
#135000
1!
b1110000100001 $
#136000
0!
b100 "
b1001000110101 $
#137000
1!
b100000110010 $
#138000
0!
b1101 "
b1000100100000 $
#139000
1!
b1101000011101 $
#140000
0!
b11 "
b1000000110001 $
#141000
1!
b11000101110 $
#142000
0!
b1100 "
b111100011100 $
#143000
1!
b1100000011001 $
#144000
0!
b10 "
b111000101101 $
#145000
1!
b10000101010 $
#146000
0!
b1011 "
b110100011000 $
#147000
1!
b1011000010101 $
#148000
0!
b1 "
b110000101001 $
#149000
1!
b1000100110 $
#150000
0!
b1010 "
b101100010100 $
#151000
1!
b1010000010001 $
#152000
0!
b0 "
b101000100101 $
#153000
1!
b100010 $
#154000
0!
b1001 "
b100100010000 $
#155000
1!
b1001000001101 $
#156000
0!
b10010 "
b1101011111011 $
#157000
1!
b10001111100101 $
#158000
0!
b1000 "
b1100111111001 $
#159000
1!
b1000001000010 $
#160000
0!
b10001 "
b1100100110000 $
#161000
1!
b10001000101101 $
#162000
0!
b111 "
b1100001000001 $
#163000
1!
b111000111110 $
#164000
0!
b10000 "
b1011100101100 $
#165000
1!
b10000000101001 $
#166000
0!
b110 "
b1011000111101 $
#167000
1!
b110000111010 $
#168000
0!
b1111 "
b1010100101000 $
#169000
1!
b1111000100101 $
#170000
0!
b101 "
b1010000111001 $
#171000
1!
b101000110110 $
#172000
0!
b1110 "
b1001100100100 $
#173000
1!
b1110000100001 $
#174000
0!
b100 "
b1001000110101 $
#175000
1!
b100000110010 $
#176000
0!
b1101 "
b1000100100000 $
#177000
1!
b1101000011101 $
#178000
0!
b11 "
b1000000110001 $
#179000
1!
b11000101110 $
#180000
0!
b1100 "
b111100011100 $
#181000
1!
b1100000011001 $
#182000
0!
b10 "
b111000101101 $
#183000
1!
b10000101010 $
#184000
0!
b1011 "
b110100011000 $
#185000
1!
b1011000010101 $
#186000
0!
b1 "
b110000101001 $
#187000
1!
b1000100110 $
#188000
0!
b1010 "
b101100010100 $
#189000
1!
b1010000010001 $
#190000
0!
b0 "
b101000100101 $
#191000
1!
b100010 $
#192000
0!
b1001 "
b100100010000 $
#193000
1!
b1001000001101 $
#194000
0!
b10010 "
b1101011111011 $
#195000
1!
b10001111100101 $
#196000
0!
b1000 "
b1100111111001 $
#197000
1!
b1000001000010 $
#198000
0!
b10001 "
b1100100110000 $
#199000
1!
b10001000101101 $
#200000
0!
b111 "
b1100001000001 $
#201000
1!
b111000111110 $
#202000
0!
b10000 "
b1011100101100 $
#203000
1!
b10000000101001 $
#204000
0!
b110 "
b1011000111101 $
#205000
1!
b110000111010 $
#206000
0!
b1111 "
b1010100101000 $
#207000
1!
b1111000100101 $
#208000
0!
b101 "
b1010000111001 $
#209000
1!
b101000110110 $
#210000
0!
b1110 "
b1001100100100 $
#211000
1!
b1110000100001 $
#212000
0!
b100 "
b1001000110101 $
#213000
1!
b100000110010 $
#214000
0!
b1101 "
b1000100100000 $
#215000
1!
b1101000011101 $
#216000
0!
b11 "
b1000000110001 $
#217000
1!
b11000101110 $
#218000
0!
b1100 "
b111100011100 $
#219000
1!
b1100000011001 $
#220000
0!
b10 "
b111000101101 $
#221000
1!
b10000101010 $
#222000
0!
b1011 "
b110100011000 $
#223000
1!
b1011000010101 $
#224000
0!
b1 "
b110000101001 $
#225000
1!
b1000100110 $
#226000
0!
b1010 "
b101100010100 $
#227000
1!
b1010000010001 $
#228000
0!
b0 "
b101000100101 $
#229000
1!
b100010 $
#230000
0!
b1001 "
b100100010000 $
#231000
1!
b1001000001101 $
#232000
0!
b10010 "
b1101011111011 $
#233000
1!
b10001111100101 $
#234000
0!
b1000 "
b1100111111001 $
#235000
1!
b1000001000010 $
#236000
0!
b10001 "
b1100100110000 $
#237000
1!
b10001000101101 $
#238000
0!
b111 "
b1100001000001 $
#239000
1!
b111000111110 $
#240000
0!
b10000 "
b1011100101100 $
#241000
1!
b10000000101001 $
#242000
0!
b110 "
b1011000111101 $
#243000
1!
b110000111010 $
#244000
0!
b1111 "
b1010100101000 $
#245000
1!
b1111000100101 $
#246000
0!
b101 "
b1010000111001 $
#247000
1!
b101000110110 $
#248000
0!
b1110 "
b1001100100100 $
#249000
1!
b1110000100001 $
#250000
0!
b100 "
b1001000110101 $
#251000
1!
b100000110010 $
#252000
0!
b1101 "
b1000100100000 $
#253000
1!
b1101000011101 $
#254000
0!
b11 "
b1000000110001 $
#255000
1!
b11000101110 $
#256000
0!
b1100 "
b111100011100 $
#257000
1!
b1100000011001 $
#258000
0!
b10 "
b111000101101 $
#259000
1!
b10000101010 $
#260000
0!
b1011 "
b110100011000 $
#261000
1!
b1011000010101 $
#262000
0!
b1 "
b110000101001 $
#263000
1!
b1000100110 $
#264000
0!
b1010 "
b101100010100 $
#265000
1!
b1010000010001 $
#266000
0!
b0 "
b101000100101 $
#267000
1!
b100010 $
#268000
0!
b1001 "
b100100010000 $
#269000
1!
b1001000001101 $
#270000
0!
b10010 "
b1101011111011 $
#271000
1!
b10001111100101 $
#272000
0!
b1000 "
b1100111111001 $
#273000
1!
b1000001000010 $
#274000
0!
b10001 "
b1100100110000 $
#275000
1!
b10001000101101 $
#276000
0!
b111 "
b1100001000001 $
#277000
1!
b111000111110 $
#278000
0!
b10000 "
b1011100101100 $
#279000
1!
b10000000101001 $
#280000
0!
b110 "
b1011000111101 $
#281000
1!
b110000111010 $
#282000
0!
b1111 "
b1010100101000 $
#283000
1!
b1111000100101 $
#284000
0!
b101 "
b1010000111001 $
#285000
1!
b101000110110 $
#286000
0!
b1110 "
b1001100100100 $
#287000
1!
b1110000100001 $
#288000
0!
b100 "
b1001000110101 $
#289000
1!
b100000110010 $
#290000
0!
b1101 "
b1000100100000 $
#291000
1!
b1101000011101 $
#292000
0!
b11 "
b1000000110001 $
#293000
1!
b11000101110 $
#294000
0!
b1100 "
b111100011100 $
#295000
1!
b1100000011001 $
#296000
0!
b10 "
b111000101101 $
#297000
1!
b10000101010 $
#298000
0!
b1011 "
b110100011000 $
#299000
1!
b1011000010101 $
#300000
0!
b1 "
b110000101001 $
#301000
1!
b1000100110 $
#302000
0!
b1010 "
b101100010100 $
#303000
1!
b1010000010001 $
#304000
0!
b0 "
b101000100101 $
#305000
1!
b100010 $
#306000
0!
b1001 "
b100100010000 $
#307000
1!
b1001000001101 $
#308000
0!
b10010 "
b1101011111011 $
#309000
1!
b10001111100101 $
#310000
0!
b1000 "
b1100111111001 $
#311000
1!
b1000001000010 $
#312000
0!
b10001 "
b1100100110000 $
#313000
1!
b10001000101101 $
#314000
0!
b111 "
b1100001000001 $
#315000
1!
b111000111110 $
#316000
0!
b10000 "
b1011100101100 $
#317000
1!
b10000000101001 $
#318000
0!
b110 "
b1011000111101 $
#319000
1!
b110000111010 $
#320000
0!
b1111 "
b1010100101000 $
#321000
1!
b1111000100101 $
#322000
0!
b101 "
b1010000111001 $
#323000
1!
b101000110110 $
#324000
0!
b1110 "
b1001100100100 $
#325000
1!
b1110000100001 $
#326000
0!
b100 "
b1001000110101 $
#327000
1!
b100000110010 $
#328000
0!
b1101 "
b1000100100000 $
#329000
1!
b1101000011101 $
#330000
0!
b11 "
b1000000110001 $
#331000
1!
b11000101110 $
#332000
0!
b1100 "
b111100011100 $
#333000
1!
b1100000011001 $
#334000
0!
b10 "
b111000101101 $
#335000
1!
b10000101010 $
#336000
0!
b1011 "
b110100011000 $
#337000
1!
b1011000010101 $
#338000
0!
b1 "
b110000101001 $
#339000
1!
b1000100110 $
#340000
0!
b1010 "
b101100010100 $
#341000
1!
b1010000010001 $
#342000
0!
b0 "
b101000100101 $
#343000
1!
b100010 $
#344000
0!
b1001 "
b100100010000 $
#345000
1!
b1001000001101 $
#346000
0!
b10010 "
b1101011111011 $
#347000
1!
b10001111100101 $
#348000
0!
b1000 "
b1100111111001 $
#349000
1!
b1000001000010 $
#350000
0!
b10001 "
b1100100110000 $
#351000
1!
b10001000101101 $
#352000
0!
b111 "
b1100001000001 $
#353000
1!
b111000111110 $
#354000
0!
b10000 "
b1011100101100 $
#355000
1!
b10000000101001 $
#356000
0!
b110 "
b1011000111101 $
#357000
1!
b110000111010 $
#358000
0!
b1111 "
b1010100101000 $
#359000
1!
b1111000100101 $
#360000
0!
b101 "
b1010000111001 $
#361000
1!
b101000110110 $
#362000
0!
b1110 "
b1001100100100 $
#363000
1!
b1110000100001 $
#364000
0!
b100 "
b1001000110101 $
#365000
1!
b100000110010 $
#366000
0!
b1101 "
b1000100100000 $
#367000
1!
b1101000011101 $
#368000
0!
b11 "
b1000000110001 $
#369000
1!
b11000101110 $
#370000
0!
b1100 "
b111100011100 $
#371000
1!
b1100000011001 $
#372000
0!
b10 "
b111000101101 $
#373000
1!
b10000101010 $
#374000
0!
b1011 "
b110100011000 $
#375000
1!
b1011000010101 $
#376000
0!
b1 "
b110000101001 $
#377000
1!
b1000100110 $
#378000
0!
b1010 "
b101100010100 $
#379000
1!
b1010000010001 $
#380000
0!
b0 "
b101000100101 $
#381000
1!
b100010 $
#382000
0!
b1001 "
b100100010000 $
#383000
1!
b1001000001101 $
#384000
0!
b10010 "
b1101011111011 $
#385000
1!
b10001111100101 $
#386000
0!
b1000 "
b1100111111001 $
#387000
1!
b1000001000010 $
#388000
0!
b10001 "
b1100100110000 $
#389000
1!
b10001000101101 $
#390000
0!
b111 "
b1100001000001 $
#391000
1!
b111000111110 $
#392000
0!
b10000 "
b1011100101100 $
#393000
1!
b10000000101001 $
#394000
0!
b110 "
b1011000111101 $
#395000
1!
b110000111010 $
#396000
0!
b1111 "
b1010100101000 $
#397000
1!
b1111000100101 $
#398000
0!
b101 "
b1010000111001 $
#399000
1!
b101000110110 $
#400000
0!
b1110 "
b1001100100100 $
#401000
1!
b1110000100001 $
#402000
0!
b100 "
b1001000110101 $
#403000
1!
b100000110010 $
#404000
0!
b1101 "
b1000100100000 $
#405000
1!
b1101000011101 $
#406000
0!
b11 "
b1000000110001 $
#407000
1!
b11000101110 $
#408000
0!
b1100 "
b111100011100 $
#409000
1!
b1100000011001 $
#410000
0!
b10 "
b111000101101 $
#411000
1!
b10000101010 $
#412000
0!
b1011 "
b110100011000 $
#413000
1!
b1011000010101 $
#414000
0!
b1 "
b110000101001 $
#415000
1!
b1000100110 $
#416000
0!
b1010 "
b101100010100 $
#417000
1!
b1010000010001 $
#418000
0!
b0 "
b101000100101 $
#419000
1!
b100010 $
#420000
0!
b1001 "
b100100010000 $
#421000
1!
b1001000001101 $
#422000
0!
b10010 "
b1101011111011 $
#423000
1!
b10001111100101 $
#424000
0!
b1000 "
b1100111111001 $
#425000
1!
b1000001000010 $
#426000
0!
b10001 "
b1100100110000 $
#427000
1!
b10001000101101 $
#428000
0!
b111 "
b1100001000001 $
#429000
1!
b111000111110 $
#430000
0!
b10000 "
b1011100101100 $
#431000
1!
b10000000101001 $
#432000
0!
b110 "
b1011000111101 $
#433000
1!
b110000111010 $
#434000
0!
b1111 "
b1010100101000 $
#435000
1!
b1111000100101 $
#436000
0!
b101 "
b1010000111001 $
#437000
1!
b101000110110 $
#438000
0!
b1110 "
b1001100100100 $
#439000
1!
b1110000100001 $
#440000
0!
b100 "
b1001000110101 $
#441000
1!
b100000110010 $
#442000
0!
b1101 "
b1000100100000 $
#443000
1!
b1101000011101 $
#444000
0!
b11 "
b1000000110001 $
#445000
1!
b11000101110 $
#446000
0!
b1100 "
b111100011100 $
#447000
1!
b1100000011001 $
#448000
0!
b10 "
b111000101101 $
#449000
1!
b10000101010 $
#450000
0!
b1011 "
b110100011000 $
#451000
1!
b1011000010101 $
#452000
0!
b1 "
b110000101001 $
#453000
1!
b1000100110 $
#454000
0!
b1010 "
b101100010100 $
#455000
1!
b1010000010001 $
#456000
0!
b0 "
b101000100101 $
#457000
1!
b100010 $
#458000
0!
b1001 "
b100100010000 $
#459000
1!
b1001000001101 $
#460000
0!
b10010 "
b1101011111011 $
#461000
1!
b10001111100101 $
#462000
0!
b1000 "
b1100111111001 $
#463000
1!
b1000001000010 $
#464000
0!
b10001 "
b1100100110000 $
#465000
1!
b10001000101101 $
#466000
0!
b111 "
b1100001000001 $
#467000
1!
b111000111110 $
#468000
0!
b10000 "
b1011100101100 $
#469000
1!
b10000000101001 $
#470000
0!
b110 "
b1011000111101 $
#471000
1!
b110000111010 $
#472000
0!
b1111 "
b1010100101000 $
#473000
1!
b1111000100101 $
#474000
0!
b101 "
b1010000111001 $
#475000
1!
b101000110110 $
#476000
0!
b1110 "
b1001100100100 $
#477000
1!
b1110000100001 $
#478000
0!
b100 "
b1001000110101 $
#479000
1!
b100000110010 $
#480000
0!
b1101 "
b1000100100000 $
#481000
1!
b1101000011101 $
#482000
0!
b11 "
b1000000110001 $
#483000
1!
b11000101110 $
#484000
0!
b1100 "
b111100011100 $
#485000
1!
b1100000011001 $
#486000
0!
b10 "
b111000101101 $
#487000
1!
b10000101010 $
#488000
0!
b1011 "
b110100011000 $
#489000
1!
b1011000010101 $
#490000
0!
b1 "
b110000101001 $
#491000
1!
b1000100110 $
#492000
0!
b1010 "
b101100010100 $
#493000
1!
b1010000010001 $
#494000
0!
b0 "
b101000100101 $
#495000
1!
b100010 $
#496000
0!
b1001 "
b100100010000 $
#497000
1!
b1001000001101 $
#498000
0!
b10010 "
b1101011111011 $
#499000
1!
b10001111100101 $
#500000
0!
b1000 "
b1100111111001 $
#501000
1!
b1000001000010 $
#502000
0!
b10001 "
b1100100110000 $
#503000
1!
b10001000101101 $
#504000
0!
b111 "
b1100001000001 $
#505000
1!
b111000111110 $
#506000
0!
b10000 "
b1011100101100 $
#507000
1!
b10000000101001 $
#508000
0!
b110 "
b1011000111101 $
#509000
1!
b110000111010 $
#510000
0!
b1111 "
b1010100101000 $
#511000
1!
b1111000100101 $
#512000
0!
b101 "
b1010000111001 $
#513000
1!
b101000110110 $
#514000
0!
b1110 "
b1001100100100 $
#515000
1!
b1110000100001 $
#516000
0!
b100 "
b1001000110101 $
#517000
1!
b100000110010 $
#518000
0!
b1101 "
b1000100100000 $
#519000
1!
b1101000011101 $
#520000
0!
b11 "
b1000000110001 $
#521000
1!
b11000101110 $
#522000
0!
b1100 "
b111100011100 $
#523000
1!
b1100000011001 $
#524000
0!
b10 "
b111000101101 $
#525000
1!
b10000101010 $
#526000
0!
b1011 "
b110100011000 $
#527000
1!
b1011000010101 $
#528000
0!
b1 "
b110000101001 $
#529000
1!
b1000100110 $
#530000
0!
b1010 "
b101100010100 $
#531000
1!
b1010000010001 $
#532000
0!
b0 "
b101000100101 $
#533000
1!
b100010 $
#534000
0!
b1001 "
b100100010000 $
#535000
1!
b1001000001101 $
#536000
0!
b10010 "
b1101011111011 $
#537000
1!
b10001111100101 $
#538000
0!
b1000 "
b1100111111001 $
#539000
1!
b1000001000010 $
#540000
0!
b10001 "
b1100100110000 $
#541000
1!
b10001000101101 $
#542000
0!
b111 "
b1100001000001 $
#543000
1!
b111000111110 $
#544000
0!
b10000 "
b1011100101100 $
#545000
1!
b10000000101001 $
#546000
0!
b110 "
b1011000111101 $
#547000
1!
b110000111010 $
#548000
0!
b1111 "
b1010100101000 $
#549000
1!
b1111000100101 $
#550000
0!
b101 "
b1010000111001 $
#551000
1!
b101000110110 $
#552000
0!
b1110 "
b1001100100100 $
#553000
1!
b1110000100001 $
#554000
0!
b100 "
b1001000110101 $
#555000
1!
b100000110010 $
#556000
0!
b1101 "
b1000100100000 $
#557000
1!
b1101000011101 $
#558000
0!
b11 "
b1000000110001 $
#559000
1!
b11000101110 $
#560000
0!
b1100 "
b111100011100 $
#561000
1!
b1100000011001 $
#562000
0!
b10 "
b111000101101 $
#563000
1!
b10000101010 $
#564000
0!
b1011 "
b110100011000 $
#565000
1!
b1011000010101 $
#566000
0!
b1 "
b110000101001 $
#567000
1!
b1000100110 $
#568000
0!
b1010 "
b101100010100 $
#569000
1!
b1010000010001 $
#570000
0!
b0 "
b101000100101 $
#571000
1!
b100010 $
#572000
0!
b1001 "
b100100010000 $
#573000
1!
b1001000001101 $
#574000
0!
b10010 "
b1101011111011 $
#575000
1!
b10001111100101 $
#576000
0!
b1000 "
b1100111111001 $
#577000
1!
b1000001000010 $
#578000
0!
b10001 "
b1100100110000 $
#579000
1!
b10001000101101 $
#580000
0!
b111 "
b1100001000001 $
#581000
1!
b111000111110 $
#582000
0!
b10000 "
b1011100101100 $
#583000
1!
b10000000101001 $
#584000
0!
b110 "
b1011000111101 $
#585000
1!
b110000111010 $
#586000
0!
b1111 "
b1010100101000 $
#587000
1!
b1111000100101 $
#588000
0!
b101 "
b1010000111001 $
#589000
1!
b101000110110 $
#590000
0!
b1110 "
b1001100100100 $
#591000
1!
b1110000100001 $
#592000
0!
b100 "
b1001000110101 $
#593000
1!
b100000110010 $
#594000
0!
b1101 "
b1000100100000 $
#595000
1!
b1101000011101 $
#596000
0!
b11 "
b1000000110001 $
#597000
1!
b11000101110 $
#598000
0!
b1100 "
b111100011100 $
#599000
1!
b1100000011001 $
#600000
0!
b10 "
b111000101101 $
#601000
1!
b10000101010 $
#602000
0!
b1011 "
b110100011000 $
#603000
1!
b1011000010101 $
#604000
0!
b1 "
b110000101001 $
#605000
1!
b1000100110 $
#606000
0!
b1010 "
b101100010100 $
#607000
1!
b1010000010001 $
#608000
0!
b0 "
b101000100101 $
#609000
1!
b100010 $
#610000
0!
b1001 "
b100100010000 $
#611000
1!
b1001000001101 $
#612000
0!
b10010 "
b1101011111011 $
#613000
1!
b10001111100101 $
#614000
0!
b1000 "
b1100111111001 $
#615000
1!
b1000001000010 $
#616000
0!
b10001 "
b1100100110000 $
#617000
1!
b10001000101101 $
#618000
0!
b111 "
b1100001000001 $
#619000
1!
b111000111110 $
#620000
0!
b10000 "
b1011100101100 $
#621000
1!
b10000000101001 $
#622000
0!
b110 "
b1011000111101 $
#623000
1!
b110000111010 $
#624000
0!
b1111 "
b1010100101000 $
#625000
1!
b1111000100101 $
#626000
0!
b101 "
b1010000111001 $
#627000
1!
b101000110110 $
#628000
0!
b1110 "
b1001100100100 $
#629000
1!
b1110000100001 $
#630000
0!
b100 "
b1001000110101 $
#631000
1!
b100000110010 $
#632000
0!
b1101 "
b1000100100000 $
#633000
1!
b1101000011101 $
#634000
0!
b11 "
b1000000110001 $
#635000
1!
b11000101110 $
#636000
0!
b1100 "
b111100011100 $
#637000
1!
b1100000011001 $
#638000
0!
b10 "
b111000101101 $
#639000
1!
b10000101010 $
#640000
0!
b1011 "
b110100011000 $
#641000
1!
b1011000010101 $
#642000
0!
b1 "
b110000101001 $
#643000
1!
b1000100110 $
#644000
0!
b1010 "
b101100010100 $
#645000
1!
b1010000010001 $
#646000
0!
b0 "
b101000100101 $
#647000
1!
b100010 $
#648000
0!
b1001 "
b100100010000 $
#649000
1!
b1001000001101 $
#650000
0!
b10010 "
b1101011111011 $
#651000
1!
b10001111100101 $
#652000
0!
b1000 "
b1100111111001 $
#653000
1!
b1000001000010 $
#654000
0!
b10001 "
b1100100110000 $
#655000
1!
b10001000101101 $
#656000
0!
b111 "
b1100001000001 $
#657000
1!
b111000111110 $
#658000
0!
b10000 "
b1011100101100 $
#659000
1!
b10000000101001 $
#660000
0!
b110 "
b1011000111101 $
#661000
1!
b110000111010 $
#662000
0!
b1111 "
b1010100101000 $
#663000
1!
b1111000100101 $
#664000
0!
b101 "
b1010000111001 $
#665000
1!
b101000110110 $
#666000
0!
b1110 "
b1001100100100 $
#667000
1!
b1110000100001 $
#668000
0!
b100 "
b1001000110101 $
#669000
1!
b100000110010 $
#670000
0!
b1101 "
b1000100100000 $
#671000
1!
b1101000011101 $
#672000
0!
b11 "
b1000000110001 $
#673000
1!
b11000101110 $
#674000
0!
b1100 "
b111100011100 $
#675000
1!
b1100000011001 $
#676000
0!
b10 "
b111000101101 $
#677000
1!
b10000101010 $
#678000
0!
b1011 "
b110100011000 $
#679000
1!
b1011000010101 $
#680000
0!
b1 "
b110000101001 $
#681000
1!
b1000100110 $
#682000
0!
b1010 "
b101100010100 $
#683000
1!
b1010000010001 $
#684000
0!
b0 "
b101000100101 $
#685000
1!
b100010 $
#686000
0!
b1001 "
b100100010000 $
#687000
1!
b1001000001101 $
#688000
0!
b10010 "
b1101011111011 $
#689000
1!
b10001111100101 $
#690000
0!
b1000 "
b1100111111001 $
#691000
1!
b1000001000010 $
#692000
0!
b10001 "
b1100100110000 $
#693000
1!
b10001000101101 $
#694000
0!
b111 "
b1100001000001 $
#695000
1!
b111000111110 $
#696000
0!
b10000 "
b1011100101100 $
#697000
1!
b10000000101001 $
#698000
0!
b110 "
b1011000111101 $
#699000
1!
b110000111010 $
#700000
0!
b1111 "
b1010100101000 $
#701000
1!
b1111000100101 $
#702000
0!
b101 "
b1010000111001 $
#703000
1!
b101000110110 $
#704000
0!
b1110 "
b1001100100100 $
#705000
1!
b1110000100001 $
#706000
0!
b100 "
b1001000110101 $
#707000
1!
b100000110010 $
#708000
0!
b1101 "
b1000100100000 $
#709000
1!
b1101000011101 $
#710000
0!
b11 "
b1000000110001 $
#711000
1!
b11000101110 $
#712000
0!
b1100 "
b111100011100 $
#713000
1!
b1100000011001 $
#714000
0!
b10 "
b111000101101 $
#715000
1!
b10000101010 $
#716000
0!
b1011 "
b110100011000 $
#717000
1!
b1011000010101 $
#718000
0!
b1 "
b110000101001 $
#719000
1!
b1000100110 $
#720000
0!
b1010 "
b101100010100 $
#721000
1!
b1010000010001 $
#722000
0!
b0 "
b101000100101 $
#723000
1!
b100010 $
#724000
0!
b1001 "
b100100010000 $
#725000
1!
b1001000001101 $
#726000
0!
b10010 "
b1101011111011 $
#727000
1!
b10001111100101 $
#728000
0!
b1000 "
b1100111111001 $
#729000
1!
b1000001000010 $
#730000
0!
b10001 "
b1100100110000 $
#731000
1!
b10001000101101 $
#732000
0!
b111 "
b1100001000001 $
#733000
1!
b111000111110 $
#734000
0!
b10000 "
b1011100101100 $
#735000
1!
b10000000101001 $
#736000
0!
b110 "
b1011000111101 $
#737000
1!
b110000111010 $
#738000
0!
b1111 "
b1010100101000 $
#739000
1!
b1111000100101 $
#740000
0!
b101 "
b1010000111001 $
#741000
1!
b101000110110 $
#742000
0!
b1110 "
b1001100100100 $
#743000
1!
b1110000100001 $
#744000
0!
b100 "
b1001000110101 $
#745000
1!
b100000110010 $
#746000
0!
b1101 "
b1000100100000 $
#747000
1!
b1101000011101 $
#748000
0!
b11 "
b1000000110001 $
#749000
1!
b11000101110 $
#750000
0!
b1100 "
b111100011100 $
#751000
1!
b1100000011001 $
#752000
0!
b10 "
b111000101101 $
#753000
1!
b10000101010 $
#754000
0!
b1011 "
b110100011000 $
#755000
1!
b1011000010101 $
#756000
0!
b1 "
b110000101001 $
#757000
1!
b1000100110 $
#758000
0!
b1010 "
b101100010100 $
#759000
1!
b1010000010001 $
#760000
0!
b0 "
b101000100101 $
#761000
1!
b100010 $
#762000
0!
b1001 "
b100100010000 $
#763000
1!
b1001000001101 $
#764000
0!
b10010 "
b1101011111011 $
#765000
1!
b10001111100101 $
#766000
0!
b1000 "
b1100111111001 $
#767000
1!
b1000001000010 $
#768000
0!
b10001 "
b1100100110000 $
#769000
1!
b10001000101101 $
#770000
0!
b111 "
b1100001000001 $
#771000
1!
b111000111110 $
#772000
0!
b10000 "
b1011100101100 $
#773000
1!
b10000000101001 $
#774000
0!
b110 "
b1011000111101 $
#775000
1!
b110000111010 $
#776000
0!
b1111 "
b1010100101000 $
#777000
1!
b1111000100101 $
#778000
0!
b101 "
b1010000111001 $
#779000
1!
b101000110110 $
#780000
0!
b1110 "
b1001100100100 $
#781000
1!
b1110000100001 $
#782000
0!
b100 "
b1001000110101 $
#783000
1!
b100000110010 $
#784000
0!
b1101 "
b1000100100000 $
#785000
1!
b1101000011101 $
#786000
0!
b11 "
b1000000110001 $
#787000
1!
b11000101110 $
#788000
0!
b1100 "
b111100011100 $
#789000
1!
b1100000011001 $
#790000
0!
b10 "
b111000101101 $
#791000
1!
b10000101010 $
#792000
0!
b1011 "
b110100011000 $
#793000
1!
b1011000010101 $
#794000
0!
b1 "
b110000101001 $
#795000
1!
b1000100110 $
#796000
0!
b1010 "
b101100010100 $
#797000
1!
b1010000010001 $
#798000
0!
b0 "
b101000100101 $
#799000
1!
b100010 $
#800000
0!
b1001 "
b100100010000 $
#801000
1!
b1001000001101 $
#802000
0!
b10010 "
b1101011111011 $
#803000
1!
b10001111100101 $
#804000
0!
b1000 "
b1100111111001 $
#805000
1!
b1000001000010 $
