vivado-vcd/graycode.vcd
$date
   Sat Aug 22 11:12:56 2020
$end
$version
  2020.1
$end
$timescale
  1ps
$end
$scope module graycode_tb $end
$var reg 20 ! a [19:0] $end
$var reg 20 " b [19:0] $end
$var reg 20 # c [19:0] $end
$var reg 20 $ bp [19:0] $end
$var parameter 0 % N $end
$upscope $end
$enddefinitions $end
#0
$dumpvars
b0 !
b0 "
b0 #
b0 $
b10100 %
$end
#1000
b1 !
b1 "
b1 #
#2000
b10 !
b11 "
b10 #
b1 $
#3000
b11 !
b10 "
b11 #
b11 $
#4000
b100 !
b110 "
b100 #
b10 $
#5000
b101 !
b111 "
b101 #
b110 $
#6000
b110 !
b101 "
b110 #
b111 $
#7000
b111 !
b100 "
b111 #
b101 $
#8000
b1000 !
b1100 "
b1000 #
b100 $
#9000
b1001 !
b1101 "
b1001 #
b1100 $
#10000
b1010 !
b1111 "
b1010 #
b1101 $
#11000
b1011 !
b1110 "
b1011 #
b1111 $
#12000
b1100 !
b1010 "
b1100 #
b1110 $
#13000
b1101 !
b1011 "
b1101 #
b1010 $
#14000
b1110 !
b1001 "
b1110 #
b1011 $
#15000
b1111 !
b1000 "
b1111 #
b1001 $
#16000
b10000 !
b11000 "
b10000 #
b1000 $
#17000
b10001 !
b11001 "
b10001 #
b11000 $
#18000
b10010 !
b11011 "
b10010 #
b11001 $
#19000
b10011 !
b11010 "
b10011 #
b11011 $
#20000
b10100 !
b11110 "
b10100 #
b11010 $
#21000
b10101 !
b11111 "
b10101 #
b11110 $
#22000
b10110 !
b11101 "
b10110 #
b11111 $
#23000
b10111 !
b11100 "
b10111 #
b11101 $
#24000
b11000 !
b10100 "
b11000 #
b11100 $
#25000
b11001 !
b10101 "
b11001 #
b10100 $
#26000
b11010 !
b10111 "
b11010 #
b10101 $
#27000
b11011 !
b10110 "
b11011 #
b10111 $
#28000
b11100 !
b10010 "
b11100 #
b10110 $
#29000
b11101 !
b10011 "
b11101 #
b10010 $
#30000
b11110 !
b10001 "
b11110 #
b10011 $
#31000
b11111 !
b10000 "
b11111 #
b10001 $
#32000
b100000 !
b110000 "
b100000 #
b10000 $
#33000
b100001 !
b110001 "
b100001 #
b110000 $
#34000
b100010 !
b110011 "
b100010 #
b110001 $
#35000
b100011 !
b110010 "
b100011 #
b110011 $
#36000
b100100 !
b110110 "
b100100 #
b110010 $
#37000
b100101 !
b110111 "
b100101 #
b110110 $
#38000
b100110 !
b110101 "
b100110 #
b110111 $
#39000
b100111 !
b110100 "
b100111 #
b110101 $
#40000
b101000 !
b111100 "
b101000 #
b110100 $
#41000
b101001 !
b111101 "
b101001 #
b111100 $
#42000
b101010 !
b111111 "
b101010 #
b111101 $
#43000
b101011 !
b111110 "
b101011 #
b111111 $
#44000
b101100 !
b111010 "
b101100 #
b111110 $
#45000
b101101 !
b111011 "
b101101 #
b111010 $
#46000
b101110 !
b111001 "
b101110 #
b111011 $
#47000
b101111 !
b111000 "
b101111 #
b111001 $
#48000
b110000 !
b101000 "
b110000 #
b111000 $
#49000
b110001 !
b101001 "
b110001 #
b101000 $
#50000
b110010 !
b101011 "
b110010 #
b101001 $
#51000
b110011 !
b101010 "
b110011 #
b101011 $
#52000
b110100 !
b101110 "
b110100 #
b101010 $
#53000
b110101 !
b101111 "
b110101 #
b101110 $
#54000
b110110 !
b101101 "
b110110 #
b101111 $
#55000
b110111 !
b101100 "
b110111 #
b101101 $
#56000
b111000 !
b100100 "
b111000 #
b101100 $
#57000
b111001 !
b100101 "
b111001 #
b100100 $
#58000
b111010 !
b100111 "
b111010 #
b100101 $
#59000
b111011 !
b100110 "
b111011 #
b100111 $
#60000
b111100 !
b100010 "
b111100 #
b100110 $
#61000
b111101 !
b100011 "
b111101 #
b100010 $
#62000
b111110 !
b100001 "
b111110 #
b100011 $
#63000
b111111 !
b100000 "
b111111 #
b100001 $
#64000
b1000000 !
b1100000 "
b1000000 #
b100000 $
#65000
b1000001 !
b1100001 "
b1000001 #
b1100000 $
#66000
b1000010 !
b1100011 "
b1000010 #
b1100001 $
#67000
b1000011 !
b1100010 "
b1000011 #
b1100011 $
#68000
b1000100 !
b1100110 "
b1000100 #
b1100010 $
#69000
b1000101 !
b1100111 "
b1000101 #
b1100110 $
#70000
b1000110 !
b1100101 "
b1000110 #
b1100111 $
#71000
b1000111 !
b1100100 "
b1000111 #
b1100101 $
#72000
b1001000 !
b1101100 "
b1001000 #
b1100100 $
#73000
b1001001 !
b1101101 "
b1001001 #
b1101100 $
#74000
b1001010 !
b1101111 "
b1001010 #
b1101101 $
#75000
b1001011 !
b1101110 "
b1001011 #
b1101111 $
#76000
b1001100 !
b1101010 "
b1001100 #
b1101110 $
#77000
b1001101 !
b1101011 "
b1001101 #
b1101010 $
#78000
b1001110 !
b1101001 "
b1001110 #
b1101011 $
#79000
b1001111 !
b1101000 "
b1001111 #
b1101001 $
#80000
b1010000 !
b1111000 "
b1010000 #
b1101000 $
#81000
b1010001 !
b1111001 "
b1010001 #
b1111000 $
#82000
b1010010 !
b1111011 "
b1010010 #
b1111001 $
#83000
b1010011 !
b1111010 "
b1010011 #
b1111011 $
#84000
b1010100 !
b1111110 "
b1010100 #
b1111010 $
#85000
b1010101 !
b1111111 "
b1010101 #
b1111110 $
#86000
b1010110 !
b1111101 "
b1010110 #
b1111111 $
#87000
b1010111 !
b1111100 "
b1010111 #
b1111101 $
#88000
b1011000 !
b1110100 "
b1011000 #
b1111100 $
#89000
b1011001 !
b1110101 "
b1011001 #
b1110100 $
#90000
b1011010 !
b1110111 "
b1011010 #
b1110101 $
#91000
b1011011 !
b1110110 "
b1011011 #
b1110111 $
#92000
b1011100 !
b1110010 "
b1011100 #
b1110110 $
#93000
b1011101 !
b1110011 "
b1011101 #
b1110010 $
#94000
b1011110 !
b1110001 "
b1011110 #
b1110011 $
#95000
b1011111 !
b1110000 "
b1011111 #
b1110001 $
#96000
b1100000 !
b1010000 "
b1100000 #
b1110000 $
#97000
b1100001 !
b1010001 "
b1100001 #
b1010000 $
#98000
b1100010 !
b1010011 "
b1100010 #
b1010001 $
#99000
b1100011 !
b1010010 "
b1100011 #
b1010011 $
#100000
b1100100 !
b1010110 "
b1100100 #
b1010010 $
#101000
b1100101 !
b1010111 "
b1100101 #
b1010110 $
#102000
b1100110 !
b1010101 "
b1100110 #
b1010111 $
#103000
b1100111 !
b1010100 "
b1100111 #
b1010101 $
#104000
b1101000 !
b1011100 "
b1101000 #
b1010100 $
#105000
b1101001 !
b1011101 "
b1101001 #
b1011100 $
#106000
b1101010 !
b1011111 "
b1101010 #
b1011101 $
#107000
b1101011 !
b1011110 "
b1101011 #
b1011111 $
#108000
b1101100 !
b1011010 "
b1101100 #
b1011110 $
#109000
b1101101 !
b1011011 "
b1101101 #
b1011010 $
#110000
b1101110 !
b1011001 "
b1101110 #
b1011011 $
#111000
b1101111 !
b1011000 "
b1101111 #
b1011001 $
#112000
b1110000 !
b1001000 "
b1110000 #
b1011000 $
#113000
b1110001 !
b1001001 "
b1110001 #
b1001000 $
#114000
b1110010 !
b1001011 "
b1110010 #
b1001001 $
#115000
b1110011 !
b1001010 "
b1110011 #
b1001011 $
#116000
b1110100 !
b1001110 "
b1110100 #
b1001010 $
#117000
b1110101 !
b1001111 "
b1110101 #
b1001110 $
#118000
b1110110 !
b1001101 "
b1110110 #
b1001111 $
#119000
b1110111 !
b1001100 "
b1110111 #
b1001101 $
#120000
b1111000 !
b1000100 "
b1111000 #
b1001100 $
#121000
b1111001 !
b1000101 "
b1111001 #
b1000100 $
#122000
b1111010 !
b1000111 "
b1111010 #
b1000101 $
#123000
b1111011 !
b1000110 "
b1111011 #
b1000111 $
#124000
b1111100 !
b1000010 "
b1111100 #
b1000110 $
#125000
b1111101 !
b1000011 "
b1111101 #
b1000010 $
#126000
b1111110 !
b1000001 "
b1111110 #
b1000011 $
#127000
b1111111 !
b1000000 "
b1111111 #
b1000001 $
#128000
b10000000 !
b11000000 "
b10000000 #
b1000000 $
#129000
b10000001 !
b11000001 "
b10000001 #
b11000000 $
#130000
b10000010 !
b11000011 "
b10000010 #
b11000001 $
#131000
b10000011 !
b11000010 "
b10000011 #
b11000011 $
#132000
b10000100 !
b11000110 "
b10000100 #
b11000010 $
#133000
b10000101 !
b11000111 "
b10000101 #
b11000110 $
#134000
b10000110 !
b11000101 "
b10000110 #
b11000111 $
#135000
b10000111 !
b11000100 "
b10000111 #
b11000101 $
#136000
b10001000 !
b11001100 "
b10001000 #
b11000100 $
#137000
b10001001 !
b11001101 "
b10001001 #
b11001100 $
#138000
b10001010 !
b11001111 "
b10001010 #
b11001101 $
#139000
b10001011 !
b11001110 "
b10001011 #
b11001111 $
#140000
b10001100 !
b11001010 "
b10001100 #
b11001110 $
#141000
b10001101 !
b11001011 "
b10001101 #
b11001010 $
#142000
b10001110 !
b11001001 "
b10001110 #
b11001011 $
#143000
b10001111 !
b11001000 "
b10001111 #
b11001001 $
#144000
b10010000 !
b11011000 "
b10010000 #
b11001000 $
#145000
b10010001 !
b11011001 "
b10010001 #
b11011000 $
#146000
b10010010 !
b11011011 "
b10010010 #
b11011001 $
#147000
b10010011 !
b11011010 "
b10010011 #
b11011011 $
#148000
b10010100 !
b11011110 "
b10010100 #
b11011010 $
#149000
b10010101 !
b11011111 "
b10010101 #
b11011110 $
#150000
b10010110 !
b11011101 "
b10010110 #
b11011111 $
#151000
b10010111 !
b11011100 "
b10010111 #
b11011101 $
#152000
b10011000 !
b11010100 "
b10011000 #
b11011100 $
#153000
b10011001 !
b11010101 "
b10011001 #
b11010100 $
#154000
b10011010 !
b11010111 "
b10011010 #
b11010101 $
#155000
b10011011 !
b11010110 "
b10011011 #
b11010111 $
#156000
b10011100 !
b11010010 "
b10011100 #
b11010110 $
#157000
b10011101 !
b11010011 "
b10011101 #
b11010010 $
#158000
b10011110 !
b11010001 "
b10011110 #
b11010011 $
#159000
b10011111 !
b11010000 "
b10011111 #
b11010001 $
#160000
b10100000 !
b11110000 "
b10100000 #
b11010000 $
#161000
b10100001 !
b11110001 "
b10100001 #
b11110000 $
#162000
b10100010 !
b11110011 "
b10100010 #
b11110001 $
#163000
b10100011 !
b11110010 "
b10100011 #
b11110011 $
#164000
b10100100 !
b11110110 "
b10100100 #
b11110010 $
#165000
b10100101 !
b11110111 "
b10100101 #
b11110110 $
#166000
b10100110 !
b11110101 "
b10100110 #
b11110111 $
#167000
b10100111 !
b11110100 "
b10100111 #
b11110101 $
#168000
b10101000 !
b11111100 "
b10101000 #
b11110100 $
#169000
b10101001 !
b11111101 "
b10101001 #
b11111100 $
#170000
b10101010 !
b11111111 "
b10101010 #
b11111101 $
#171000
b10101011 !
b11111110 "
b10101011 #
b11111111 $
#172000
b10101100 !
b11111010 "
b10101100 #
b11111110 $
#173000
b10101101 !
b11111011 "
b10101101 #
b11111010 $
#174000
b10101110 !
b11111001 "
b10101110 #
b11111011 $
#175000
b10101111 !
b11111000 "
b10101111 #
b11111001 $
#176000
b10110000 !
b11101000 "
b10110000 #
b11111000 $
#177000
b10110001 !
b11101001 "
b10110001 #
b11101000 $
#178000
b10110010 !
b11101011 "
b10110010 #
b11101001 $
#179000
b10110011 !
b11101010 "
b10110011 #
b11101011 $
#180000
b10110100 !
b11101110 "
b10110100 #
b11101010 $
#181000
b10110101 !
b11101111 "
b10110101 #
b11101110 $
#182000
b10110110 !
b11101101 "
b10110110 #
b11101111 $
#183000
b10110111 !
b11101100 "
b10110111 #
b11101101 $
#184000
b10111000 !
b11100100 "
b10111000 #
b11101100 $
#185000
b10111001 !
b11100101 "
b10111001 #
b11100100 $
#186000
b10111010 !
b11100111 "
b10111010 #
b11100101 $
#187000
b10111011 !
b11100110 "
b10111011 #
b11100111 $
#188000
b10111100 !
b11100010 "
b10111100 #
b11100110 $
#189000
b10111101 !
b11100011 "
b10111101 #
b11100010 $
#190000
b10111110 !
b11100001 "
b10111110 #
b11100011 $
#191000
b10111111 !
b11100000 "
b10111111 #
b11100001 $
#192000
b11000000 !
b10100000 "
b11000000 #
b11100000 $
#193000
b11000001 !
b10100001 "
b11000001 #
b10100000 $
#194000
b11000010 !
b10100011 "
b11000010 #
b10100001 $
#195000
b11000011 !
b10100010 "
b11000011 #
b10100011 $
#196000
b11000100 !
b10100110 "
b11000100 #
b10100010 $
#197000
b11000101 !
b10100111 "
b11000101 #
b10100110 $
#198000
b11000110 !
b10100101 "
b11000110 #
b10100111 $
#199000
b11000111 !
b10100100 "
b11000111 #
b10100101 $
#200000
b11001000 !
b10101100 "
b11001000 #
b10100100 $
#201000
b11001001 !
b10101101 "
b11001001 #
b10101100 $
#202000
b11001010 !
b10101111 "
b11001010 #
b10101101 $
#203000
b11001011 !
b10101110 "
b11001011 #
b10101111 $
#204000
b11001100 !
b10101010 "
b11001100 #
b10101110 $
#205000
b11001101 !
b10101011 "
b11001101 #
b10101010 $
#206000
b11001110 !
b10101001 "
b11001110 #
b10101011 $
#207000
b11001111 !
b10101000 "
b11001111 #
b10101001 $
#208000
b11010000 !
b10111000 "
b11010000 #
b10101000 $
#209000
b11010001 !
b10111001 "
b11010001 #
b10111000 $
#210000
b11010010 !
b10111011 "
b11010010 #
b10111001 $
#211000
b11010011 !
b10111010 "
b11010011 #
b10111011 $
#212000
b11010100 !
b10111110 "
b11010100 #
b10111010 $
#213000
b11010101 !
b10111111 "
b11010101 #
b10111110 $
#214000
b11010110 !
b10111101 "
b11010110 #
b10111111 $
#215000
b11010111 !
b10111100 "
b11010111 #
b10111101 $
#216000
b11011000 !
b10110100 "
b11011000 #
b10111100 $
#217000
b11011001 !
b10110101 "
b11011001 #
b10110100 $
#218000
b11011010 !
b10110111 "
b11011010 #
b10110101 $
#219000
b11011011 !
b10110110 "
b11011011 #
b10110111 $
#220000
b11011100 !
b10110010 "
b11011100 #
b10110110 $
#221000
b11011101 !
b10110011 "
b11011101 #
b10110010 $
#222000
b11011110 !
b10110001 "
b11011110 #
b10110011 $
#223000
b11011111 !
b10110000 "
b11011111 #
b10110001 $
#224000
b11100000 !
b10010000 "
b11100000 #
b10110000 $
#225000
b11100001 !
b10010001 "
b11100001 #
b10010000 $
#226000
b11100010 !
b10010011 "
b11100010 #
b10010001 $
#227000
b11100011 !
b10010010 "
b11100011 #
b10010011 $
#228000
b11100100 !
b10010110 "
b11100100 #
b10010010 $
#229000
b11100101 !
b10010111 "
b11100101 #
b10010110 $
#230000
b11100110 !
b10010101 "
b11100110 #
b10010111 $
#231000
b11100111 !
b10010100 "
b11100111 #
b10010101 $
#232000
b11101000 !
b10011100 "
b11101000 #
b10010100 $
#233000
b11101001 !
b10011101 "
b11101001 #
b10011100 $
#234000
b11101010 !
b10011111 "
b11101010 #
b10011101 $
#235000
b11101011 !
b10011110 "
b11101011 #
b10011111 $
#236000
b11101100 !
b10011010 "
b11101100 #
b10011110 $
#237000
b11101101 !
b10011011 "
b11101101 #
b10011010 $
#238000
b11101110 !
b10011001 "
b11101110 #
b10011011 $
#239000
b11101111 !
b10011000 "
b11101111 #
b10011001 $
#240000
b11110000 !
b10001000 "
b11110000 #
b10011000 $
#241000
b11110001 !
b10001001 "
b11110001 #
b10001000 $
#242000
b11110010 !
b10001011 "
b11110010 #
b10001001 $
#243000
b11110011 !
b10001010 "
b11110011 #
b10001011 $
#244000
b11110100 !
b10001110 "
b11110100 #
b10001010 $
#245000
b11110101 !
b10001111 "
b11110101 #
b10001110 $
#246000
b11110110 !
b10001101 "
b11110110 #
b10001111 $
#247000
b11110111 !
b10001100 "
b11110111 #
b10001101 $
#248000
b11111000 !
b10000100 "
b11111000 #
b10001100 $
#249000
b11111001 !
b10000101 "
b11111001 #
b10000100 $
#250000
b11111010 !
b10000111 "
b11111010 #
b10000101 $
#251000
b11111011 !
b10000110 "
b11111011 #
b10000111 $
#252000
b11111100 !
b10000010 "
b11111100 #
b10000110 $
#253000
b11111101 !
b10000011 "
b11111101 #
b10000010 $
#254000
b11111110 !
b10000001 "
b11111110 #
b10000011 $
#255000
b11111111 !
b10000000 "
b11111111 #
b10000001 $
#256000
b100000000 !
b110000000 "
b100000000 #
b10000000 $
#257000
b100000001 !
b110000001 "
b100000001 #
b110000000 $
#258000
b100000010 !
b110000011 "
b100000010 #
b110000001 $
#259000
b100000011 !
b110000010 "
b100000011 #
b110000011 $
#260000
b100000100 !
b110000110 "
b100000100 #
b110000010 $
#261000
b100000101 !
b110000111 "
b100000101 #
b110000110 $
#262000
b100000110 !
b110000101 "
b100000110 #
b110000111 $
#263000
b100000111 !
b110000100 "
b100000111 #
b110000101 $
#264000
b100001000 !
b110001100 "
b100001000 #
b110000100 $
#265000
b100001001 !
b110001101 "
b100001001 #
b110001100 $
#266000
b100001010 !
b110001111 "
b100001010 #
b110001101 $
#267000
b100001011 !
b110001110 "
b100001011 #
b110001111 $
#268000
b100001100 !
b110001010 "
b100001100 #
b110001110 $
#269000
b100001101 !
b110001011 "
b100001101 #
b110001010 $
#270000
b100001110 !
b110001001 "
b100001110 #
b110001011 $
#271000
b100001111 !
b110001000 "
b100001111 #
b110001001 $
#272000
b100010000 !
b110011000 "
b100010000 #
b110001000 $
#273000
b100010001 !
b110011001 "
b100010001 #
b110011000 $
#274000
b100010010 !
b110011011 "
b100010010 #
b110011001 $
#275000
b100010011 !
b110011010 "
b100010011 #
b110011011 $
#276000
b100010100 !
b110011110 "
b100010100 #
b110011010 $
#277000
b100010101 !
b110011111 "
b100010101 #
b110011110 $
#278000
b100010110 !
b110011101 "
b100010110 #
b110011111 $
#279000
b100010111 !
b110011100 "
b100010111 #
b110011101 $
#280000
b100011000 !
b110010100 "
b100011000 #
b110011100 $
#281000
b100011001 !
b110010101 "
b100011001 #
b110010100 $
#282000
b100011010 !
b110010111 "
b100011010 #
b110010101 $
#283000
b100011011 !
b110010110 "
b100011011 #
b110010111 $
#284000
b100011100 !
b110010010 "
b100011100 #
b110010110 $
#285000
b100011101 !
b110010011 "
b100011101 #
b110010010 $
#286000
b100011110 !
b110010001 "
b100011110 #
b110010011 $
#287000
b100011111 !
b110010000 "
b100011111 #
b110010001 $
#288000
b100100000 !
b110110000 "
b100100000 #
b110010000 $
#289000
b100100001 !
b110110001 "
b100100001 #
b110110000 $
#290000
b100100010 !
b110110011 "
b100100010 #
b110110001 $
#291000
b100100011 !
b110110010 "
b100100011 #
b110110011 $
#292000
b100100100 !
b110110110 "
b100100100 #
b110110010 $
#293000
b100100101 !
b110110111 "
b100100101 #
b110110110 $
#294000
b100100110 !
b110110101 "
b100100110 #
b110110111 $
#295000
b100100111 !
b110110100 "
b100100111 #
b110110101 $
#296000
b100101000 !
b110111100 "
b100101000 #
b110110100 $
#297000
b100101001 !
b110111101 "
b100101001 #
b110111100 $
#298000
b100101010 !
b110111111 "
b100101010 #
b110111101 $
#299000
b100101011 !
b110111110 "
b100101011 #
b110111111 $
#300000
b100101100 !
b110111010 "
b100101100 #
b110111110 $
#301000
b100101101 !
b110111011 "
b100101101 #
b110111010 $
#302000
b100101110 !
b110111001 "
b100101110 #
b110111011 $
#303000
b100101111 !
b110111000 "
b100101111 #
b110111001 $
#304000
b100110000 !
b110101000 "
b100110000 #
b110111000 $
#305000
b100110001 !
b110101001 "
b100110001 #
b110101000 $
#306000
b100110010 !
b110101011 "
b100110010 #
b110101001 $
#307000
b100110011 !
b110101010 "
b100110011 #
b110101011 $
#308000
b100110100 !
b110101110 "
b100110100 #
b110101010 $
#309000
b100110101 !
b110101111 "
b100110101 #
b110101110 $
#310000
b100110110 !
b110101101 "
b100110110 #
b110101111 $
#311000
b100110111 !
b110101100 "
b100110111 #
b110101101 $
#312000
b100111000 !
b110100100 "
b100111000 #
b110101100 $
#313000
b100111001 !
b110100101 "
b100111001 #
b110100100 $
#314000
b100111010 !
b110100111 "
b100111010 #
b110100101 $
#315000
b100111011 !
b110100110 "
b100111011 #
b110100111 $
#316000
b100111100 !
b110100010 "
b100111100 #
b110100110 $
#317000
b100111101 !
b110100011 "
b100111101 #
b110100010 $
#318000
b100111110 !
b110100001 "
b100111110 #
b110100011 $
#319000
b100111111 !
b110100000 "
b100111111 #
b110100001 $
#320000
b101000000 !
b111100000 "
b101000000 #
b110100000 $
#321000
b101000001 !
b111100001 "
b101000001 #
b111100000 $
#322000
b101000010 !
b111100011 "
b101000010 #
b111100001 $
#323000
b101000011 !
b111100010 "
b101000011 #
b111100011 $
#324000
b101000100 !
b111100110 "
b101000100 #
b111100010 $
#325000
b101000101 !
b111100111 "
b101000101 #
b111100110 $
#326000
b101000110 !
b111100101 "
b101000110 #
b111100111 $
#327000
b101000111 !
b111100100 "
b101000111 #
b111100101 $
#328000
b101001000 !
b111101100 "
b101001000 #
b111100100 $
#329000
b101001001 !
b111101101 "
b101001001 #
b111101100 $
#330000
b101001010 !
b111101111 "
b101001010 #
b111101101 $
#331000
b101001011 !
b111101110 "
b101001011 #
b111101111 $
#332000
b101001100 !
b111101010 "
b101001100 #
b111101110 $
#333000
b101001101 !
b111101011 "
b101001101 #
b111101010 $
#334000
b101001110 !
b111101001 "
b101001110 #
b111101011 $
#335000
b101001111 !
b111101000 "
b101001111 #
b111101001 $
#336000
b101010000 !
b111111000 "
b101010000 #
b111101000 $
#337000
b101010001 !
b111111001 "
b101010001 #
b111111000 $
#338000
b101010010 !
b111111011 "
b101010010 #
b111111001 $
#339000
b101010011 !
b111111010 "
b101010011 #
b111111011 $
#340000
b101010100 !
b111111110 "
b101010100 #
b111111010 $
#341000
b101010101 !
b111111111 "
b101010101 #
b111111110 $
#342000
b101010110 !
b111111101 "
b101010110 #
b111111111 $
#343000
b101010111 !
b111111100 "
b101010111 #
b111111101 $
#344000
b101011000 !
b111110100 "
b101011000 #
b111111100 $
#345000
b101011001 !
b111110101 "
b101011001 #
b111110100 $
#346000
b101011010 !
b111110111 "
b101011010 #
b111110101 $
#347000
b101011011 !
b111110110 "
b101011011 #
b111110111 $
#348000
b101011100 !
b111110010 "
b101011100 #
b111110110 $
#349000
b101011101 !
b111110011 "
b101011101 #
b111110010 $
#350000
b101011110 !
b111110001 "
b101011110 #
b111110011 $
#351000
b101011111 !
b111110000 "
b101011111 #
b111110001 $
#352000
b101100000 !
b111010000 "
b101100000 #
b111110000 $
#353000
b101100001 !
b111010001 "
b101100001 #
b111010000 $
#354000
b101100010 !
b111010011 "
b101100010 #
b111010001 $
#355000
b101100011 !
b111010010 "
b101100011 #
b111010011 $
#356000
b101100100 !
b111010110 "
b101100100 #
b111010010 $
#357000
b101100101 !
b111010111 "
b101100101 #
b111010110 $
#358000
b101100110 !
b111010101 "
b101100110 #
b111010111 $
#359000
b101100111 !
b111010100 "
b101100111 #
b111010101 $
#360000
b101101000 !
b111011100 "
b101101000 #
b111010100 $
#361000
b101101001 !
b111011101 "
b101101001 #
b111011100 $
#362000
b101101010 !
b111011111 "
b101101010 #
b111011101 $
#363000
b101101011 !
b111011110 "
b101101011 #
b111011111 $
#364000
b101101100 !
b111011010 "
b101101100 #
b111011110 $
#365000
b101101101 !
b111011011 "
b101101101 #
b111011010 $
#366000
b101101110 !
b111011001 "
b101101110 #
b111011011 $
#367000
b101101111 !
b111011000 "
b101101111 #
b111011001 $
#368000
b101110000 !
b111001000 "
b101110000 #
b111011000 $
#369000
b101110001 !
b111001001 "
b101110001 #
b111001000 $
#370000
b101110010 !
b111001011 "
b101110010 #
b111001001 $
#371000
b101110011 !
b111001010 "
b101110011 #
b111001011 $
#372000
b101110100 !
b111001110 "
b101110100 #
b111001010 $
#373000
b101110101 !
b111001111 "
b101110101 #
b111001110 $
#374000
b101110110 !
b111001101 "
b101110110 #
b111001111 $
#375000
b101110111 !
b111001100 "
b101110111 #
b111001101 $
#376000
b101111000 !
b111000100 "
b101111000 #
b111001100 $
#377000
b101111001 !
b111000101 "
b101111001 #
b111000100 $
#378000
b101111010 !
b111000111 "
b101111010 #
b111000101 $
#379000
b101111011 !
b111000110 "
b101111011 #
b111000111 $
#380000
b101111100 !
b111000010 "
b101111100 #
b111000110 $
#381000
b101111101 !
b111000011 "
b101111101 #
b111000010 $
#382000
b101111110 !
b111000001 "
b101111110 #
b111000011 $
#383000
b101111111 !
b111000000 "
b101111111 #
b111000001 $
#384000
b110000000 !
b101000000 "
b110000000 #
b111000000 $
#385000
b110000001 !
b101000001 "
b110000001 #
b101000000 $
#386000
b110000010 !
b101000011 "
b110000010 #
b101000001 $
#387000
b110000011 !
b101000010 "
b110000011 #
b101000011 $
#388000
b110000100 !
b101000110 "
b110000100 #
b101000010 $
#389000
b110000101 !
b101000111 "
b110000101 #
b101000110 $
#390000
b110000110 !
b101000101 "
b110000110 #
b101000111 $
#391000
b110000111 !
b101000100 "
b110000111 #
b101000101 $
#392000
b110001000 !
b101001100 "
b110001000 #
b101000100 $
#393000
b110001001 !
b101001101 "
b110001001 #
b101001100 $
#394000
b110001010 !
b101001111 "
b110001010 #
b101001101 $
#395000
b110001011 !
b101001110 "
b110001011 #
b101001111 $
#396000
b110001100 !
b101001010 "
b110001100 #
b101001110 $
#397000
b110001101 !
b101001011 "
b110001101 #
b101001010 $
#398000
b110001110 !
b101001001 "
b110001110 #
b101001011 $
#399000
b110001111 !
b101001000 "
b110001111 #
b101001001 $
#400000
b110010000 !
b101011000 "
b110010000 #
b101001000 $
#401000
b110010001 !
b101011001 "
b110010001 #
b101011000 $
#402000
b110010010 !
b101011011 "
b110010010 #
b101011001 $
#403000
b110010011 !
b101011010 "
b110010011 #
b101011011 $
#404000
b110010100 !
b101011110 "
b110010100 #
b101011010 $
#405000
b110010101 !
b101011111 "
b110010101 #
b101011110 $
#406000
b110010110 !
b101011101 "
b110010110 #
b101011111 $
#407000
b110010111 !
b101011100 "
b110010111 #
b101011101 $
#408000
b110011000 !
b101010100 "
b110011000 #
b101011100 $
#409000
b110011001 !
b101010101 "
b110011001 #
b101010100 $
#410000
b110011010 !
b101010111 "
b110011010 #
b101010101 $
#411000
b110011011 !
b101010110 "
b110011011 #
b101010111 $
#412000
b110011100 !
b101010010 "
b110011100 #
b101010110 $
#413000
b110011101 !
b101010011 "
b110011101 #
b101010010 $
#414000
b110011110 !
b101010001 "
b110011110 #
b101010011 $
#415000
b110011111 !
b101010000 "
b110011111 #
b101010001 $
#416000
b110100000 !
b101110000 "
b110100000 #
b101010000 $
#417000
b110100001 !
b101110001 "
b110100001 #
b101110000 $
#418000
b110100010 !
b101110011 "
b110100010 #
b101110001 $
#419000
b110100011 !
b101110010 "
b110100011 #
b101110011 $
#420000
b110100100 !
b101110110 "
b110100100 #
b101110010 $
#421000
b110100101 !
b101110111 "
b110100101 #
b101110110 $
#422000
b110100110 !
b101110101 "
b110100110 #
b101110111 $
#423000
b110100111 !
b101110100 "
b110100111 #
b101110101 $
#424000
b110101000 !
b101111100 "
b110101000 #
b101110100 $
#425000
b110101001 !
b101111101 "
b110101001 #
b101111100 $
#426000
b110101010 !
b101111111 "
b110101010 #
b101111101 $
#427000
b110101011 !
b101111110 "
b110101011 #
b101111111 $
#428000
b110101100 !
b101111010 "
b110101100 #
b101111110 $
#429000
b110101101 !
b101111011 "
b110101101 #
b101111010 $
#430000
b110101110 !
b101111001 "
b110101110 #
b101111011 $
#431000
b110101111 !
b101111000 "
b110101111 #
b101111001 $
#432000
b110110000 !
b101101000 "
b110110000 #
b101111000 $
#433000
b110110001 !
b101101001 "
b110110001 #
b101101000 $
#434000
b110110010 !
b101101011 "
b110110010 #
b101101001 $
#435000
b110110011 !
b101101010 "
b110110011 #
b101101011 $
#436000
b110110100 !
b101101110 "
b110110100 #
b101101010 $
#437000
b110110101 !
b101101111 "
b110110101 #
b101101110 $
#438000
b110110110 !
b101101101 "
b110110110 #
b101101111 $
#439000
b110110111 !
b101101100 "
b110110111 #
b101101101 $
#440000
b110111000 !
b101100100 "
b110111000 #
b101101100 $
#441000
b110111001 !
b101100101 "
b110111001 #
b101100100 $
#442000
b110111010 !
b101100111 "
b110111010 #
b101100101 $
#443000
b110111011 !
b101100110 "
b110111011 #
b101100111 $
#444000
b110111100 !
b101100010 "
b110111100 #
b101100110 $
#445000
b110111101 !
b101100011 "
b110111101 #
b101100010 $
#446000
b110111110 !
b101100001 "
b110111110 #
b101100011 $
#447000
b110111111 !
b101100000 "
b110111111 #
b101100001 $
#448000
b111000000 !
b100100000 "
b111000000 #
b101100000 $
#449000
b111000001 !
b100100001 "
b111000001 #
b100100000 $
#450000
b111000010 !
b100100011 "
b111000010 #
b100100001 $
#451000
b111000011 !
b100100010 "
b111000011 #
b100100011 $
#452000
b111000100 !
b100100110 "
b111000100 #
b100100010 $
#453000
b111000101 !
b100100111 "
b111000101 #
b100100110 $
#454000
b111000110 !
b100100101 "
b111000110 #
b100100111 $
#455000
b111000111 !
b100100100 "
b111000111 #
b100100101 $
#456000
b111001000 !
b100101100 "
b111001000 #
b100100100 $
#457000
b111001001 !
b100101101 "
b111001001 #
b100101100 $
#458000
b111001010 !
b100101111 "
b111001010 #
b100101101 $
#459000
b111001011 !
b100101110 "
b111001011 #
b100101111 $
#460000
b111001100 !
b100101010 "
b111001100 #
b100101110 $
#461000
b111001101 !
b100101011 "
b111001101 #
b100101010 $
#462000
b111001110 !
b100101001 "
b111001110 #
b100101011 $
#463000
b111001111 !
b100101000 "
b111001111 #
b100101001 $
#464000
b111010000 !
b100111000 "
b111010000 #
b100101000 $
#465000
b111010001 !
b100111001 "
b111010001 #
b100111000 $
#466000
b111010010 !
b100111011 "
b111010010 #
b100111001 $
#467000
b111010011 !
b100111010 "
b111010011 #
b100111011 $
#468000
b111010100 !
b100111110 "
b111010100 #
b100111010 $
#469000
b111010101 !
b100111111 "
b111010101 #
b100111110 $
#470000
b111010110 !
b100111101 "
b111010110 #
b100111111 $
