vivado-vcd/graycode.vcd
$date
   Sat Aug 22 10:29:35 2020
$end
$version
  2020.1
$end
$timescale
  1ps
$end
$scope module graycode_tb $end
$var reg 20 ! a [19:0] $end
$var reg 20 " b [19:0] $end
$var reg 20 # c [19:0] $end
$var reg 20 $ bp [19:0] $end
$var parameter 0 % N $end
$upscope $end
$enddefinitions $end
#0
$dumpvars
b1111101000 !
b1000011100 "
b1111101000 #
b1000010100 $
b10100 %
$end
#1001000
b1111101001 !
b1000011101 "
b1111101001 #
b1000011100 $
#1002000
b1111101010 !
b1000011111 "
b1111101010 #
b1000011101 $
#1003000
b1111101011 !
b1000011110 "
b1111101011 #
b1000011111 $
#1004000
b1111101100 !
b1000011010 "
b1111101100 #
b1000011110 $
#1005000
b1111101101 !
b1000011011 "
b1111101101 #
b1000011010 $
#1006000
b1111101110 !
b1000011001 "
b1111101110 #
b1000011011 $
#1007000
b1111101111 !
b1000011000 "
b1111101111 #
b1000011001 $
#1008000
b1111110000 !
b1000001000 "
b1111110000 #
b1000011000 $
#1009000
b1111110001 !
b1000001001 "
b1111110001 #
b1000001000 $
#1010000
b1111110010 !
b1000001011 "
b1111110010 #
b1000001001 $
#1011000
b1111110011 !
b1000001010 "
b1111110011 #
b1000001011 $
#1012000
b1111110100 !
b1000001110 "
b1111110100 #
b1000001010 $
#1013000
b1111110101 !
b1000001111 "
b1111110101 #
b1000001110 $
#1014000
b1111110110 !
b1000001101 "
b1111110110 #
b1000001111 $
#1015000
b1111110111 !
b1000001100 "
b1111110111 #
b1000001101 $
#1016000
b1111111000 !
b1000000100 "
b1111111000 #
b1000001100 $
#1017000
b1111111001 !
b1000000101 "
b1111111001 #
b1000000100 $
#1018000
b1111111010 !
b1000000111 "
b1111111010 #
b1000000101 $
#1019000
b1111111011 !
b1000000110 "
b1111111011 #
b1000000111 $
#1020000
b1111111100 !
b1000000010 "
b1111111100 #
b1000000110 $
#1021000
b1111111101 !
b1000000011 "
b1111111101 #
b1000000010 $
#1022000
b1111111110 !
b1000000001 "
b1111111110 #
b1000000011 $
#1023000
b1111111111 !
b1000000000 "
b1111111111 #
b1000000001 $
#1024000
b10000000000 !
b11000000000 "
b10000000000 #
b1000000000 $
#1025000
b10000000001 !
b11000000001 "
b10000000001 #
b11000000000 $
#1026000
b10000000010 !
b11000000011 "
b10000000010 #
b11000000001 $
#1027000
b10000000011 !
b11000000010 "
b10000000011 #
b11000000011 $
#1028000
b10000000100 !
b11000000110 "
b10000000100 #
b11000000010 $
#1029000
b10000000101 !
b11000000111 "
b10000000101 #
b11000000110 $
#1030000
b10000000110 !
b11000000101 "
b10000000110 #
b11000000111 $
#1031000
b10000000111 !
b11000000100 "
b10000000111 #
b11000000101 $
#1032000
b10000001000 !
b11000001100 "
b10000001000 #
b11000000100 $
#1033000
b10000001001 !
b11000001101 "
b10000001001 #
b11000001100 $
#1034000
b10000001010 !
b11000001111 "
b10000001010 #
b11000001101 $
#1035000
b10000001011 !
b11000001110 "
b10000001011 #
b11000001111 $
#1036000
b10000001100 !
b11000001010 "
b10000001100 #
b11000001110 $
#1037000
b10000001101 !
b11000001011 "
b10000001101 #
b11000001010 $
#1038000
b10000001110 !
b11000001001 "
b10000001110 #
b11000001011 $
#1039000
b10000001111 !
b11000001000 "
b10000001111 #
b11000001001 $
#1040000
b10000010000 !
b11000011000 "
b10000010000 #
b11000001000 $
#1041000
b10000010001 !
b11000011001 "
b10000010001 #
b11000011000 $
#1042000
b10000010010 !
b11000011011 "
b10000010010 #
b11000011001 $
#1043000
b10000010011 !
b11000011010 "
b10000010011 #
b11000011011 $
#1044000
b10000010100 !
b11000011110 "
b10000010100 #
b11000011010 $
#1045000
b10000010101 !
b11000011111 "
b10000010101 #
b11000011110 $
#1046000
b10000010110 !
b11000011101 "
b10000010110 #
b11000011111 $
#1047000
b10000010111 !
b11000011100 "
b10000010111 #
b11000011101 $
#1048000
b10000011000 !
b11000010100 "
b10000011000 #
b11000011100 $
#1049000
b10000011001 !
b11000010101 "
b10000011001 #
b11000010100 $
#1050000
b10000011010 !
b11000010111 "
b10000011010 #
b11000010101 $
#1051000
b10000011011 !
b11000010110 "
b10000011011 #
b11000010111 $
#1052000
b10000011100 !
b11000010010 "
b10000011100 #
b11000010110 $
#1053000
b10000011101 !
b11000010011 "
b10000011101 #
b11000010010 $
#1054000
b10000011110 !
b11000010001 "
b10000011110 #
b11000010011 $
#1055000
b10000011111 !
b11000010000 "
b10000011111 #
b11000010001 $
#1056000
b10000100000 !
b11000110000 "
b10000100000 #
b11000010000 $
#1057000
b10000100001 !
b11000110001 "
b10000100001 #
b11000110000 $
#1058000
b10000100010 !
b11000110011 "
b10000100010 #
b11000110001 $
#1059000
b10000100011 !
b11000110010 "
b10000100011 #
b11000110011 $
#1060000
b10000100100 !
b11000110110 "
b10000100100 #
b11000110010 $
#1061000
b10000100101 !
b11000110111 "
b10000100101 #
b11000110110 $
#1062000
b10000100110 !
b11000110101 "
b10000100110 #
b11000110111 $
#1063000
b10000100111 !
b11000110100 "
b10000100111 #
b11000110101 $
#1064000
b10000101000 !
b11000111100 "
b10000101000 #
b11000110100 $
#1065000
b10000101001 !
b11000111101 "
b10000101001 #
b11000111100 $
#1066000
b10000101010 !
b11000111111 "
b10000101010 #
b11000111101 $
#1067000
b10000101011 !
b11000111110 "
b10000101011 #
b11000111111 $
#1068000
b10000101100 !
b11000111010 "
b10000101100 #
b11000111110 $
#1069000
b10000101101 !
b11000111011 "
b10000101101 #
b11000111010 $
#1070000
b10000101110 !
b11000111001 "
b10000101110 #
b11000111011 $
#1071000
b10000101111 !
b11000111000 "
b10000101111 #
b11000111001 $
#1072000
b10000110000 !
b11000101000 "
b10000110000 #
b11000111000 $
#1073000
b10000110001 !
b11000101001 "
b10000110001 #
b11000101000 $
#1074000
b10000110010 !
b11000101011 "
b10000110010 #
b11000101001 $
#1075000
b10000110011 !
b11000101010 "
b10000110011 #
b11000101011 $
#1076000
b10000110100 !
b11000101110 "
b10000110100 #
b11000101010 $
#1077000
b10000110101 !
b11000101111 "
b10000110101 #
b11000101110 $
#1078000
b10000110110 !
b11000101101 "
b10000110110 #
b11000101111 $
#1079000
b10000110111 !
b11000101100 "
b10000110111 #
b11000101101 $
#1080000
b10000111000 !
b11000100100 "
b10000111000 #
b11000101100 $
#1081000
b10000111001 !
b11000100101 "
b10000111001 #
b11000100100 $
#1082000
b10000111010 !
b11000100111 "
b10000111010 #
b11000100101 $
#1083000
b10000111011 !
b11000100110 "
b10000111011 #
b11000100111 $
#1084000
b10000111100 !
b11000100010 "
b10000111100 #
b11000100110 $
#1085000
b10000111101 !
b11000100011 "
b10000111101 #
b11000100010 $
#1086000
b10000111110 !
b11000100001 "
b10000111110 #
b11000100011 $
#1087000
b10000111111 !
b11000100000 "
b10000111111 #
b11000100001 $
#1088000
b10001000000 !
b11001100000 "
b10001000000 #
b11000100000 $
#1089000
b10001000001 !
b11001100001 "
b10001000001 #
b11001100000 $
#1090000
b10001000010 !
b11001100011 "
b10001000010 #
b11001100001 $
#1091000
b10001000011 !
b11001100010 "
b10001000011 #
b11001100011 $
#1092000
b10001000100 !
b11001100110 "
b10001000100 #
b11001100010 $
#1093000
b10001000101 !
b11001100111 "
b10001000101 #
b11001100110 $
#1094000
b10001000110 !
b11001100101 "
b10001000110 #
b11001100111 $
#1095000
b10001000111 !
b11001100100 "
b10001000111 #
b11001100101 $
#1096000
b10001001000 !
b11001101100 "
b10001001000 #
b11001100100 $
#1097000
b10001001001 !
b11001101101 "
b10001001001 #
b11001101100 $
#1098000
b10001001010 !
b11001101111 "
b10001001010 #
b11001101101 $
#1099000
b10001001011 !
b11001101110 "
b10001001011 #
b11001101111 $
#1100000
b10001001100 !
b11001101010 "
b10001001100 #
b11001101110 $
#1101000
b10001001101 !
b11001101011 "
b10001001101 #
b11001101010 $
#1102000
b10001001110 !
b11001101001 "
b10001001110 #
b11001101011 $
#1103000
b10001001111 !
b11001101000 "
b10001001111 #
b11001101001 $
#1104000
b10001010000 !
b11001111000 "
b10001010000 #
b11001101000 $
#1105000
b10001010001 !
b11001111001 "
b10001010001 #
b11001111000 $
#1106000
b10001010010 !
b11001111011 "
b10001010010 #
b11001111001 $
#1107000
b10001010011 !
b11001111010 "
b10001010011 #
b11001111011 $
#1108000
b10001010100 !
b11001111110 "
b10001010100 #
b11001111010 $
#1109000
b10001010101 !
b11001111111 "
b10001010101 #
b11001111110 $
#1110000
b10001010110 !
b11001111101 "
b10001010110 #
b11001111111 $
#1111000
b10001010111 !
b11001111100 "
b10001010111 #
b11001111101 $
#1112000
b10001011000 !
b11001110100 "
b10001011000 #
b11001111100 $
#1113000
b10001011001 !
b11001110101 "
b10001011001 #
b11001110100 $
#1114000
b10001011010 !
b11001110111 "
b10001011010 #
b11001110101 $
#1115000
b10001011011 !
b11001110110 "
b10001011011 #
b11001110111 $
#1116000
b10001011100 !
b11001110010 "
b10001011100 #
b11001110110 $
#1117000
b10001011101 !
b11001110011 "
b10001011101 #
b11001110010 $
#1118000
b10001011110 !
b11001110001 "
b10001011110 #
b11001110011 $
#1119000
b10001011111 !
b11001110000 "
b10001011111 #
b11001110001 $
#1120000
b10001100000 !
b11001010000 "
b10001100000 #
b11001110000 $
#1121000
b10001100001 !
b11001010001 "
b10001100001 #
b11001010000 $
#1122000
b10001100010 !
b11001010011 "
b10001100010 #
b11001010001 $
#1123000
b10001100011 !
b11001010010 "
b10001100011 #
b11001010011 $
#1124000
b10001100100 !
b11001010110 "
b10001100100 #
b11001010010 $
#1125000
b10001100101 !
b11001010111 "
b10001100101 #
b11001010110 $
#1126000
b10001100110 !
b11001010101 "
b10001100110 #
b11001010111 $
#1127000
b10001100111 !
b11001010100 "
b10001100111 #
b11001010101 $
#1128000
b10001101000 !
b11001011100 "
b10001101000 #
b11001010100 $
#1129000
b10001101001 !
b11001011101 "
b10001101001 #
b11001011100 $
#1130000
b10001101010 !
b11001011111 "
b10001101010 #
b11001011101 $
#1131000
b10001101011 !
b11001011110 "
b10001101011 #
b11001011111 $
#1132000
b10001101100 !
b11001011010 "
b10001101100 #
b11001011110 $
#1133000
b10001101101 !
b11001011011 "
b10001101101 #
b11001011010 $
#1134000
b10001101110 !
b11001011001 "
b10001101110 #
b11001011011 $
#1135000
b10001101111 !
b11001011000 "
b10001101111 #
b11001011001 $
#1136000
b10001110000 !
b11001001000 "
b10001110000 #
b11001011000 $
#1137000
b10001110001 !
b11001001001 "
b10001110001 #
b11001001000 $
#1138000
b10001110010 !
b11001001011 "
b10001110010 #
b11001001001 $
#1139000
b10001110011 !
b11001001010 "
b10001110011 #
b11001001011 $
#1140000
b10001110100 !
b11001001110 "
b10001110100 #
b11001001010 $
#1141000
b10001110101 !
b11001001111 "
b10001110101 #
b11001001110 $
#1142000
b10001110110 !
b11001001101 "
b10001110110 #
b11001001111 $
#1143000
b10001110111 !
b11001001100 "
b10001110111 #
b11001001101 $
#1144000
b10001111000 !
b11001000100 "
b10001111000 #
b11001001100 $
#1145000
b10001111001 !
b11001000101 "
b10001111001 #
b11001000100 $
#1146000
b10001111010 !
b11001000111 "
b10001111010 #
b11001000101 $
#1147000
b10001111011 !
b11001000110 "
b10001111011 #
b11001000111 $
#1148000
b10001111100 !
b11001000010 "
b10001111100 #
b11001000110 $
#1149000
b10001111101 !
b11001000011 "
b10001111101 #
b11001000010 $
#1150000
b10001111110 !
b11001000001 "
b10001111110 #
b11001000011 $
#1151000
b10001111111 !
b11001000000 "
b10001111111 #
b11001000001 $
#1152000
b10010000000 !
b11011000000 "
b10010000000 #
b11001000000 $
#1153000
b10010000001 !
b11011000001 "
b10010000001 #
b11011000000 $
#1154000
b10010000010 !
b11011000011 "
b10010000010 #
b11011000001 $
#1155000
b10010000011 !
b11011000010 "
b10010000011 #
b11011000011 $
#1156000
b10010000100 !
b11011000110 "
b10010000100 #
b11011000010 $
#1157000
b10010000101 !
b11011000111 "
b10010000101 #
b11011000110 $
#1158000
b10010000110 !
b11011000101 "
b10010000110 #
b11011000111 $
#1159000
b10010000111 !
b11011000100 "
b10010000111 #
b11011000101 $
#1160000
b10010001000 !
b11011001100 "
b10010001000 #
b11011000100 $
#1161000
b10010001001 !
b11011001101 "
b10010001001 #
b11011001100 $
#1162000
b10010001010 !
b11011001111 "
b10010001010 #
b11011001101 $
#1163000
b10010001011 !
b11011001110 "
b10010001011 #
b11011001111 $
#1164000
b10010001100 !
b11011001010 "
b10010001100 #
b11011001110 $
#1165000
b10010001101 !
b11011001011 "
b10010001101 #
b11011001010 $
#1166000
b10010001110 !
b11011001001 "
b10010001110 #
b11011001011 $
#1167000
b10010001111 !
b11011001000 "
b10010001111 #
b11011001001 $
#1168000
b10010010000 !
b11011011000 "
b10010010000 #
b11011001000 $
#1169000
b10010010001 !
b11011011001 "
b10010010001 #
b11011011000 $
#1170000
b10010010010 !
b11011011011 "
b10010010010 #
b11011011001 $
#1171000
b10010010011 !
b11011011010 "
b10010010011 #
b11011011011 $
#1172000
b10010010100 !
b11011011110 "
b10010010100 #
b11011011010 $
#1173000
b10010010101 !
b11011011111 "
b10010010101 #
b11011011110 $
#1174000
b10010010110 !
b11011011101 "
b10010010110 #
b11011011111 $
#1175000
b10010010111 !
b11011011100 "
b10010010111 #
b11011011101 $
#1176000
b10010011000 !
b11011010100 "
b10010011000 #
b11011011100 $
#1177000
b10010011001 !
b11011010101 "
b10010011001 #
b11011010100 $
#1178000
b10010011010 !
b11011010111 "
b10010011010 #
b11011010101 $
#1179000
b10010011011 !
b11011010110 "
b10010011011 #
b11011010111 $
#1180000
b10010011100 !
b11011010010 "
b10010011100 #
b11011010110 $
#1181000
b10010011101 !
b11011010011 "
b10010011101 #
b11011010010 $
#1182000
b10010011110 !
b11011010001 "
b10010011110 #
b11011010011 $
#1183000
b10010011111 !
b11011010000 "
b10010011111 #
b11011010001 $
#1184000
b10010100000 !
b11011110000 "
b10010100000 #
b11011010000 $
#1185000
b10010100001 !
b11011110001 "
b10010100001 #
b11011110000 $
#1186000
b10010100010 !
b11011110011 "
b10010100010 #
b11011110001 $
#1187000
b10010100011 !
b11011110010 "
b10010100011 #
b11011110011 $
#1188000
b10010100100 !
b11011110110 "
b10010100100 #
b11011110010 $
#1189000
b10010100101 !
b11011110111 "
b10010100101 #
b11011110110 $
#1190000
b10010100110 !
b11011110101 "
b10010100110 #
b11011110111 $
#1191000
b10010100111 !
b11011110100 "
b10010100111 #
b11011110101 $
#1192000
b10010101000 !
b11011111100 "
b10010101000 #
b11011110100 $
#1193000
b10010101001 !
b11011111101 "
b10010101001 #
b11011111100 $
#1194000
b10010101010 !
b11011111111 "
b10010101010 #
b11011111101 $
#1195000
b10010101011 !
b11011111110 "
b10010101011 #
b11011111111 $
#1196000
b10010101100 !
b11011111010 "
b10010101100 #
b11011111110 $
#1197000
b10010101101 !
b11011111011 "
b10010101101 #
b11011111010 $
#1198000
b10010101110 !
b11011111001 "
b10010101110 #
b11011111011 $
#1199000
b10010101111 !
b11011111000 "
b10010101111 #
b11011111001 $
#1200000
b10010110000 !
b11011101000 "
b10010110000 #
b11011111000 $
#1201000
b10010110001 !
b11011101001 "
b10010110001 #
b11011101000 $
#1202000
b10010110010 !
b11011101011 "
b10010110010 #
b11011101001 $
#1203000
b10010110011 !
b11011101010 "
b10010110011 #
b11011101011 $
#1204000
b10010110100 !
b11011101110 "
b10010110100 #
b11011101010 $
#1205000
b10010110101 !
b11011101111 "
b10010110101 #
b11011101110 $
#1206000
b10010110110 !
b11011101101 "
b10010110110 #
b11011101111 $
#1207000
b10010110111 !
b11011101100 "
b10010110111 #
b11011101101 $
#1208000
b10010111000 !
b11011100100 "
b10010111000 #
b11011101100 $
#1209000
b10010111001 !
b11011100101 "
b10010111001 #
b11011100100 $
#1210000
b10010111010 !
b11011100111 "
b10010111010 #
b11011100101 $
#1211000
b10010111011 !
b11011100110 "
b10010111011 #
b11011100111 $
#1212000
b10010111100 !
b11011100010 "
b10010111100 #
b11011100110 $
#1213000
b10010111101 !
b11011100011 "
b10010111101 #
b11011100010 $
#1214000
b10010111110 !
b11011100001 "
b10010111110 #
b11011100011 $
#1215000
b10010111111 !
b11011100000 "
b10010111111 #
b11011100001 $
#1216000
b10011000000 !
b11010100000 "
b10011000000 #
b11011100000 $
#1217000
b10011000001 !
b11010100001 "
b10011000001 #
b11010100000 $
#1218000
b10011000010 !
b11010100011 "
b10011000010 #
b11010100001 $
#1219000
b10011000011 !
b11010100010 "
b10011000011 #
b11010100011 $
#1220000
b10011000100 !
b11010100110 "
b10011000100 #
b11010100010 $
#1221000
b10011000101 !
b11010100111 "
b10011000101 #
b11010100110 $
#1222000
b10011000110 !
b11010100101 "
b10011000110 #
b11010100111 $
#1223000
b10011000111 !
b11010100100 "
b10011000111 #
b11010100101 $
#1224000
b10011001000 !
b11010101100 "
b10011001000 #
b11010100100 $
#1225000
b10011001001 !
b11010101101 "
b10011001001 #
b11010101100 $
#1226000
b10011001010 !
b11010101111 "
b10011001010 #
b11010101101 $
#1227000
b10011001011 !
b11010101110 "
b10011001011 #
b11010101111 $
#1228000
b10011001100 !
b11010101010 "
b10011001100 #
b11010101110 $
#1229000
b10011001101 !
b11010101011 "
b10011001101 #
b11010101010 $
#1230000
b10011001110 !
b11010101001 "
b10011001110 #
b11010101011 $
#1231000
b10011001111 !
b11010101000 "
b10011001111 #
b11010101001 $
#1232000
b10011010000 !
b11010111000 "
b10011010000 #
b11010101000 $
#1233000
b10011010001 !
b11010111001 "
b10011010001 #
b11010111000 $
#1234000
b10011010010 !
b11010111011 "
b10011010010 #
b11010111001 $
#1235000
b10011010011 !
b11010111010 "
b10011010011 #
b11010111011 $
#1236000
b10011010100 !
b11010111110 "
b10011010100 #
b11010111010 $
#1237000
b10011010101 !
b11010111111 "
b10011010101 #
b11010111110 $
#1238000
b10011010110 !
b11010111101 "
b10011010110 #
b11010111111 $
#1239000
b10011010111 !
b11010111100 "
b10011010111 #
b11010111101 $
#1240000
b10011011000 !
b11010110100 "
b10011011000 #
b11010111100 $
#1241000
b10011011001 !
b11010110101 "
b10011011001 #
b11010110100 $
#1242000
b10011011010 !
b11010110111 "
b10011011010 #
b11010110101 $
#1243000
b10011011011 !
b11010110110 "
b10011011011 #
b11010110111 $
#1244000
b10011011100 !
b11010110010 "
b10011011100 #
b11010110110 $
#1245000
b10011011101 !
b11010110011 "
b10011011101 #
b11010110010 $
#1246000
b10011011110 !
b11010110001 "
b10011011110 #
b11010110011 $
#1247000
b10011011111 !
b11010110000 "
b10011011111 #
b11010110001 $
#1248000
b10011100000 !
b11010010000 "
b10011100000 #
b11010110000 $
#1249000
b10011100001 !
b11010010001 "
b10011100001 #
b11010010000 $
#1250000
b10011100010 !
b11010010011 "
b10011100010 #
b11010010001 $
#1251000
b10011100011 !
b11010010010 "
b10011100011 #
b11010010011 $
#1252000
b10011100100 !
b11010010110 "
b10011100100 #
b11010010010 $
#1253000
b10011100101 !
b11010010111 "
b10011100101 #
b11010010110 $
#1254000
b10011100110 !
b11010010101 "
b10011100110 #
b11010010111 $
#1255000
b10011100111 !
b11010010100 "
b10011100111 #
b11010010101 $
#1256000
b10011101000 !
b11010011100 "
b10011101000 #
b11010010100 $
#1257000
b10011101001 !
b11010011101 "
b10011101001 #
b11010011100 $
#1258000
b10011101010 !
b11010011111 "
b10011101010 #
b11010011101 $
#1259000
b10011101011 !
b11010011110 "
b10011101011 #
b11010011111 $
#1260000
b10011101100 !
b11010011010 "
b10011101100 #
b11010011110 $
#1261000
b10011101101 !
b11010011011 "
b10011101101 #
b11010011010 $
#1262000
b10011101110 !
b11010011001 "
b10011101110 #
b11010011011 $
#1263000
b10011101111 !
b11010011000 "
b10011101111 #
b11010011001 $
#1264000
b10011110000 !
b11010001000 "
b10011110000 #
b11010011000 $
#1265000
b10011110001 !
b11010001001 "
b10011110001 #
b11010001000 $
#1266000
b10011110010 !
b11010001011 "
b10011110010 #
b11010001001 $
#1267000
b10011110011 !
b11010001010 "
b10011110011 #
b11010001011 $
#1268000
b10011110100 !
b11010001110 "
b10011110100 #
b11010001010 $
#1269000
b10011110101 !
b11010001111 "
b10011110101 #
b11010001110 $
#1270000
b10011110110 !
b11010001101 "
b10011110110 #
b11010001111 $
#1271000
b10011110111 !
b11010001100 "
b10011110111 #
b11010001101 $
#1272000
b10011111000 !
b11010000100 "
b10011111000 #
b11010001100 $
#1273000
b10011111001 !
b11010000101 "
b10011111001 #
b11010000100 $
#1274000
b10011111010 !
b11010000111 "
b10011111010 #
b11010000101 $
#1275000
b10011111011 !
b11010000110 "
b10011111011 #
b11010000111 $
#1276000
b10011111100 !
b11010000010 "
b10011111100 #
b11010000110 $
#1277000
b10011111101 !
b11010000011 "
b10011111101 #
b11010000010 $
#1278000
b10011111110 !
b11010000001 "
b10011111110 #
b11010000011 $
#1279000
b10011111111 !
b11010000000 "
b10011111111 #
b11010000001 $
#1280000
b10100000000 !
b11110000000 "
b10100000000 #
b11010000000 $
#1281000
b10100000001 !
b11110000001 "
b10100000001 #
b11110000000 $
#1282000
b10100000010 !
b11110000011 "
b10100000010 #
b11110000001 $
#1283000
b10100000011 !
b11110000010 "
b10100000011 #
b11110000011 $
#1284000
b10100000100 !
b11110000110 "
b10100000100 #
b11110000010 $
#1285000
b10100000101 !
b11110000111 "
b10100000101 #
b11110000110 $
#1286000
b10100000110 !
b11110000101 "
b10100000110 #
b11110000111 $
#1287000
b10100000111 !
b11110000100 "
b10100000111 #
b11110000101 $
#1288000
b10100001000 !
b11110001100 "
b10100001000 #
b11110000100 $
#1289000
b10100001001 !
b11110001101 "
b10100001001 #
b11110001100 $
#1290000
b10100001010 !
b11110001111 "
b10100001010 #
b11110001101 $
#1291000
b10100001011 !
b11110001110 "
b10100001011 #
b11110001111 $
#1292000
b10100001100 !
b11110001010 "
b10100001100 #
b11110001110 $
#1293000
b10100001101 !
b11110001011 "
b10100001101 #
b11110001010 $
#1294000
b10100001110 !
b11110001001 "
b10100001110 #
b11110001011 $
#1295000
b10100001111 !
b11110001000 "
b10100001111 #
b11110001001 $
#1296000
b10100010000 !
b11110011000 "
b10100010000 #
b11110001000 $
#1297000
b10100010001 !
b11110011001 "
b10100010001 #
b11110011000 $
#1298000
b10100010010 !
b11110011011 "
b10100010010 #
b11110011001 $
#1299000
b10100010011 !
b11110011010 "
b10100010011 #
b11110011011 $
#1300000
b10100010100 !
b11110011110 "
b10100010100 #
b11110011010 $
#1301000
b10100010101 !
b11110011111 "
b10100010101 #
b11110011110 $
#1302000
b10100010110 !
b11110011101 "
b10100010110 #
b11110011111 $
#1303000
b10100010111 !
b11110011100 "
b10100010111 #
b11110011101 $
#1304000
b10100011000 !
b11110010100 "
b10100011000 #
b11110011100 $
#1305000
b10100011001 !
b11110010101 "
b10100011001 #
b11110010100 $
#1306000
b10100011010 !
b11110010111 "
b10100011010 #
b11110010101 $
#1307000
b10100011011 !
b11110010110 "
b10100011011 #
b11110010111 $
#1308000
b10100011100 !
b11110010010 "
b10100011100 #
b11110010110 $
#1309000
b10100011101 !
b11110010011 "
b10100011101 #
b11110010010 $
#1310000
b10100011110 !
b11110010001 "
b10100011110 #
b11110010011 $
#1311000
b10100011111 !
b11110010000 "
b10100011111 #
b11110010001 $
#1312000
b10100100000 !
b11110110000 "
b10100100000 #
b11110010000 $
#1313000
b10100100001 !
b11110110001 "
b10100100001 #
b11110110000 $
#1314000
b10100100010 !
b11110110011 "
b10100100010 #
b11110110001 $
#1315000
b10100100011 !
b11110110010 "
b10100100011 #
b11110110011 $
#1316000
b10100100100 !
b11110110110 "
b10100100100 #
b11110110010 $
#1317000
b10100100101 !
b11110110111 "
b10100100101 #
b11110110110 $
#1318000
b10100100110 !
b11110110101 "
b10100100110 #
b11110110111 $
#1319000
b10100100111 !
b11110110100 "
b10100100111 #
b11110110101 $
#1320000
b10100101000 !
b11110111100 "
b10100101000 #
b11110110100 $
#1321000
b10100101001 !
b11110111101 "
b10100101001 #
b11110111100 $
#1322000
b10100101010 !
b11110111111 "
b10100101010 #
b11110111101 $
#1323000
b10100101011 !
b11110111110 "
b10100101011 #
b11110111111 $
#1324000
b10100101100 !
b11110111010 "
b10100101100 #
b11110111110 $
#1325000
b10100101101 !
b11110111011 "
b10100101101 #
b11110111010 $
#1326000
b10100101110 !
b11110111001 "
b10100101110 #
b11110111011 $
#1327000
b10100101111 !
b11110111000 "
b10100101111 #
b11110111001 $
#1328000
b10100110000 !
b11110101000 "
b10100110000 #
b11110111000 $
#1329000
b10100110001 !
b11110101001 "
b10100110001 #
b11110101000 $
#1330000
b10100110010 !
b11110101011 "
b10100110010 #
b11110101001 $
#1331000
b10100110011 !
b11110101010 "
b10100110011 #
b11110101011 $
#1332000
b10100110100 !
b11110101110 "
b10100110100 #
b11110101010 $
#1333000
b10100110101 !
b11110101111 "
b10100110101 #
b11110101110 $
#1334000
b10100110110 !
b11110101101 "
b10100110110 #
b11110101111 $
#1335000
b10100110111 !
b11110101100 "
b10100110111 #
b11110101101 $
#1336000
b10100111000 !
b11110100100 "
b10100111000 #
b11110101100 $
#1337000
b10100111001 !
b11110100101 "
b10100111001 #
b11110100100 $
#1338000
b10100111010 !
b11110100111 "
b10100111010 #
b11110100101 $
#1339000
b10100111011 !
b11110100110 "
b10100111011 #
b11110100111 $
#1340000
b10100111100 !
b11110100010 "
b10100111100 #
b11110100110 $
#1341000
b10100111101 !
b11110100011 "
b10100111101 #
b11110100010 $
#1342000
b10100111110 !
b11110100001 "
b10100111110 #
b11110100011 $
#1343000
b10100111111 !
b11110100000 "
b10100111111 #
b11110100001 $
#1344000
b10101000000 !
b11111100000 "
b10101000000 #
b11110100000 $
#1345000
b10101000001 !
b11111100001 "
b10101000001 #
b11111100000 $
#1346000
b10101000010 !
b11111100011 "
b10101000010 #
b11111100001 $
#1347000
b10101000011 !
b11111100010 "
b10101000011 #
b11111100011 $
#1348000
b10101000100 !
b11111100110 "
b10101000100 #
b11111100010 $
#1349000
b10101000101 !
b11111100111 "
b10101000101 #
b11111100110 $
#1350000
b10101000110 !
b11111100101 "
b10101000110 #
b11111100111 $
#1351000
b10101000111 !
b11111100100 "
b10101000111 #
b11111100101 $
#1352000
b10101001000 !
b11111101100 "
b10101001000 #
b11111100100 $
#1353000
b10101001001 !
b11111101101 "
b10101001001 #
b11111101100 $
#1354000
b10101001010 !
b11111101111 "
b10101001010 #
b11111101101 $
#1355000
b10101001011 !
b11111101110 "
b10101001011 #
b11111101111 $
#1356000
b10101001100 !
b11111101010 "
b10101001100 #
b11111101110 $
#1357000
b10101001101 !
b11111101011 "
b10101001101 #
b11111101010 $
#1358000
b10101001110 !
b11111101001 "
b10101001110 #
b11111101011 $
#1359000
b10101001111 !
b11111101000 "
b10101001111 #
b11111101001 $
#1360000
b10101010000 !
b11111111000 "
b10101010000 #
b11111101000 $
#1361000
b10101010001 !
b11111111001 "
b10101010001 #
b11111111000 $
#1362000
b10101010010 !
b11111111011 "
b10101010010 #
b11111111001 $
#1363000
b10101010011 !
b11111111010 "
b10101010011 #
b11111111011 $
#1364000
b10101010100 !
b11111111110 "
b10101010100 #
b11111111010 $
#1365000
b10101010101 !
b11111111111 "
b10101010101 #
b11111111110 $
#1366000
b10101010110 !
b11111111101 "
b10101010110 #
b11111111111 $
#1367000
b10101010111 !
b11111111100 "
b10101010111 #
b11111111101 $
#1368000
b10101011000 !
b11111110100 "
b10101011000 #
b11111111100 $
#1369000
b10101011001 !
b11111110101 "
b10101011001 #
b11111110100 $
#1370000
b10101011010 !
b11111110111 "
b10101011010 #
b11111110101 $
#1371000
b10101011011 !
b11111110110 "
b10101011011 #
b11111110111 $
#1372000
b10101011100 !
b11111110010 "
b10101011100 #
b11111110110 $
#1373000
b10101011101 !
b11111110011 "
b10101011101 #
b11111110010 $
#1374000
b10101011110 !
b11111110001 "
b10101011110 #
b11111110011 $
#1375000
b10101011111 !
b11111110000 "
b10101011111 #
b11111110001 $
#1376000
b10101100000 !
b11111010000 "
b10101100000 #
b11111110000 $
#1377000
b10101100001 !
b11111010001 "
b10101100001 #
b11111010000 $
#1378000
b10101100010 !
b11111010011 "
b10101100010 #
b11111010001 $
#1379000
b10101100011 !
b11111010010 "
b10101100011 #
b11111010011 $
#1380000
b10101100100 !
b11111010110 "
b10101100100 #
b11111010010 $
#1381000
b10101100101 !
b11111010111 "
b10101100101 #
b11111010110 $
#1382000
b10101100110 !
b11111010101 "
b10101100110 #
b11111010111 $
#1383000
b10101100111 !
b11111010100 "
b10101100111 #
b11111010101 $
#1384000
b10101101000 !
b11111011100 "
b10101101000 #
b11111010100 $
#1385000
b10101101001 !
b11111011101 "
b10101101001 #
b11111011100 $
#1386000
b10101101010 !
b11111011111 "
b10101101010 #
b11111011101 $
#1387000
b10101101011 !
b11111011110 "
b10101101011 #
b11111011111 $
#1388000
b10101101100 !
b11111011010 "
b10101101100 #
b11111011110 $
#1389000
b10101101101 !
b11111011011 "
b10101101101 #
b11111011010 $
#1390000
b10101101110 !
b11111011001 "
b10101101110 #
b11111011011 $
#1391000
b10101101111 !
b11111011000 "
b10101101111 #
b11111011001 $
#1392000
b10101110000 !
b11111001000 "
b10101110000 #
b11111011000 $
#1393000
b10101110001 !
b11111001001 "
b10101110001 #
b11111001000 $
#1394000
b10101110010 !
b11111001011 "
b10101110010 #
b11111001001 $
#1395000
b10101110011 !
b11111001010 "
b10101110011 #
b11111001011 $
#1396000
b10101110100 !
b11111001110 "
b10101110100 #
b11111001010 $
#1397000
b10101110101 !
b11111001111 "
b10101110101 #
b11111001110 $
#1398000
b10101110110 !
b11111001101 "
b10101110110 #
b11111001111 $
#1399000
b10101110111 !
b11111001100 "
b10101110111 #
b11111001101 $
