vivado-vcd/lfsr.vcd
$date
   Sat Aug 22 12:52:20 2020
$end
$version
  2020.1
$end
$timescale
  1ps
$end
$scope module lfsr_16bit_tb $end
$var reg 1 ! clk_i $end
$var reg 1 " rst_ni $end
$var reg 1 # en_i $end
$var reg 16 $ out_o [15:0] $end
$upscope $end
$enddefinitions $end
#0
$dumpvars
x!
1"
x#
bx $
$end
#1000
0"
b1 $
#2000
1"
#4000
1#
#5000
1!
b11 $
#6000
0!
#7000
1!
b110 $
#8000
0!
#9000
1!
b1100 $
#10000
0!
#11000
1!
b11001 $
#12000
0!
#13000
1!
b110011 $
#14000
0!
#15000
1!
b1100111 $
#16000
0!
#17000
1!
b11001111 $
#18000
0!
#19000
1!
b110011110 $
#20000
0!
#21000
1!
b1100111100 $
#22000
0!
#23000
1!
b11001111000 $
#24000
0!
#25000
1!
b110011110000 $
#26000
0!
#27000
1!
b1100111100000 $
#28000
0!
#29000
1!
b11001111000001 $
#30000
0!
#31000
1!
b110011110000010 $
#32000
0!
#33000
1!
b1100111100000100 $
#34000
0!
#35000
1!
b1001111000001000 $
#36000
0!
#37000
1!
b11110000010001 $
#38000
0!
#39000
1!
b111100000100010 $
#40000
0!
#41000
1!
b1111000001000100 $
#42000
0!
#43000
1!
b1110000010001001 $
#44000
0!
#45000
1!
b1100000100010010 $
#46000
0!
#47000
1!
b1000001000100101 $
#48000
0!
#49000
1!
b10001001011 $
#50000
0!
#51000
1!
b100010010110 $
#52000
0!
#53000
1!
b1000100101100 $
#54000
0!
#55000
1!
b10001001011001 $
#56000
0!
#57000
1!
b100010010110011 $
#58000
0!
#59000
1!
b1000100101100111 $
#60000
0!
#61000
1!
b1001011001110 $
#62000
0!
#63000
1!
b10010110011101 $
#64000
0!
#65000
1!
b100101100111011 $
#66000
0!
#67000
1!
b1001011001110111 $
#68000
0!
#69000
1!
b10110011101111 $
#70000
0!
#71000
1!
b101100111011111 $
#72000
0!
#73000
1!
b1011001110111111 $
#74000
0!
#75000
1!
b110011101111111 $
#76000
0!
#77000
1!
b1100111011111111 $
#78000
0!
#79000
1!
b1001110111111110 $
#80000
0!
#81000
1!
b11101111111101 $
#82000
0!
#83000
1!
b111011111111011 $
#84000
0!
#85000
1!
b1110111111110110 $
#86000
0!
#87000
1!
b1101111111101100 $
#88000
0!
#89000
1!
b1011111111011000 $
#90000
0!
#91000
1!
b111111110110001 $
#92000
0!
#93000
1!
b1111111101100011 $
#94000
0!
#95000
1!
b1111111011000111 $
#96000
0!
#97000
1!
b1111110110001110 $
#98000
0!
#99000
1!
b1111101100011100 $
#100000
0!
#101000
1!
b1111011000111001 $
#102000
0!
#103000
1!
b1110110001110010 $
#104000
0!
#105000
1!
b1101100011100100 $
#106000
0!
#107000
1!
b1011000111001000 $
#108000
0!
#109000
1!
b110001110010001 $
#110000
0!
#111000
1!
b1100011100100011 $
#112000
0!
#113000
1!
b1000111001000110 $
#114000
0!
#115000
1!
b1110010001101 $
#116000
0!
#117000
1!
b11100100011010 $
#118000
0!
#119000
1!
b111001000110101 $
#120000
0!
#121000
1!
b1110010001101011 $
#122000
0!
#123000
1!
b1100100011010110 $
#124000
0!
#125000
1!
b1001000110101101 $
#126000
0!
#127000
1!
b10001101011010 $
#128000
0!
#129000
1!
b100011010110100 $
#130000
0!
#131000
1!
b1000110101101000 $
#132000
0!
#133000
1!
b1101011010001 $
#134000
0!
#135000
1!
b11010110100010 $
#136000
0!
#137000
1!
b110101101000100 $
#138000
0!
#139000
1!
b1101011010001001 $
#140000
0!
#141000
1!
b1010110100010011 $
#142000
0!
#143000
1!
b101101000100111 $
#144000
0!
#145000
1!
b1011010001001110 $
#146000
0!
#147000
1!
b110100010011100 $
#148000
0!
#149000
1!
b1101000100111001 $
#150000
0!
#151000
1!
b1010001001110010 $
#152000
0!
#153000
1!
b100010011100100 $
#154000
0!
#155000
1!
b1000100111001000 $
#156000
0!
#157000
1!
b1001110010000 $
#158000
0!
#159000
1!
b10011100100000 $
#160000
0!
#161000
1!
b100111001000000 $
#162000
0!
#163000
1!
b1001110010000001 $
#164000
0!
#165000
1!
b11100100000011 $
#166000
0!
#167000
1!
b111001000000111 $
#168000
0!
#169000
1!
b1110010000001111 $
#170000
0!
#171000
1!
b1100100000011111 $
#172000
0!
#173000
1!
b1001000000111111 $
#174000
0!
#175000
1!
b10000001111111 $
#176000
0!
#177000
1!
b100000011111111 $
#178000
0!
#179000
1!
b1000000111111111 $
#180000
0!
#181000
1!
b1111111110 $
#182000
0!
#183000
1!
b11111111101 $
#184000
0!
#185000
1!
b111111111010 $
#186000
0!
#187000
1!
b1111111110101 $
#188000
0!
#189000
1!
b11111111101011 $
#190000
0!
#191000
1!
b111111111010110 $
#192000
0!
#193000
1!
b1111111110101101 $
#194000
0!
#195000
1!
b1111111101011010 $
#196000
0!
#197000
1!
b1111111010110100 $
#198000
0!
#199000
1!
b1111110101101000 $
#200000
0!
#201000
1!
b1111101011010000 $
#202000
0!
#203000
1!
b1111010110100001 $
#204000
0!
#205000
1!
b1110101101000010 $
#206000
0!
#207000
1!
b1101011010000101 $
#208000
0!
#209000
1!
b1010110100001011 $
#210000
0!
#211000
1!
b101101000010111 $
#212000
0!
#213000
1!
b1011010000101111 $
#214000
0!
#215000
1!
b110100001011111 $
#216000
0!
#217000
1!
b1101000010111110 $
#218000
0!
#219000
1!
b1010000101111101 $
#220000
0!
#221000
1!
b100001011111011 $
#222000
0!
#223000
1!
b1000010111110111 $
#224000
0!
#225000
1!
b101111101110 $
#226000
0!
#227000
1!
b1011111011101 $
#228000
0!
#229000
1!
b10111110111010 $
#230000
0!
#231000
1!
b101111101110101 $
#232000
0!
#233000
1!
b1011111011101011 $
#234000
0!
#235000
1!
b111110111010111 $
#236000
0!
#237000
1!
b1111101110101111 $
#238000
0!
#239000
1!
b1111011101011111 $
#240000
0!
#241000
1!
b1110111010111110 $
#242000
0!
#243000
1!
b1101110101111100 $
#244000
0!
#245000
1!
b1011101011111000 $
#246000
0!
#247000
1!
b111010111110000 $
#248000
0!
#249000
1!
b1110101111100001 $
#250000
0!
#251000
1!
b1101011111000011 $
#252000
0!
#253000
1!
b1010111110000110 $
#254000
0!
#255000
1!
b101111100001101 $
#256000
0!
#257000
1!
b1011111000011010 $
#258000
0!
#259000
1!
b111110000110100 $
#260000
0!
#261000
1!
b1111100001101001 $
#262000
0!
#263000
1!
b1111000011010010 $
#264000
0!
#265000
1!
b1110000110100100 $
#266000
0!
#267000
1!
b1100001101001001 $
#268000
0!
#269000
1!
b1000011010010010 $
#270000
0!
#271000
1!
b110100100101 $
#272000
0!
#273000
1!
b1101001001010 $
#274000
0!
#275000
1!
b11010010010101 $
#276000
0!
#277000
1!
b110100100101010 $
#278000
0!
#279000
1!
b1101001001010101 $
#280000
0!
#281000
1!
b1010010010101011 $
#282000
0!
#283000
1!
b100100101010110 $
#284000
0!
#285000
1!
b1001001010101100 $
#286000
0!
#287000
1!
b10010101011000 $
#288000
0!
#289000
1!
b100101010110001 $
#290000
0!
#291000
1!
b1001010101100010 $
#292000
0!
#293000
1!
b10101011000101 $
#294000
0!
#295000
1!
b101010110001011 $
#296000
0!
#297000
1!
b1010101100010111 $
#298000
0!
#299000
1!
b101011000101111 $
#300000
0!
#301000
1!
b1010110001011110 $
#302000
0!
#303000
1!
b101100010111101 $
#304000
0!
#305000
1!
b1011000101111011 $
#306000
0!
#307000
1!
b110001011110111 $
#308000
0!
#309000
1!
b1100010111101111 $
#310000
0!
#311000
1!
b1000101111011110 $
#312000
0!
#313000
1!
b1011110111101 $
#314000
0!
#315000
1!
b10111101111011 $
#316000
0!
#317000
1!
b101111011110111 $
#318000
0!
#319000
1!
b1011110111101110 $
#320000
0!
#321000
1!
b111101111011101 $
#322000
0!
#323000
1!
b1111011110111010 $
#324000
0!
#325000
1!
b1110111101110101 $
#326000
0!
#327000
1!
b1101111011101011 $
#328000
0!
#329000
1!
b1011110111010111 $
#330000
0!
#331000
1!
b111101110101110 $
#332000
0!
#333000
1!
b1111011101011100 $
#334000
0!
#335000
1!
b1110111010111001 $
#336000
0!
#337000
1!
b1101110101110011 $
#338000
0!
#339000
1!
b1011101011100111 $
#340000
0!
#341000
1!
b111010111001111 $
#342000
0!
#343000
1!
b1110101110011111 $
#344000
0!
#345000
1!
b1101011100111111 $
#346000
0!
#347000
1!
b1010111001111111 $
#348000
0!
#349000
1!
b101110011111110 $
#350000
0!
#351000
1!
b1011100111111100 $
#352000
0!
#353000
1!
b111001111111000 $
#354000
0!
#355000
1!
b1110011111110001 $
#356000
0!
#357000
1!
b1100111111100011 $
#358000
0!
#359000
1!
b1001111111000110 $
#360000
0!
#361000
1!
b11111110001100 $
#362000
0!
#363000
1!
b111111100011000 $
#364000
0!
#365000
1!
b1111111000110000 $
#366000
0!
#367000
1!
b1111110001100000 $
#368000
0!
#369000
1!
b1111100011000000 $
#370000
0!
#371000
1!
b1111000110000001 $
#372000
0!
#373000
1!
b1110001100000011 $
#374000
0!
#375000
1!
b1100011000000111 $
#376000
0!
#377000
1!
b1000110000001111 $
#378000
0!
#379000
1!
b1100000011111 $
#380000
0!
#381000
1!
b11000000111111 $
#382000
0!
#383000
1!
b110000001111110 $
#384000
0!
#385000
1!
b1100000011111101 $
#386000
0!
#387000
1!
b1000000111111011 $
#388000
0!
#389000
1!
b1111110110 $
#390000
0!
#391000
1!
b11111101101 $
#392000
0!
#393000
1!
b111111011010 $
#394000
0!
#395000
1!
b1111110110100 $
#396000
0!
#397000
1!
b11111101101001 $
#398000
0!
#399000
1!
b111111011010011 $
#400000
0!
#401000
1!
b1111110110100111 $
#402000
0!
#403000
1!
b1111101101001111 $
#404000
0!
#405000
1!
b1111011010011110 $
#406000
0!
#407000
1!
b1110110100111100 $
#408000
0!
#409000
1!
b1101101001111001 $
#410000
0!
#411000
1!
b1011010011110010 $
#412000
0!
#413000
1!
b110100111100101 $
#414000
0!
#415000
1!
b1101001111001010 $
#416000
0!
#417000
1!
b1010011110010100 $
#418000
0!
#419000
1!
b100111100101000 $
#420000
0!
#421000
1!
b1001111001010000 $
#422000
0!
#423000
1!
b11110010100001 $
#424000
0!
#425000
1!
b111100101000011 $
#426000
0!
#427000
1!
b1111001010000111 $
#428000
0!
#429000
1!
b1110010100001110 $
#430000
0!
#431000
1!
b1100101000011101 $
#432000
0!
#433000
1!
b1001010000111010 $
#434000
0!
#435000
1!
b10100001110101 $
#436000
0!
#437000
1!
b101000011101010 $
#438000
0!
#439000
1!
b1010000111010100 $
#440000
0!
#441000
1!
b100001110101000 $
#442000
0!
#443000
1!
b1000011101010000 $
#444000
0!
#445000
1!
b111010100000 $
#446000
0!
#447000
1!
b1110101000000 $
#448000
0!
#449000
1!
b11101010000000 $
#450000
0!
#451000
1!
b111010100000000 $
#452000
0!
#453000
1!
b1110101000000000 $
#454000
0!
#455000
1!
b1101010000000000 $
#456000
0!
#457000
1!
b1010100000000001 $
#458000
0!
#459000
1!
b101000000000010 $
#460000
0!
#461000
1!
b1010000000000101 $
#462000
0!
#463000
1!
b100000000001010 $
#464000
0!
#465000
1!
b1000000000010100 $
#466000
0!
#467000
1!
b101000 $
#468000
0!
#469000
1!
b1010000 $
#470000
0!
#471000
1!
b10100001 $
#472000
0!
#473000
1!
b101000010 $
#474000
0!
#475000
1!
b1010000100 $
#476000
0!
#477000
1!
b10100001001 $
#478000
0!
#479000
1!
b101000010011 $
#480000
0!
#481000
1!
b1010000100110 $
#482000
0!
#483000
1!
b10100001001100 $
#484000
0!
#485000
1!
b101000010011001 $
#486000
0!
#487000
1!
b1010000100110010 $
#488000
0!
#489000
1!
b100001001100100 $
#490000
0!
#491000
1!
b1000010011001000 $
#492000
0!
#493000
1!
b100110010000 $
#494000
0!
#495000
1!
b1001100100001 $
#496000
0!
#497000
1!
b10011001000011 $
#498000
0!
#499000
1!
b100110010000110 $
#500000
0!
#501000
1!
b1001100100001100 $
#502000
0!
#503000
1!
b11001000011001 $
#504000
0!
#505000
1!
b110010000110010 $
#506000
0!
#507000
1!
b1100100001100101 $
#508000
0!
#509000
1!
b1001000011001011 $
#510000
0!
#511000
1!
b10000110010110 $
#512000
0!
#513000
1!
b100001100101100 $
#514000
0!
#515000
1!
b1000011001011000 $
#516000
0!
#517000
1!
b110010110000 $
#518000
0!
#519000
1!
b1100101100000 $
#520000
0!
#521000
1!
b11001011000001 $
#522000
0!
#523000
1!
b110010110000010 $
#524000
0!
#525000
1!
b1100101100000100 $
#526000
0!
#527000
1!
b1001011000001000 $
#528000
0!
#529000
1!
b10110000010001 $
#530000
0!
#531000
1!
b101100000100011 $
#532000
0!
#533000
1!
b1011000001000110 $
#534000
0!
#535000
1!
b110000010001100 $
#536000
0!
#537000
1!
b1100000100011001 $
#538000
0!
#539000
1!
b1000001000110010 $
#540000
0!
#541000
1!
b10001100100 $
#542000
0!
#543000
1!
b100011001000 $
#544000
0!
#545000
1!
b1000110010001 $
#546000
0!
#547000
1!
b10001100100010 $
#548000
0!
#549000
1!
b100011001000101 $
#550000
0!
#551000
1!
b1000110010001011 $
#552000
0!
#553000
1!
b1100100010111 $
#554000
0!
#555000
1!
b11001000101111 $
#556000
0!
#557000
1!
b110010001011110 $
#558000
0!
#559000
1!
b1100100010111100 $
#560000
0!
#561000
1!
b1001000101111001 $
#562000
0!
#563000
1!
b10001011110010 $
#564000
0!
#565000
1!
b100010111100101 $
#566000
0!
#567000
1!
b1000101111001010 $
#568000
0!
#569000
1!
b1011110010101 $
#570000
0!
#571000
1!
b10111100101010 $
#572000
0!
#573000
1!
b101111001010101 $
#574000
0!
#575000
1!
b1011110010101010 $
#576000
0!
#577000
1!
b111100101010101 $
#578000
0!
#579000
1!
b1111001010101010 $
#580000
0!
#581000
1!
b1110010101010101 $
#582000
0!
#583000
1!
b1100101010101010 $
#584000
0!
#585000
1!
b1001010101010100 $
#586000
0!
#587000
1!
b10101010101001 $
#588000
0!
#589000
1!
b101010101010010 $
#590000
0!
#591000
1!
b1010101010100101 $
#592000
0!
#593000
1!
b101010101001011 $
#594000
0!
#595000
1!
b1010101010010111 $
#596000
0!
#597000
1!
b101010100101111 $
#598000
0!
#599000
1!
b1010101001011110 $
#600000
0!
#601000
1!
b101010010111101 $
#602000
0!
#603000
1!
b1010100101111011 $
#604000
0!
#605000
1!
b101001011110110 $
#606000
0!
#607000
1!
b1010010111101100 $
#608000
0!
#609000
1!
b100101111011001 $
#610000
0!
#611000
1!
b1001011110110011 $
#612000
0!
#613000
1!
b10111101100111 $
#614000
0!
#615000
1!
b101111011001111 $
#616000
0!
#617000
1!
b1011110110011111 $
#618000
0!
#619000
1!
b111101100111110 $
#620000
0!
#621000
1!
b1111011001111100 $
#622000
0!
#623000
1!
b1110110011111000 $
#624000
0!
#625000
1!
b1101100111110001 $
#626000
0!
#627000
1!
b1011001111100010 $
#628000
0!
#629000
1!
b110011111000101 $
#630000
0!
#631000
1!
b1100111110001011 $
#632000
0!
#633000
1!
b1001111100010111 $
#634000
0!
#635000
1!
b11111000101110 $
#636000
0!
#637000
1!
b111110001011100 $
#638000
0!
#639000
1!
b1111100010111000 $
#640000
0!
#641000
1!
b1111000101110000 $
#642000
0!
#643000
1!
b1110001011100000 $
#644000
0!
#645000
1!
b1100010111000001 $
#646000
0!
#647000
1!
b1000101110000010 $
#648000
0!
#649000
1!
b1011100000101 $
#650000
0!
#651000
1!
b10111000001010 $
#652000
0!
#653000
1!
b101110000010100 $
#654000
0!
#655000
1!
b1011100000101000 $
#656000
0!
#657000
1!
b111000001010000 $
#658000
0!
#659000
1!
b1110000010100000 $
#660000
0!
#661000
1!
b1100000101000001 $
#662000
0!
#663000
1!
b1000001010000010 $
#664000
0!
#665000
1!
b10100000101 $
#666000
0!
#667000
1!
b101000001011 $
#668000
0!
#669000
1!
b1010000010110 $
#670000
0!
#671000
1!
b10100000101101 $
#672000
0!
#673000
1!
b101000001011010 $
#674000
0!
#675000
1!
b1010000010110101 $
#676000
0!
#677000
1!
b100000101101011 $
#678000
0!
#679000
1!
b1000001011010111 $
#680000
0!
#681000
1!
b10110101111 $
#682000
0!
#683000
1!
b101101011111 $
#684000
0!
#685000
1!
b1011010111110 $
#686000
0!
#687000
1!
b10110101111100 $
#688000
0!
#689000
1!
b101101011111000 $
#690000
0!
#691000
1!
b1011010111110001 $
#692000
0!
#693000
1!
b110101111100010 $
#694000
0!
#695000
1!
b1101011111000101 $
#696000
0!
#697000
1!
b1010111110001011 $
#698000
0!
#699000
1!
b101111100010111 $
#700000
0!
#701000
1!
b1011111000101111 $
#702000
0!
#703000
1!
b111110001011111 $
#704000
0!
#705000
1!
b1111100010111111 $
#706000
0!
#707000
1!
b1111000101111111 $
#708000
0!
#709000
1!
b1110001011111111 $
#710000
0!
#711000
1!
b1100010111111110 $
#712000
0!
#713000
1!
b1000101111111100 $
#714000
0!
#715000
1!
b1011111111001 $
#716000
0!
#717000
1!
b10111111110011 $
#718000
0!
#719000
1!
b101111111100111 $
#720000
0!
#721000
1!
b1011111111001110 $
#722000
0!
#723000
1!
b111111110011100 $
#724000
0!
#725000
1!
b1111111100111000 $
#726000
0!
#727000
1!
b1111111001110000 $
#728000
0!
#729000
1!
b1111110011100000 $
#730000
0!
#731000
1!
b1111100111000000 $
#732000
0!
#733000
1!
b1111001110000001 $
#734000
0!
#735000
1!
b1110011100000011 $
#736000
0!
#737000
1!
b1100111000000111 $
#738000
0!
#739000
1!
b1001110000001111 $
#740000
0!
#741000
1!
b11100000011110 $
#742000
0!
#743000
1!
b111000000111101 $
#744000
0!
#745000
1!
b1110000001111011 $
#746000
0!
#747000
1!
b1100000011110110 $
#748000
0!
#749000
1!
b1000000111101100 $
#750000
0!
#751000
1!
b1111011001 $
#752000
0!
#753000
1!
b11110110011 $
#754000
0!
#755000
1!
b111101100111 $
#756000
0!
#757000
1!
b1111011001111 $
#758000
0!
#759000
1!
b11110110011111 $
#760000
0!
#761000
1!
b111101100111111 $
#762000
0!
#763000
1!
b1111011001111110 $
#764000
0!
#765000
1!
b1110110011111101 $
#766000
0!
#767000
1!
b1101100111111011 $
#768000
0!
#769000
1!
b1011001111110111 $
#770000
0!
#771000
1!
b110011111101111 $
#772000
0!
#773000
1!
b1100111111011111 $
#774000
0!
#775000
1!
b1001111110111111 $
#776000
0!
#777000
1!
b11111101111111 $
#778000
0!
#779000
1!
b111111011111110 $
#780000
0!
#781000
1!
b1111110111111100 $
#782000
0!
#783000
1!
b1111101111111000 $
#784000
0!
#785000
1!
b1111011111110000 $
#786000
0!
#787000
1!
b1110111111100000 $
#788000
0!
#789000
1!
b1101111111000001 $
#790000
0!
#791000
1!
b1011111110000011 $
#792000
0!
#793000
1!
b111111100000110 $
#794000
0!
#795000
1!
b1111111000001101 $
#796000
0!
#797000
1!
b1111110000011011 $
#798000
0!
#799000
1!
b1111100000110110 $
#800000
0!
#801000
1!
b1111000001101101 $
#802000
0!
#803000
1!
b1110000011011010 $
#804000
0!
#805000
1!
b1100000110110101 $
#806000
0!
#807000
1!
b1000001101101011 $
#808000
0!
#809000
1!
b11011010110 $
#810000
0!
#811000
1!
b110110101100 $
#812000
0!
#813000
1!
b1101101011000 $
#814000
0!
#815000
1!
b11011010110000 $
#816000
0!
#817000
1!
b110110101100001 $
#818000
0!
#819000
1!
b1101101011000010 $
#820000
0!
#821000
1!
b1011010110000100 $
#822000
0!
#823000
1!
b110101100001001 $
#824000
0!
#825000
1!
b1101011000010011 $
#826000
0!
#827000
1!
b1010110000100110 $
#828000
0!
#829000
1!
b101100001001100 $
#830000
0!
#831000
1!
b1011000010011000 $
#832000
0!
#833000
1!
b110000100110001 $
#834000
0!
#835000
1!
b1100001001100010 $
#836000
0!
#837000
1!
b1000010011000100 $
#838000
0!
#839000
1!
b100110001000 $
#840000
0!
#841000
1!
b1001100010001 $
#842000
0!
#843000
1!
b10011000100010 $
#844000
0!
#845000
1!
b100110001000101 $
#846000
0!
#847000
1!
b1001100010001011 $
#848000
0!
#849000
1!
b11000100010110 $
#850000
0!
#851000
1!
b110001000101101 $
#852000
0!
#853000
1!
b1100010001011010 $
#854000
0!
#855000
1!
b1000100010110101 $
#856000
0!
#857000
1!
b1000101101011 $
#858000
0!
#859000
1!
b10001011010110 $
#860000
0!
#861000
1!
b100010110101100 $
#862000
0!
#863000
1!
b1000101101011000 $
#864000
0!
#865000
1!
b1011010110000 $
#866000
0!
#867000
1!
b10110101100001 $
#868000
0!
#869000
1!
b101101011000010 $
#870000
0!
#871000
1!
b1011010110000101 $
#872000
0!
#873000
1!
b110101100001011 $
#874000
0!
#875000
1!
b1101011000010110 $
#876000
0!
#877000
1!
b1010110000101100 $
#878000
0!
#879000
1!
b101100001011001 $
#880000
0!
#881000
1!
b1011000010110010 $
#882000
0!
#883000
1!
b110000101100101 $
#884000
0!
#885000
1!
b1100001011001010 $
#886000
0!
#887000
1!
b1000010110010101 $
#888000
0!
#889000
1!
b101100101010 $
#890000
0!
#891000
1!
b1011001010101 $
#892000
0!
#893000
1!
b10110010101010 $
#894000
0!
#895000
1!
b101100101010101 $
#896000
0!
#897000
1!
b1011001010101010 $
#898000
0!
#899000
1!
b110010101010101 $
#900000
0!
#901000
1!
b1100101010101011 $
#902000
0!
#903000
1!
b1001010101010110 $
#904000
0!
#905000
1!
b10101010101100 $
#906000
0!
#907000
1!
b101010101011000 $
#908000
0!
#909000
1!
b1010101010110000 $
#910000
0!
#911000
1!
b101010101100001 $
#912000
0!
#913000
1!
b1010101011000011 $
#914000
0!
#915000
1!
b101010110000111 $
#916000
0!
#917000
1!
b1010101100001111 $
#918000
0!
#919000
1!
b101011000011111 $
#920000
0!
#921000
1!
b1010110000111111 $
#922000
0!
#923000
1!
b101100001111110 $
#924000
0!
#925000
1!
b1011000011111100 $
#926000
0!
#927000
1!
b110000111111000 $
#928000
0!
#929000
1!
b1100001111110000 $
#930000
0!
#931000
1!
b1000011111100001 $
#932000
0!
#933000
1!
b111111000011 $
#934000
0!
#935000
1!
b1111110000110 $
#936000
0!
#937000
1!
b11111100001101 $
#938000
0!
#939000
1!
b111111000011010 $
#940000
0!
#941000
1!
b1111110000110101 $
#942000
0!
#943000
1!
b1111100001101010 $
#944000
0!
#945000
1!
b1111000011010101 $
#946000
0!
#947000
1!
b1110000110101011 $
#948000
0!
#949000
1!
b1100001101010110 $
#950000
0!
#951000
1!
b1000011010101101 $
#952000
0!
#953000
1!
b110101011011 $
#954000
0!
#955000
1!
b1101010110110 $
#956000
0!
#957000
1!
b11010101101100 $
#958000
0!
#959000
1!
b110101011011001 $
#960000
0!
#961000
1!
b1101010110110011 $
#962000
0!
#963000
1!
b1010101101100111 $
#964000
0!
#965000
1!
b101011011001110 $
#966000
0!
#967000
1!
b1010110110011101 $
#968000
0!
#969000
1!
b101101100111010 $
#970000
0!
#971000
1!
b1011011001110100 $
#972000
0!
#973000
1!
b110110011101000 $
#974000
0!
#975000
1!
b1101100111010000 $
#976000
0!
#977000
1!
b1011001110100001 $
#978000
0!
#979000
1!
b110011101000010 $
#980000
0!
#981000
1!
b1100111010000100 $
#982000
0!
#983000
1!
b1001110100001000 $
#984000
0!
#985000
1!
b11101000010001 $
#986000
0!
#987000
1!
b111010000100010 $
#988000
0!
#989000
1!
b1110100001000100 $
#990000
0!
#991000
1!
b1101000010001000 $
#992000
0!
#993000
1!
b1010000100010001 $
#994000
0!
#995000
1!
b100001000100010 $
#996000
0!
#997000
1!
b1000010001000101 $
#998000
0!
#999000
1!
b100010001010 $
