vivado-vcd/lzc.vcd
$date
   Sat Aug 22 17:53:33 2020
$end
$version
  2020.1
$end
$timescale
  1ps
$end
$scope module lzc_tb $end
$var reg 16 ! in_i [15:0] $end
$var reg 4 " cnt_o [3:0] $end
$var reg 1 # empty_o $end
$var reg 1 $ clk_i $end
$var reg 1 % rst_ni $end
$var parameter 32 & WIDTH [31:0] $end
$upscope $end
$enddefinitions $end
#0
$dumpvars
bx !
bx "
x#
x$
1%
b10000 &
$end
#1000
b1 !
b1111 "
0#
0%
#2000
1%
#5000
b11 !
b1110 "
1$
#6000
0$
#7000
b110 !
b1101 "
1$
#8000
0$
#9000
b1100 !
b1100 "
1$
#10000
0$
#11000
b11001 !
b1011 "
1$
#12000
0$
#13000
b110011 !
b1010 "
1$
#14000
0$
#15000
b1100111 !
b1001 "
1$
#16000
0$
#17000
b11001111 !
b1000 "
1$
#18000
0$
#19000
b110011110 !
b111 "
1$
#20000
0$
#21000
b1100111100 !
b110 "
1$
#22000
0$
#23000
b11001111000 !
b101 "
1$
#24000
0$
#25000
b110011110000 !
b100 "
1$
#26000
0$
#27000
b1100111100000 !
b11 "
1$
#28000
0$
#29000
b11001111000001 !
b10 "
1$
#30000
0$
#31000
b110011110000010 !
b1 "
1$
#32000
0$
#33000
b1100111100000100 !
b0 "
1$
#34000
0$
#35000
b1001111000001000 !
1$
#36000
0$
#37000
b11110000010001 !
b10 "
1$
#38000
0$
#39000
b111100000100010 !
b1 "
1$
#40000
0$
#41000
b1111000001000100 !
b0 "
1$
#42000
0$
#43000
b1110000010001001 !
1$
#44000
0$
#45000
b1100000100010010 !
1$
#46000
0$
#47000
b1000001000100101 !
1$
#48000
0$
#49000
b10001001011 !
b101 "
1$
#50000
0$
#51000
b100010010110 !
b100 "
1$
#52000
0$
#53000
b1000100101100 !
b11 "
1$
#54000
0$
#55000
b10001001011001 !
b10 "
1$
#56000
0$
#57000
b100010010110011 !
b1 "
1$
#58000
0$
#59000
b1000100101100111 !
b0 "
1$
#60000
0$
#61000
b1001011001110 !
b11 "
1$
#62000
0$
#63000
b10010110011101 !
b10 "
1$
#64000
0$
#65000
b100101100111011 !
b1 "
1$
#66000
0$
#67000
b1001011001110111 !
b0 "
1$
#68000
0$
#69000
b10110011101111 !
b10 "
1$
#70000
0$
#71000
b101100111011111 !
b1 "
1$
#72000
0$
#73000
b1011001110111111 !
b0 "
1$
#74000
0$
#75000
b110011101111111 !
b1 "
1$
#76000
0$
#77000
b1100111011111111 !
b0 "
1$
#78000
0$
#79000
b1001110111111110 !
1$
#80000
0$
#81000
b11101111111101 !
b10 "
1$
#82000
0$
#83000
b111011111111011 !
b1 "
1$
#84000
0$
#85000
b1110111111110110 !
b0 "
1$
#86000
0$
#87000
b1101111111101100 !
1$
#88000
0$
#89000
b1011111111011000 !
1$
#90000
0$
#91000
b111111110110001 !
b1 "
1$
#92000
0$
#93000
b1111111101100011 !
b0 "
1$
#94000
0$
#95000
b1111111011000111 !
1$
#96000
0$
#97000
b1111110110001110 !
1$
#98000
0$
#99000
b1111101100011100 !
1$
#100000
0$
#101000
b1111011000111001 !
1$
#102000
0$
#103000
b1110110001110010 !
1$
#104000
0$
#105000
b1101100011100100 !
1$
#106000
0$
#107000
b1011000111001000 !
1$
#108000
0$
#109000
b110001110010001 !
b1 "
1$
#110000
0$
#111000
b1100011100100011 !
b0 "
1$
#112000
0$
#113000
b1000111001000110 !
1$
#114000
0$
#115000
b1110010001101 !
b11 "
1$
#116000
0$
#117000
b11100100011010 !
b10 "
1$
#118000
0$
#119000
b111001000110101 !
b1 "
1$
#120000
0$
#121000
b1110010001101011 !
b0 "
1$
#122000
0$
#123000
b1100100011010110 !
1$
#124000
0$
#125000
b1001000110101101 !
1$
#126000
0$
#127000
b10001101011010 !
b10 "
1$
#128000
0$
#129000
b100011010110100 !
b1 "
1$
#130000
0$
#131000
b1000110101101000 !
b0 "
1$
#132000
0$
#133000
b1101011010001 !
b11 "
1$
#134000
0$
#135000
b11010110100010 !
b10 "
1$
#136000
0$
#137000
b110101101000100 !
b1 "
1$
#138000
0$
#139000
b1101011010001001 !
b0 "
1$
#140000
0$
#141000
b1010110100010011 !
1$
#142000
0$
#143000
b101101000100111 !
b1 "
1$
#144000
0$
#145000
b1011010001001110 !
b0 "
1$
#146000
0$
#147000
b110100010011100 !
b1 "
1$
#148000
0$
#149000
b1101000100111001 !
b0 "
1$
#150000
0$
#151000
b1010001001110010 !
1$
#152000
0$
#153000
b100010011100100 !
b1 "
1$
#154000
0$
#155000
b1000100111001000 !
b0 "
1$
#156000
0$
#157000
b1001110010000 !
b11 "
1$
#158000
0$
#159000
b10011100100000 !
b10 "
1$
#160000
0$
#161000
b100111001000000 !
b1 "
1$
#162000
0$
#163000
b1001110010000001 !
b0 "
1$
#164000
0$
#165000
b11100100000011 !
b10 "
1$
#166000
0$
#167000
b111001000000111 !
b1 "
1$
#168000
0$
#169000
b1110010000001111 !
b0 "
1$
#170000
0$
#171000
b1100100000011111 !
1$
#172000
0$
#173000
b1001000000111111 !
1$
#174000
0$
#175000
b10000001111111 !
b10 "
1$
#176000
0$
#177000
b100000011111111 !
b1 "
1$
#178000
0$
#179000
b1000000111111111 !
b0 "
1$
#180000
0$
#181000
b1111111110 !
b110 "
1$
#182000
0$
#183000
b11111111101 !
b101 "
1$
#184000
0$
#185000
b111111111010 !
b100 "
1$
#186000
0$
#187000
b1111111110101 !
b11 "
1$
#188000
0$
#189000
b11111111101011 !
b10 "
1$
#190000
0$
#191000
b111111111010110 !
b1 "
1$
#192000
0$
#193000
b1111111110101101 !
b0 "
1$
#194000
0$
#195000
b1111111101011010 !
1$
#196000
0$
#197000
b1111111010110100 !
1$
#198000
0$
#199000
b1111110101101000 !
1$
#200000
0$
#201000
b1111101011010000 !
1$
#202000
0$
#203000
b1111010110100001 !
1$
#204000
0$
#205000
b1110101101000010 !
1$
#206000
0$
#207000
b1101011010000101 !
1$
#208000
0$
#209000
b1010110100001011 !
1$
#210000
0$
#211000
b101101000010111 !
b1 "
1$
#212000
0$
#213000
b1011010000101111 !
b0 "
1$
#214000
0$
#215000
b110100001011111 !
b1 "
1$
#216000
0$
#217000
b1101000010111110 !
b0 "
1$
#218000
0$
#219000
b1010000101111101 !
1$
#220000
0$
#221000
b100001011111011 !
b1 "
1$
#222000
0$
#223000
b1000010111110111 !
b0 "
1$
#224000
0$
#225000
b101111101110 !
b100 "
1$
#226000
0$
#227000
b1011111011101 !
b11 "
1$
#228000
0$
#229000
b10111110111010 !
b10 "
1$
#230000
0$
#231000
b101111101110101 !
b1 "
1$
#232000
0$
#233000
b1011111011101011 !
b0 "
1$
#234000
0$
#235000
b111110111010111 !
b1 "
1$
#236000
0$
#237000
b1111101110101111 !
b0 "
1$
#238000
0$
#239000
b1111011101011111 !
1$
#240000
0$
#241000
b1110111010111110 !
1$
#242000
0$
#243000
b1101110101111100 !
1$
#244000
0$
#245000
b1011101011111000 !
1$
#246000
0$
#247000
b111010111110000 !
b1 "
1$
#248000
0$
#249000
b1110101111100001 !
b0 "
1$
#250000
0$
#251000
b1101011111000011 !
1$
#252000
0$
#253000
b1010111110000110 !
1$
#254000
0$
#255000
b101111100001101 !
b1 "
1$
#256000
0$
#257000
b1011111000011010 !
b0 "
1$
#258000
0$
#259000
b111110000110100 !
b1 "
1$
#260000
0$
#261000
b1111100001101001 !
b0 "
1$
#262000
0$
#263000
b1111000011010010 !
1$
#264000
0$
#265000
b1110000110100100 !
1$
#266000
0$
#267000
b1100001101001001 !
1$
#268000
0$
#269000
b1000011010010010 !
1$
#270000
0$
#271000
b110100100101 !
b100 "
1$
#272000
0$
#273000
b1101001001010 !
b11 "
1$
#274000
0$
#275000
b11010010010101 !
b10 "
1$
#276000
0$
#277000
b110100100101010 !
b1 "
1$
#278000
0$
#279000
b1101001001010101 !
b0 "
1$
#280000
0$
#281000
b1010010010101011 !
1$
#282000
0$
#283000
b100100101010110 !
b1 "
1$
#284000
0$
#285000
b1001001010101100 !
b0 "
1$
#286000
0$
#287000
b10010101011000 !
b10 "
1$
#288000
0$
#289000
b100101010110001 !
b1 "
1$
#290000
0$
#291000
b1001010101100010 !
b0 "
1$
#292000
0$
#293000
b10101011000101 !
b10 "
1$
#294000
0$
#295000
b101010110001011 !
b1 "
1$
#296000
0$
#297000
b1010101100010111 !
b0 "
1$
#298000
0$
#299000
b101011000101111 !
b1 "
1$
#300000
0$
#301000
b1010110001011110 !
b0 "
1$
#302000
0$
#303000
b101100010111101 !
b1 "
1$
#304000
0$
#305000
b1011000101111011 !
b0 "
1$
#306000
0$
#307000
b110001011110111 !
b1 "
1$
#308000
0$
#309000
b1100010111101111 !
b0 "
1$
#310000
0$
#311000
b1000101111011110 !
1$
#312000
0$
#313000
b1011110111101 !
b11 "
1$
#314000
0$
#315000
b10111101111011 !
b10 "
1$
#316000
0$
#317000
b101111011110111 !
b1 "
1$
#318000
0$
#319000
b1011110111101110 !
b0 "
1$
#320000
0$
#321000
b111101111011101 !
b1 "
1$
#322000
0$
#323000
b1111011110111010 !
b0 "
1$
#324000
0$
#325000
b1110111101110101 !
1$
#326000
0$
#327000
b1101111011101011 !
1$
#328000
0$
#329000
b1011110111010111 !
1$
#330000
0$
#331000
b111101110101110 !
b1 "
1$
#332000
0$
#333000
b1111011101011100 !
b0 "
1$
#334000
0$
#335000
b1110111010111001 !
1$
#336000
0$
#337000
b1101110101110011 !
1$
#338000
0$
#339000
b1011101011100111 !
1$
#340000
0$
#341000
b111010111001111 !
b1 "
1$
#342000
0$
#343000
b1110101110011111 !
b0 "
1$
#344000
0$
#345000
b1101011100111111 !
1$
#346000
0$
#347000
b1010111001111111 !
1$
#348000
0$
#349000
b101110011111110 !
b1 "
1$
#350000
0$
#351000
b1011100111111100 !
b0 "
1$
#352000
0$
#353000
b111001111111000 !
b1 "
1$
#354000
0$
#355000
b1110011111110001 !
b0 "
1$
#356000
0$
#357000
b1100111111100011 !
1$
#358000
0$
#359000
b1001111111000110 !
1$
#360000
0$
#361000
b11111110001100 !
b10 "
1$
#362000
0$
#363000
b111111100011000 !
b1 "
1$
#364000
0$
#365000
b1111111000110000 !
b0 "
1$
#366000
0$
#367000
b1111110001100000 !
1$
#368000
0$
#369000
b1111100011000000 !
1$
#370000
0$
#371000
b1111000110000001 !
1$
#372000
0$
#373000
b1110001100000011 !
1$
#374000
0$
#375000
b1100011000000111 !
1$
#376000
0$
#377000
b1000110000001111 !
1$
#378000
0$
#379000
b1100000011111 !
b11 "
1$
#380000
0$
#381000
b11000000111111 !
b10 "
1$
#382000
0$
#383000
b110000001111110 !
b1 "
1$
#384000
0$
#385000
b1100000011111101 !
b0 "
1$
#386000
0$
#387000
b1000000111111011 !
1$
#388000
0$
#389000
b1111110110 !
b110 "
1$
#390000
0$
#391000
b11111101101 !
b101 "
1$
#392000
0$
#393000
b111111011010 !
b100 "
1$
#394000
0$
#395000
b1111110110100 !
b11 "
1$
#396000
0$
#397000
b11111101101001 !
b10 "
1$
#398000
0$
#399000
b111111011010011 !
b1 "
1$
#400000
0$
#401000
b1111110110100111 !
b0 "
1$
#402000
0$
#403000
b1111101101001111 !
1$
#404000
0$
#405000
b1111011010011110 !
1$
#406000
0$
#407000
b1110110100111100 !
1$
#408000
0$
#409000
b1101101001111001 !
1$
#410000
0$
#411000
b1011010011110010 !
1$
#412000
0$
#413000
b110100111100101 !
b1 "
1$
#414000
0$
#415000
b1101001111001010 !
b0 "
1$
#416000
0$
#417000
b1010011110010100 !
1$
#418000
0$
#419000
b100111100101000 !
b1 "
1$
#420000
0$
#421000
b1001111001010000 !
b0 "
1$
#422000
0$
#423000
b11110010100001 !
b10 "
1$
#424000
0$
#425000
b111100101000011 !
b1 "
1$
#426000
0$
#427000
b1111001010000111 !
b0 "
1$
#428000
0$
#429000
b1110010100001110 !
1$
#430000
0$
#431000
b1100101000011101 !
1$
#432000
0$
#433000
b1001010000111010 !
1$
#434000
0$
#435000
b10100001110101 !
b10 "
1$
#436000
0$
#437000
b101000011101010 !
b1 "
1$
#438000
0$
#439000
b1010000111010100 !
b0 "
1$
#440000
0$
#441000
b100001110101000 !
b1 "
1$
#442000
0$
#443000
b1000011101010000 !
b0 "
1$
#444000
0$
#445000
b111010100000 !
b100 "
1$
#446000
0$
#447000
b1110101000000 !
b11 "
1$
#448000
0$
#449000
b11101010000000 !
b10 "
1$
#450000
0$
#451000
b111010100000000 !
b1 "
1$
#452000
0$
#453000
b1110101000000000 !
b0 "
1$
#454000
0$
#455000
b1101010000000000 !
1$
#456000
0$
#457000
b1010100000000001 !
1$
#458000
0$
#459000
b101000000000010 !
b1 "
1$
#460000
0$
#461000
b1010000000000101 !
b0 "
1$
#462000
0$
#463000
b100000000001010 !
b1 "
1$
#464000
0$
#465000
b1000000000010100 !
b0 "
1$
#466000
0$
#467000
b101000 !
b1010 "
1$
#468000
0$
#469000
b1010000 !
b1001 "
1$
#470000
0$
#471000
b10100001 !
b1000 "
1$
#472000
0$
#473000
b101000010 !
b111 "
1$
#474000
0$
#475000
b1010000100 !
b110 "
1$
#476000
0$
#477000
b10100001001 !
b101 "
1$
#478000
0$
#479000
b101000010011 !
b100 "
1$
#480000
0$
#481000
b1010000100110 !
b11 "
1$
#482000
0$
#483000
b10100001001100 !
b10 "
1$
#484000
0$
#485000
b101000010011001 !
b1 "
1$
#486000
0$
#487000
b1010000100110010 !
b0 "
1$
#488000
0$
#489000
b100001001100100 !
b1 "
1$
#490000
0$
#491000
b1000010011001000 !
b0 "
1$
#492000
0$
#493000
b100110010000 !
b100 "
1$
#494000
0$
#495000
b1001100100001 !
b11 "
1$
#496000
0$
#497000
b10011001000011 !
b10 "
1$
#498000
0$
#499000
b100110010000110 !
b1 "
1$
#500000
0$
#501000
b1001100100001100 !
b0 "
1$
#502000
0$
#503000
b11001000011001 !
b10 "
1$
#504000
0$
#505000
b110010000110010 !
b1 "
1$
#506000
0$
#507000
b1100100001100101 !
b0 "
1$
#508000
0$
#509000
b1001000011001011 !
1$
#510000
0$
#511000
b10000110010110 !
b10 "
1$
#512000
0$
#513000
b100001100101100 !
b1 "
1$
#514000
0$
#515000
b1000011001011000 !
b0 "
1$
#516000
0$
#517000
b110010110000 !
b100 "
1$
#518000
0$
#519000
b1100101100000 !
b11 "
1$
#520000
0$
#521000
b11001011000001 !
b10 "
1$
#522000
0$
#523000
b110010110000010 !
b1 "
1$
#524000
0$
#525000
b1100101100000100 !
b0 "
1$
#526000
0$
#527000
b1001011000001000 !
1$
#528000
0$
#529000
b10110000010001 !
b10 "
1$
#530000
0$
#531000
b101100000100011 !
b1 "
1$
#532000
0$
#533000
b1011000001000110 !
b0 "
1$
#534000
0$
#535000
b110000010001100 !
b1 "
1$
#536000
0$
#537000
b1100000100011001 !
b0 "
1$
#538000
0$
#539000
b1000001000110010 !
1$
#540000
0$
#541000
b10001100100 !
b101 "
1$
#542000
0$
#543000
b100011001000 !
b100 "
1$
#544000
0$
#545000
b1000110010001 !
b11 "
1$
#546000
0$
#547000
b10001100100010 !
b10 "
1$
#548000
0$
#549000
b100011001000101 !
b1 "
1$
#550000
0$
#551000
b1000110010001011 !
b0 "
1$
#552000
0$
#553000
b1100100010111 !
b11 "
1$
#554000
0$
#555000
b11001000101111 !
b10 "
1$
#556000
0$
#557000
b110010001011110 !
b1 "
1$
#558000
0$
#559000
b1100100010111100 !
b0 "
1$
#560000
0$
#561000
b1001000101111001 !
1$
#562000
0$
#563000
b10001011110010 !
b10 "
1$
#564000
0$
#565000
b100010111100101 !
b1 "
1$
#566000
0$
#567000
b1000101111001010 !
b0 "
1$
#568000
0$
#569000
b1011110010101 !
b11 "
1$
#570000
0$
#571000
b10111100101010 !
b10 "
1$
#572000
0$
#573000
b101111001010101 !
b1 "
1$
#574000
0$
#575000
b1011110010101010 !
b0 "
1$
#576000
0$
#577000
b111100101010101 !
b1 "
1$
#578000
0$
#579000
b1111001010101010 !
b0 "
1$
#580000
0$
#581000
b1110010101010101 !
1$
#582000
0$
#583000
b1100101010101010 !
1$
#584000
0$
#585000
b1001010101010100 !
1$
#586000
0$
#587000
b10101010101001 !
b10 "
1$
#588000
0$
#589000
b101010101010010 !
b1 "
1$
#590000
0$
#591000
b1010101010100101 !
b0 "
1$
#592000
0$
#593000
b101010101001011 !
b1 "
1$
#594000
0$
#595000
b1010101010010111 !
b0 "
1$
#596000
0$
#597000
b101010100101111 !
b1 "
1$
#598000
0$
#599000
b1010101001011110 !
b0 "
1$
#600000
0$
#601000
b101010010111101 !
b1 "
1$
#602000
0$
#603000
b1010100101111011 !
b0 "
1$
#604000
0$
#605000
b101001011110110 !
b1 "
1$
#606000
0$
#607000
b1010010111101100 !
b0 "
1$
#608000
0$
#609000
b100101111011001 !
b1 "
1$
#610000
0$
#611000
b1001011110110011 !
b0 "
1$
#612000
0$
#613000
b10111101100111 !
b10 "
1$
#614000
0$
#615000
b101111011001111 !
b1 "
1$
#616000
0$
#617000
b1011110110011111 !
b0 "
1$
#618000
0$
#619000
b111101100111110 !
b1 "
1$
#620000
0$
#621000
b1111011001111100 !
b0 "
1$
#622000
0$
#623000
b1110110011111000 !
1$
#624000
0$
#625000
b1101100111110001 !
1$
#626000
0$
#627000
b1011001111100010 !
1$
#628000
0$
#629000
b110011111000101 !
b1 "
1$
#630000
0$
#631000
b1100111110001011 !
b0 "
1$
#632000
0$
#633000
b1001111100010111 !
1$
#634000
0$
#635000
b11111000101110 !
b10 "
1$
#636000
0$
#637000
b111110001011100 !
b1 "
1$
#638000
0$
#639000
b1111100010111000 !
b0 "
1$
#640000
0$
#641000
b1111000101110000 !
1$
#642000
0$
#643000
b1110001011100000 !
1$
#644000
0$
#645000
b1100010111000001 !
1$
#646000
0$
#647000
b1000101110000010 !
1$
#648000
0$
#649000
b1011100000101 !
b11 "
1$
#650000
0$
#651000
b10111000001010 !
b10 "
1$
#652000
0$
#653000
b101110000010100 !
b1 "
1$
#654000
0$
#655000
b1011100000101000 !
b0 "
1$
#656000
0$
#657000
b111000001010000 !
b1 "
1$
#658000
0$
#659000
b1110000010100000 !
b0 "
1$
#660000
0$
#661000
b1100000101000001 !
1$
#662000
0$
#663000
b1000001010000010 !
1$
#664000
0$
#665000
b10100000101 !
b101 "
1$
#666000
0$
#667000
b101000001011 !
b100 "
1$
#668000
0$
#669000
b1010000010110 !
b11 "
1$
#670000
0$
#671000
b10100000101101 !
b10 "
1$
#672000
0$
#673000
b101000001011010 !
b1 "
1$
#674000
0$
#675000
b1010000010110101 !
b0 "
1$
#676000
0$
#677000
b100000101101011 !
b1 "
1$
#678000
0$
#679000
b1000001011010111 !
b0 "
1$
#680000
0$
#681000
b10110101111 !
b101 "
1$
#682000
0$
#683000
b101101011111 !
b100 "
1$
#684000
0$
#685000
b1011010111110 !
b11 "
1$
#686000
0$
#687000
b10110101111100 !
b10 "
1$
#688000
0$
#689000
b101101011111000 !
b1 "
1$
#690000
0$
#691000
b1011010111110001 !
b0 "
1$
#692000
0$
#693000
b110101111100010 !
b1 "
1$
#694000
0$
#695000
b1101011111000101 !
b0 "
1$
#696000
0$
#697000
b1010111110001011 !
1$
#698000
0$
#699000
b101111100010111 !
b1 "
1$
#700000
0$
#701000
b1011111000101111 !
b0 "
1$
#702000
0$
#703000
b111110001011111 !
b1 "
1$
#704000
0$
#705000
b1111100010111111 !
b0 "
1$
#706000
0$
#707000
b1111000101111111 !
1$
#708000
0$
#709000
b1110001011111111 !
1$
#710000
0$
#711000
b1100010111111110 !
1$
#712000
0$
#713000
b1000101111111100 !
1$
#714000
0$
#715000
b1011111111001 !
b11 "
1$
#716000
0$
#717000
b10111111110011 !
b10 "
1$
#718000
0$
#719000
b101111111100111 !
b1 "
1$
#720000
0$
#721000
b1011111111001110 !
b0 "
1$
#722000
0$
#723000
b111111110011100 !
b1 "
1$
#724000
0$
#725000
b1111111100111000 !
b0 "
1$
#726000
0$
#727000
b1111111001110000 !
1$
#728000
0$
#729000
b1111110011100000 !
1$
#730000
0$
#731000
b1111100111000000 !
1$
#732000
0$
#733000
b1111001110000001 !
1$
#734000
0$
#735000
b1110011100000011 !
1$
#736000
0$
#737000
b1100111000000111 !
1$
#738000
0$
#739000
b1001110000001111 !
1$
#740000
0$
#741000
b11100000011110 !
b10 "
1$
#742000
0$
#743000
b111000000111101 !
b1 "
1$
#744000
0$
#745000
b1110000001111011 !
b0 "
1$
#746000
0$
#747000
b1100000011110110 !
1$
#748000
0$
#749000
b1000000111101100 !
1$
#750000
0$
#751000
b1111011001 !
b110 "
1$
#752000
0$
#753000
b11110110011 !
b101 "
1$
#754000
0$
#755000
b111101100111 !
b100 "
1$
#756000
0$
#757000
b1111011001111 !
b11 "
1$
#758000
0$
#759000
b11110110011111 !
b10 "
1$
#760000
0$
#761000
b111101100111111 !
b1 "
1$
#762000
0$
#763000
b1111011001111110 !
b0 "
1$
#764000
0$
#765000
b1110110011111101 !
1$
#766000
0$
#767000
b1101100111111011 !
1$
#768000
0$
#769000
b1011001111110111 !
1$
#770000
0$
#771000
b110011111101111 !
b1 "
1$
#772000
0$
#773000
b1100111111011111 !
b0 "
1$
#774000
0$
#775000
b1001111110111111 !
1$
#776000
0$
#777000
b11111101111111 !
b10 "
1$
#778000
0$
#779000
b111111011111110 !
b1 "
1$
#780000
0$
#781000
b1111110111111100 !
b0 "
1$
#782000
0$
#783000
b1111101111111000 !
1$
#784000
0$
#785000
b1111011111110000 !
1$
#786000
0$
#787000
b1110111111100000 !
1$
#788000
0$
#789000
b1101111111000001 !
1$
#790000
0$
#791000
b1011111110000011 !
1$
#792000
0$
#793000
b111111100000110 !
b1 "
1$
#794000
0$
#795000
b1111111000001101 !
b0 "
1$
#796000
0$
#797000
b1111110000011011 !
1$
#798000
0$
#799000
b1111100000110110 !
1$
#800000
0$
#801000
b1111000001101101 !
1$
#802000
0$
#803000
b1110000011011010 !
1$
#804000
0$
#805000
b1100000110110101 !
1$
#806000
0$
#807000
b1000001101101011 !
1$
#808000
0$
#809000
b11011010110 !
b101 "
1$
#810000
0$
#811000
b110110101100 !
b100 "
1$
#812000
0$
#813000
b1101101011000 !
b11 "
1$
#814000
0$
#815000
b11011010110000 !
b10 "
1$
#816000
0$
#817000
b110110101100001 !
b1 "
1$
#818000
0$
#819000
b1101101011000010 !
b0 "
1$
#820000
0$
#821000
b1011010110000100 !
1$
#822000
0$
#823000
b110101100001001 !
b1 "
1$
#824000
0$
#825000
b1101011000010011 !
b0 "
1$
#826000
0$
#827000
b1010110000100110 !
1$
#828000
0$
#829000
b101100001001100 !
b1 "
1$
#830000
0$
#831000
b1011000010011000 !
b0 "
1$
#832000
0$
#833000
b110000100110001 !
b1 "
1$
#834000
0$
#835000
b1100001001100010 !
b0 "
1$
#836000
0$
#837000
b1000010011000100 !
1$
#838000
0$
#839000
b100110001000 !
b100 "
1$
#840000
0$
#841000
b1001100010001 !
b11 "
1$
#842000
0$
#843000
b10011000100010 !
b10 "
1$
#844000
0$
#845000
b100110001000101 !
b1 "
1$
#846000
0$
#847000
b1001100010001011 !
b0 "
1$
#848000
0$
#849000
b11000100010110 !
b10 "
1$
#850000
0$
#851000
b110001000101101 !
b1 "
1$
#852000
0$
#853000
b1100010001011010 !
b0 "
1$
#854000
0$
#855000
b1000100010110101 !
1$
#856000
0$
#857000
b1000101101011 !
b11 "
1$
#858000
0$
#859000
b10001011010110 !
b10 "
1$
#860000
0$
#861000
b100010110101100 !
b1 "
1$
#862000
0$
#863000
b1000101101011000 !
b0 "
1$
#864000
0$
#865000
b1011010110000 !
b11 "
1$
#866000
0$
#867000
b10110101100001 !
b10 "
1$
#868000
0$
#869000
b101101011000010 !
b1 "
1$
#870000
0$
#871000
b1011010110000101 !
b0 "
1$
#872000
0$
#873000
b110101100001011 !
b1 "
1$
#874000
0$
#875000
b1101011000010110 !
b0 "
1$
#876000
0$
#877000
b1010110000101100 !
1$
#878000
0$
#879000
b101100001011001 !
b1 "
1$
#880000
0$
#881000
b1011000010110010 !
b0 "
1$
#882000
0$
#883000
b110000101100101 !
b1 "
1$
#884000
0$
#885000
b1100001011001010 !
b0 "
1$
#886000
0$
#887000
b1000010110010101 !
1$
#888000
0$
#889000
b101100101010 !
b100 "
1$
#890000
0$
#891000
b1011001010101 !
b11 "
1$
#892000
0$
#893000
b10110010101010 !
b10 "
1$
#894000
0$
#895000
b101100101010101 !
b1 "
1$
#896000
0$
#897000
b1011001010101010 !
b0 "
1$
#898000
0$
#899000
b110010101010101 !
b1 "
1$
#900000
0$
#901000
b1100101010101011 !
b0 "
1$
#902000
0$
#903000
b1001010101010110 !
1$
#904000
0$
#905000
b10101010101100 !
b10 "
1$
#906000
0$
#907000
b101010101011000 !
b1 "
1$
#908000
0$
#909000
b1010101010110000 !
b0 "
1$
#910000
0$
#911000
b101010101100001 !
b1 "
1$
#912000
0$
#913000
b1010101011000011 !
b0 "
1$
#914000
0$
#915000
b101010110000111 !
b1 "
1$
#916000
0$
#917000
b1010101100001111 !
b0 "
1$
#918000
0$
#919000
b101011000011111 !
b1 "
1$
#920000
0$
#921000
b1010110000111111 !
b0 "
1$
#922000
0$
#923000
b101100001111110 !
b1 "
1$
#924000
0$
#925000
b1011000011111100 !
b0 "
1$
#926000
0$
#927000
b110000111111000 !
b1 "
1$
#928000
0$
#929000
b1100001111110000 !
b0 "
1$
#930000
0$
#931000
b1000011111100001 !
1$
#932000
0$
#933000
b111111000011 !
b100 "
1$
#934000
0$
#935000
b1111110000110 !
b11 "
1$
#936000
0$
#937000
b11111100001101 !
b10 "
1$
#938000
0$
#939000
b111111000011010 !
b1 "
1$
#940000
0$
#941000
b1111110000110101 !
b0 "
1$
#942000
0$
#943000
b1111100001101010 !
1$
#944000
0$
#945000
b1111000011010101 !
1$
#946000
0$
#947000
b1110000110101011 !
1$
#948000
0$
#949000
b1100001101010110 !
1$
#950000
0$
#951000
b1000011010101101 !
1$
#952000
0$
#953000
b110101011011 !
b100 "
1$
#954000
0$
#955000
b1101010110110 !
b11 "
1$
#956000
0$
#957000
b11010101101100 !
b10 "
1$
#958000
0$
#959000
b110101011011001 !
b1 "
1$
#960000
0$
#961000
b1101010110110011 !
b0 "
1$
#962000
0$
#963000
b1010101101100111 !
1$
#964000
0$
#965000
b101011011001110 !
b1 "
1$
#966000
0$
#967000
b1010110110011101 !
b0 "
1$
#968000
0$
#969000
b101101100111010 !
b1 "
1$
#970000
0$
#971000
b1011011001110100 !
b0 "
1$
#972000
0$
#973000
b110110011101000 !
b1 "
1$
#974000
0$
#975000
b1101100111010000 !
b0 "
1$
#976000
0$
#977000
b1011001110100001 !
1$
#978000
0$
#979000
b110011101000010 !
b1 "
1$
#980000
0$
#981000
b1100111010000100 !
b0 "
1$
#982000
0$
#983000
b1001110100001000 !
1$
#984000
0$
#985000
b11101000010001 !
b10 "
1$
#986000
0$
#987000
b111010000100010 !
b1 "
1$
#988000
0$
#989000
b1110100001000100 !
b0 "
1$
#990000
0$
#991000
b1101000010001000 !
1$
#992000
0$
#993000
b1010000100010001 !
1$
#994000
0$
#995000
b100001000100010 !
b1 "
1$
#996000
0$
#997000
b1000010001000101 !
b0 "
1$
#998000
0$
#999000
b100010001010 !
b100 "
1$
#1000000
0$
#1001000
b1000100010100 !
b11 "
1$
#1002000
0$
#1003000
b10001000101000 !
b10 "
1$
#1004000
0$
#1005000
b100010001010000 !
b1 "
1$
#1006000
0$
#1007000
b1000100010100001 !
b0 "
1$
#1008000
0$
#1009000
b1000101000011 !
b11 "
1$
#1010000
0$
#1011000
b10001010000111 !
b10 "
1$
#1012000
0$
#1013000
b100010100001110 !
b1 "
1$
#1014000
0$
#1015000
b1000101000011100 !
b0 "
1$
#1016000
0$
#1017000
b1010000111000 !
b11 "
1$
#1018000
0$
#1019000
b10100001110001 !
b10 "
1$
#1020000
0$
#1021000
b101000011100010 !
b1 "
1$
#1022000
0$
#1023000
b1010000111000100 !
b0 "
1$
#1024000
0$
#1025000
b100001110001000 !
b1 "
1$
#1026000
0$
#1027000
b1000011100010001 !
b0 "
1$
#1028000
0$
#1029000
b111000100010 !
b100 "
1$
#1030000
0$
#1031000
b1110001000101 !
b11 "
1$
#1032000
0$
#1033000
b11100010001010 !
b10 "
1$
#1034000
0$
#1035000
b111000100010101 !
b1 "
1$
#1036000
0$
#1037000
b1110001000101010 !
b0 "
1$
#1038000
0$
#1039000
b1100010001010100 !
1$
#1040000
0$
#1041000
b1000100010101000 !
1$
#1042000
0$
#1043000
b1000101010001 !
b11 "
1$
#1044000
0$
#1045000
b10001010100010 !
b10 "
1$
#1046000
0$
#1047000
b100010101000101 !
b1 "
1$
#1048000
0$
#1049000
b1000101010001011 !
b0 "
1$
#1050000
0$
#1051000
b1010100010111 !
b11 "
1$
#1052000
0$
#1053000
b10101000101111 !
b10 "
1$
#1054000
0$
#1055000
b101010001011111 !
b1 "
1$
#1056000
0$
#1057000
b1010100010111111 !
b0 "
1$
#1058000
0$
#1059000
b101000101111110 !
b1 "
1$
#1060000
0$
#1061000
b1010001011111100 !
b0 "
1$
#1062000
0$
#1063000
b100010111111001 !
b1 "
1$
#1064000
0$
#1065000
b1000101111110010 !
b0 "
1$
#1066000
0$
#1067000
b1011111100100 !
b11 "
1$
#1068000
0$
#1069000
b10111111001001 !
b10 "
1$
#1070000
0$
#1071000
b101111110010011 !
b1 "
1$
#1072000
0$
#1073000
b1011111100100111 !
b0 "
1$
#1074000
0$
#1075000
b111111001001111 !
b1 "
1$
#1076000
0$
#1077000
b1111110010011111 !
b0 "
1$
#1078000
0$
#1079000
b1111100100111110 !
1$
#1080000
0$
#1081000
b1111001001111101 !
1$
#1082000
0$
#1083000
b1110010011111010 !
1$
#1084000
0$
