vivado-vcd/rr_arb_tree.vcd
$date
   Sat Aug 22 13:17:36 2020
$end
$version
  2020.1
$end
$timescale
  1ps
$end
$scope module rr_arb_tree_tb $end
$var reg 1 ! clk_i $end
$var reg 1 " rst_ni $end
$var reg 1 # flush_i $end
$var reg 3 $ rr_i [2:0] $end
$var reg 8 % req_i [7:0] $end
$var reg 8 & gnt_o [7:0] $end
$var reg 256 ' data_i [7:0] $end
$var reg 1 ( gnt_i $end
$var reg 1 ) req_o $end
$var reg 32 * data_o [31:0] $end
$var reg 3 + idx_o [2:0] $end
$var parameter 32 , NumIn [31:0] $end
$var parameter 32 - DataWidth [31:0] $end
$upscope $end
$enddefinitions $end
#0
$dumpvars
x!
1"
x#
bx $
b11111111 %
bx &
bx '
1(
1)
bx *
bx +
b1000 ,
b100000 -
$end
#1000
0"
b1 &
b0 +
#2000
1"
#5000
1!
b10 &
b1 +
#6000
0!
#7000
1!
b100 &
b10 +
#8000
0!
#9000
1!
b1000 &
b11 +
#10000
0!
#11000
1!
b10000 &
b100 +
#12000
0!
#13000
1!
b100000 &
b101 +
#14000
0!
#15000
1!
b1000000 &
b110 +
#16000
0!
#17000
1!
b10000000 &
b111 +
#18000
0!
#19000
1!
b1 &
b0 +
#20000
0!
#21000
1!
b10 &
b1 +
#22000
0!
#23000
1!
b100 &
b10 +
#24000
0!
#25000
1!
b1000 &
b11 +
#26000
0!
#27000
1!
b10000 &
b100 +
#28000
0!
#29000
1!
b100000 &
b101 +
#30000
0!
#31000
1!
b1000000 &
b110 +
#32000
0!
#33000
1!
b10000000 &
b111 +
#34000
0!
#35000
1!
b1 &
b0 +
#36000
0!
#37000
1!
b10 &
b1 +
#38000
0!
#39000
1!
b100 &
b10 +
#40000
0!
#41000
1!
b1000 &
b11 +
#42000
0!
#43000
1!
b10000 &
b100 +
#44000
0!
#45000
1!
b100000 &
b101 +
#46000
0!
#47000
1!
b1000000 &
b110 +
#48000
0!
#49000
1!
b10000000 &
b111 +
#50000
0!
#51000
1!
b1 &
b0 +
#52000
0!
#53000
1!
b10 &
b1 +
#54000
0!
#55000
1!
b100 &
b10 +
#56000
0!
#57000
1!
b1000 &
b11 +
#58000
0!
#59000
1!
b10000 &
b100 +
#60000
0!
#61000
1!
b100000 &
b101 +
#62000
0!
#63000
1!
b1000000 &
b110 +
#64000
0!
#65000
1!
b10000000 &
b111 +
#66000
0!
#67000
1!
b1 &
b0 +
#68000
0!
#69000
1!
b10 &
b1 +
#70000
0!
#71000
1!
b100 &
b10 +
#72000
0!
#73000
1!
b1000 &
b11 +
#74000
0!
#75000
1!
b10000 &
b100 +
#76000
0!
#77000
1!
b100000 &
b101 +
#78000
0!
#79000
1!
b1000000 &
b110 +
#80000
0!
#81000
1!
b10000000 &
b111 +
#82000
0!
#83000
1!
b1 &
b0 +
#84000
0!
#85000
1!
b10 &
b1 +
#86000
0!
#87000
1!
b100 &
b10 +
#88000
0!
#89000
1!
b1000 &
b11 +
#90000
0!
#91000
1!
b10000 &
b100 +
#92000
0!
#93000
1!
b100000 &
b101 +
#94000
0!
#95000
1!
b1000000 &
b110 +
#96000
0!
#97000
1!
b10000000 &
b111 +
#98000
0!
#99000
1!
b1 &
b0 +
#100000
0!
#101000
1!
b10 &
b1 +
#102000
0!
#103000
1!
b100 &
b10 +
#104000
0!
#105000
1!
b1000 &
b11 +
#106000
0!
#107000
1!
b10000 &
b100 +
#108000
0!
#109000
1!
b100000 &
b101 +
#110000
0!
#111000
1!
b1000000 &
b110 +
#112000
0!
#113000
1!
b10000000 &
b111 +
#114000
0!
#115000
1!
b1 &
b0 +
#116000
0!
#117000
1!
b10 &
b1 +
#118000
0!
#119000
1!
b100 &
b10 +
#120000
0!
#121000
1!
b1000 &
b11 +
#122000
0!
#123000
1!
b10000 &
b100 +
#124000
0!
#125000
1!
b100000 &
b101 +
#126000
0!
#127000
1!
b1000000 &
b110 +
#128000
0!
#129000
1!
b10000000 &
b111 +
#130000
0!
#131000
1!
b1 &
b0 +
#132000
0!
#133000
1!
b10 &
b1 +
#134000
0!
#135000
1!
b100 &
b10 +
#136000
0!
#137000
1!
b1000 &
b11 +
#138000
0!
#139000
1!
b10000 &
b100 +
#140000
0!
#141000
1!
b100000 &
b101 +
#142000
0!
#143000
1!
b1000000 &
b110 +
#144000
0!
#145000
1!
b10000000 &
b111 +
#146000
0!
#147000
1!
b1 &
b0 +
#148000
0!
#149000
1!
b10 &
b1 +
#150000
0!
#151000
1!
b100 &
b10 +
#152000
0!
#153000
1!
b1000 &
b11 +
#154000
0!
#155000
1!
b10000 &
b100 +
#156000
0!
#157000
1!
b100000 &
b101 +
#158000
0!
#159000
1!
b1000000 &
b110 +
#160000
0!
#161000
1!
b10000000 &
b111 +
#162000
0!
#163000
1!
b1 &
b0 +
#164000
0!
#165000
1!
b10 &
b1 +
#166000
0!
#167000
1!
b100 &
b10 +
#168000
0!
#169000
1!
b1000 &
b11 +
#170000
0!
#171000
1!
b10000 &
b100 +
#172000
0!
#173000
1!
b100000 &
b101 +
#174000
0!
#175000
1!
b1000000 &
b110 +
#176000
0!
#177000
1!
b10000000 &
b111 +
#178000
0!
#179000
1!
b1 &
b0 +
#180000
0!
#181000
1!
b10 &
b1 +
#182000
0!
#183000
1!
b100 &
b10 +
#184000
0!
#185000
1!
b1000 &
b11 +
#186000
0!
#187000
1!
b10000 &
b100 +
#188000
0!
#189000
1!
b100000 &
b101 +
#190000
0!
#191000
1!
b1000000 &
b110 +
#192000
0!
#193000
1!
b10000000 &
b111 +
#194000
0!
#195000
1!
b1 &
b0 +
#196000
0!
#197000
1!
b10 &
b1 +
#198000
0!
#199000
1!
b100 &
b10 +
#200000
0!
#201000
1!
b1000 &
b11 +
#202000
0!
#203000
1!
b10000 &
b100 +
#204000
0!
#205000
1!
b100000 &
b101 +
#206000
0!
#207000
1!
b1000000 &
b110 +
#208000
0!
#209000
1!
b10000000 &
b111 +
#210000
0!
#211000
1!
b1 &
b0 +
#212000
0!
#213000
1!
b10 &
b1 +
#214000
0!
#215000
1!
b100 &
b10 +
#216000
0!
#217000
1!
b1000 &
b11 +
#218000
0!
#219000
1!
b10000 &
b100 +
#220000
0!
#221000
1!
b100000 &
b101 +
#222000
0!
#223000
1!
b1000000 &
b110 +
#224000
0!
#225000
1!
b10000000 &
b111 +
#226000
0!
#227000
1!
b1 &
b0 +
#228000
0!
#229000
1!
b10 &
b1 +
#230000
0!
#231000
1!
b100 &
b10 +
#232000
0!
#233000
1!
b1000 &
b11 +
#234000
0!
#235000
1!
b10000 &
b100 +
#236000
0!
#237000
1!
b100000 &
b101 +
#238000
0!
#239000
1!
b1000000 &
b110 +
#240000
0!
#241000
1!
b10000000 &
b111 +
#242000
0!
#243000
1!
b1 &
b0 +
#244000
0!
#245000
1!
b10 &
b1 +
#246000
0!
#247000
1!
b100 &
b10 +
#248000
0!
#249000
1!
b1000 &
b11 +
#250000
0!
#251000
1!
b10000 &
b100 +
#252000
0!
#253000
1!
b100000 &
b101 +
#254000
0!
#255000
1!
b1000000 &
b110 +
#256000
0!
#257000
1!
b10000000 &
b111 +
#258000
0!
#259000
1!
b1 &
b0 +
#260000
0!
#261000
1!
b10 &
b1 +
#262000
0!
#263000
1!
b100 &
b10 +
#264000
0!
#265000
1!
b1000 &
b11 +
#266000
0!
#267000
1!
b10000 &
b100 +
#268000
0!
#269000
1!
b100000 &
b101 +
#270000
0!
#271000
1!
b1000000 &
b110 +
#272000
0!
#273000
1!
b10000000 &
b111 +
#274000
0!
#275000
1!
b1 &
b0 +
#276000
0!
#277000
1!
b10 &
b1 +
#278000
0!
#279000
1!
b100 &
b10 +
#280000
0!
#281000
1!
b1000 &
b11 +
#282000
0!
#283000
1!
b10000 &
b100 +
#284000
0!
#285000
1!
b100000 &
b101 +
#286000
0!
#287000
1!
b1000000 &
b110 +
#288000
0!
#289000
1!
b10000000 &
b111 +
#290000
0!
#291000
1!
b1 &
b0 +
#292000
0!
#293000
1!
b10 &
b1 +
#294000
0!
#295000
1!
b100 &
b10 +
#296000
0!
#297000
1!
b1000 &
b11 +
#298000
0!
#299000
1!
b10000 &
b100 +
#300000
0!
#301000
1!
b100000 &
b101 +
#302000
0!
#303000
1!
b1000000 &
b110 +
#304000
0!
#305000
1!
b10000000 &
b111 +
#306000
0!
#307000
1!
b1 &
b0 +
#308000
0!
#309000
1!
b10 &
b1 +
#310000
0!
#311000
1!
b100 &
b10 +
#312000
0!
#313000
1!
b1000 &
b11 +
#314000
0!
#315000
1!
b10000 &
b100 +
#316000
0!
#317000
1!
b100000 &
b101 +
#318000
0!
#319000
1!
b1000000 &
b110 +
#320000
0!
#321000
1!
b10000000 &
b111 +
#322000
0!
#323000
1!
b1 &
b0 +
#324000
0!
#325000
1!
b10 &
b1 +
#326000
0!
#327000
1!
b100 &
b10 +
#328000
0!
#329000
1!
b1000 &
b11 +
#330000
0!
#331000
1!
b10000 &
b100 +
#332000
0!
#333000
1!
b100000 &
b101 +
#334000
0!
#335000
1!
b1000000 &
b110 +
#336000
0!
#337000
1!
b10000000 &
b111 +
#338000
0!
#339000
1!
b1 &
b0 +
#340000
0!
#341000
1!
b10 &
b1 +
#342000
0!
#343000
1!
b100 &
b10 +
#344000
0!
#345000
1!
b1000 &
b11 +
#346000
0!
#347000
1!
b10000 &
b100 +
#348000
0!
#349000
1!
b100000 &
b101 +
#350000
0!
#351000
1!
b1000000 &
b110 +
#352000
0!
#353000
1!
b10000000 &
b111 +
#354000
0!
#355000
1!
b1 &
b0 +
#356000
0!
#357000
1!
b10 &
b1 +
#358000
0!
#359000
1!
b100 &
b10 +
#360000
0!
#361000
1!
b1000 &
b11 +
#362000
0!
#363000
1!
b10000 &
b100 +
#364000
0!
#365000
1!
b100000 &
b101 +
#366000
0!
#367000
1!
b1000000 &
b110 +
#368000
0!
#369000
1!
b10000000 &
b111 +
#370000
0!
#371000
1!
b1 &
b0 +
#372000
0!
#373000
1!
b10 &
b1 +
#374000
0!
#375000
1!
b100 &
b10 +
#376000
0!
#377000
1!
b1000 &
b11 +
#378000
0!
#379000
1!
b10000 &
b100 +
#380000
0!
#381000
1!
b100000 &
b101 +
#382000
0!
#383000
1!
b1000000 &
b110 +
#384000
0!
#385000
1!
b10000000 &
b111 +
#386000
0!
#387000
1!
b1 &
b0 +
#388000
0!
#389000
1!
b10 &
b1 +
#390000
0!
#391000
1!
b100 &
b10 +
#392000
0!
#393000
1!
b1000 &
b11 +
#394000
0!
#395000
1!
b10000 &
b100 +
#396000
0!
#397000
1!
b100000 &
b101 +
#398000
0!
#399000
1!
b1000000 &
b110 +
#400000
0!
#401000
1!
b10000000 &
b111 +
#402000
0!
#403000
1!
b1 &
b0 +
#404000
0!
#405000
1!
b10 &
b1 +
#406000
0!
#407000
1!
b100 &
b10 +
#408000
0!
#409000
1!
b1000 &
b11 +
#410000
0!
#411000
1!
b10000 &
b100 +
#412000
0!
#413000
1!
b100000 &
b101 +
#414000
0!
#415000
1!
b1000000 &
b110 +
#416000
0!
#417000
1!
b10000000 &
b111 +
#418000
0!
#419000
1!
b1 &
b0 +
#420000
0!
#421000
1!
b10 &
b1 +
#422000
0!
#423000
1!
b100 &
b10 +
#424000
0!
#425000
1!
b1000 &
b11 +
#426000
0!
#427000
1!
b10000 &
b100 +
#428000
0!
#429000
1!
b100000 &
b101 +
#430000
0!
#431000
1!
b1000000 &
b110 +
#432000
0!
#433000
1!
b10000000 &
b111 +
#434000
0!
#435000
1!
b1 &
b0 +
#436000
0!
#437000
1!
b10 &
b1 +
#438000
0!
#439000
1!
b100 &
b10 +
#440000
0!
#441000
1!
b1000 &
b11 +
#442000
0!
#443000
1!
b10000 &
b100 +
#444000
0!
#445000
1!
b100000 &
b101 +
#446000
0!
#447000
1!
b1000000 &
b110 +
#448000
0!
#449000
1!
b10000000 &
b111 +
#450000
0!
#451000
1!
b1 &
b0 +
#452000
0!
#453000
1!
b10 &
b1 +
#454000
0!
#455000
1!
b100 &
b10 +
#456000
0!
#457000
1!
b1000 &
b11 +
#458000
0!
#459000
1!
b10000 &
b100 +
#460000
0!
#461000
1!
b100000 &
b101 +
#462000
0!
#463000
1!
b1000000 &
b110 +
#464000
0!
#465000
1!
b10000000 &
b111 +
#466000
0!
#467000
1!
b1 &
b0 +
#468000
0!
#469000
1!
b10 &
b1 +
#470000
0!
#471000
1!
b100 &
b10 +
#472000
0!
#473000
1!
b1000 &
b11 +
#474000
0!
#475000
1!
b10000 &
b100 +
#476000
0!
#477000
1!
b100000 &
b101 +
#478000
0!
#479000
1!
b1000000 &
b110 +
#480000
0!
#481000
1!
b10000000 &
b111 +
#482000
0!
#483000
1!
b1 &
b0 +
#484000
0!
#485000
1!
b10 &
b1 +
#486000
0!
#487000
1!
b100 &
b10 +
#488000
0!
#489000
1!
b1000 &
b11 +
#490000
0!
#491000
1!
b10000 &
b100 +
#492000
0!
#493000
1!
b100000 &
b101 +
#494000
0!
#495000
1!
b1000000 &
b110 +
#496000
0!
#497000
1!
b10000000 &
b111 +
#498000
0!
#499000
1!
b1 &
b0 +
#500000
0!
#501000
1!
b10 &
b1 +
#502000
0!
#503000
1!
b100 &
b10 +
#504000
0!
#505000
1!
b1000 &
b11 +
#506000
0!
#507000
1!
b10000 &
b100 +
#508000
0!
#509000
1!
b100000 &
b101 +
#510000
0!
#511000
1!
b1000000 &
b110 +
#512000
0!
#513000
1!
b10000000 &
b111 +
#514000
0!
#515000
1!
b1 &
b0 +
#516000
0!
#517000
1!
b10 &
b1 +
#518000
0!
#519000
1!
b100 &
b10 +
#520000
0!
#521000
1!
b1000 &
b11 +
#522000
0!
#523000
1!
b10000 &
b100 +
#524000
0!
#525000
1!
b100000 &
b101 +
#526000
0!
#527000
1!
b1000000 &
b110 +
#528000
0!
#529000
1!
b10000000 &
b111 +
#530000
0!
#531000
1!
b1 &
b0 +
#532000
0!
#533000
1!
b10 &
b1 +
#534000
0!
#535000
1!
b100 &
b10 +
#536000
0!
#537000
1!
b1000 &
b11 +
#538000
0!
#539000
1!
b10000 &
b100 +
#540000
0!
#541000
1!
b100000 &
b101 +
#542000
0!
#543000
1!
b1000000 &
b110 +
#544000
0!
#545000
1!
b10000000 &
b111 +
#546000
0!
#547000
1!
b1 &
b0 +
#548000
0!
#549000
1!
b10 &
b1 +
#550000
0!
#551000
1!
b100 &
b10 +
#552000
0!
#553000
1!
b1000 &
b11 +
#554000
0!
#555000
1!
b10000 &
b100 +
#556000
0!
#557000
1!
b100000 &
b101 +
#558000
0!
#559000
1!
b1000000 &
b110 +
#560000
0!
#561000
1!
b10000000 &
b111 +
#562000
0!
#563000
1!
b1 &
b0 +
#564000
0!
#565000
1!
b10 &
b1 +
#566000
0!
#567000
1!
b100 &
b10 +
#568000
0!
#569000
1!
b1000 &
b11 +
#570000
0!
#571000
1!
b10000 &
b100 +
#572000
0!
#573000
1!
b100000 &
b101 +
#574000
0!
#575000
1!
b1000000 &
b110 +
#576000
0!
#577000
1!
b10000000 &
b111 +
#578000
0!
#579000
1!
b1 &
b0 +
#580000
0!
#581000
1!
b10 &
b1 +
#582000
0!
#583000
1!
b100 &
b10 +
#584000
0!
#585000
1!
b1000 &
b11 +
#586000
0!
#587000
1!
b10000 &
b100 +
#588000
0!
#589000
1!
b100000 &
b101 +
#590000
0!
#591000
1!
b1000000 &
b110 +
#592000
0!
#593000
1!
b10000000 &
b111 +
#594000
0!
#595000
1!
b1 &
b0 +
#596000
0!
#597000
1!
b10 &
b1 +
#598000
0!
#599000
1!
b100 &
b10 +
#600000
0!
#601000
1!
b1000 &
b11 +
#602000
0!
#603000
1!
b10000 &
b100 +
#604000
0!
#605000
1!
b100000 &
b101 +
#606000
0!
#607000
1!
b1000000 &
b110 +
#608000
0!
#609000
1!
b10000000 &
b111 +
#610000
0!
#611000
1!
b1 &
b0 +
#612000
0!
#613000
1!
b10 &
b1 +
#614000
0!
#615000
1!
b100 &
b10 +
#616000
0!
#617000
1!
b1000 &
b11 +
#618000
0!
#619000
1!
b10000 &
b100 +
#620000
0!
#621000
1!
b100000 &
b101 +
#622000
0!
#623000
1!
b1000000 &
b110 +
#624000
0!
#625000
1!
b10000000 &
b111 +
#626000
0!
#627000
1!
b1 &
b0 +
#628000
0!
#629000
1!
b10 &
b1 +
#630000
0!
#631000
1!
b100 &
b10 +
#632000
0!
#633000
1!
b1000 &
b11 +
#634000
0!
#635000
1!
b10000 &
b100 +
#636000
0!
#637000
1!
b100000 &
b101 +
#638000
0!
#639000
1!
b1000000 &
b110 +
#640000
0!
#641000
1!
b10000000 &
b111 +
#642000
0!
#643000
1!
b1 &
b0 +
#644000
0!
#645000
1!
b10 &
b1 +
#646000
0!
#647000
1!
b100 &
b10 +
#648000
0!
#649000
1!
b1000 &
b11 +
#650000
0!
#651000
1!
b10000 &
b100 +
#652000
0!
#653000
1!
b100000 &
b101 +
#654000
0!
#655000
1!
b1000000 &
b110 +
#656000
0!
#657000
1!
b10000000 &
b111 +
#658000
0!
#659000
1!
b1 &
b0 +
#660000
0!
#661000
1!
b10 &
b1 +
#662000
0!
#663000
1!
b100 &
b10 +
#664000
0!
#665000
1!
b1000 &
b11 +
#666000
0!
#667000
1!
b10000 &
b100 +
#668000
0!
#669000
1!
b100000 &
b101 +
#670000
0!
#671000
1!
b1000000 &
b110 +
#672000
0!
#673000
1!
b10000000 &
b111 +
#674000
0!
#675000
1!
b1 &
b0 +
#676000
0!
#677000
1!
b10 &
b1 +
#678000
0!
#679000
1!
b100 &
b10 +
#680000
0!
#681000
1!
b1000 &
b11 +
#682000
0!
#683000
1!
b10000 &
b100 +
#684000
0!
#685000
1!
b100000 &
b101 +
#686000
0!
#687000
1!
b1000000 &
b110 +
#688000
0!
#689000
1!
b10000000 &
b111 +
#690000
0!
#691000
1!
b1 &
b0 +
#692000
0!
#693000
1!
b10 &
b1 +
#694000
0!
#695000
1!
b100 &
b10 +
#696000
0!
#697000
1!
b1000 &
b11 +
#698000
0!
#699000
1!
b10000 &
b100 +
#700000
0!
#701000
1!
b100000 &
b101 +
#702000
0!
#703000
1!
b1000000 &
b110 +
#704000
0!
#705000
1!
b10000000 &
b111 +
#706000
0!
#707000
1!
b1 &
b0 +
#708000
0!
#709000
1!
b10 &
b1 +
#710000
0!
#711000
1!
b100 &
b10 +
#712000
0!
#713000
1!
b1000 &
b11 +
#714000
0!
#715000
1!
b10000 &
b100 +
#716000
0!
#717000
1!
b100000 &
b101 +
#718000
0!
#719000
1!
b1000000 &
b110 +
#720000
0!
#721000
1!
b10000000 &
b111 +
#722000
0!
#723000
1!
b1 &
b0 +
#724000
0!
#725000
1!
b10 &
b1 +
#726000
0!
#727000
1!
b100 &
b10 +
#728000
0!
#729000
1!
b1000 &
b11 +
#730000
0!
#731000
1!
b10000 &
b100 +
#732000
0!
#733000
1!
b100000 &
b101 +
#734000
0!
#735000
1!
b1000000 &
b110 +
#736000
0!
#737000
1!
b10000000 &
b111 +
#738000
0!
#739000
1!
b1 &
b0 +
#740000
0!
#741000
1!
b10 &
b1 +
#742000
0!
#743000
1!
b100 &
b10 +
#744000
0!
#745000
1!
b1000 &
b11 +
#746000
0!
#747000
1!
b10000 &
b100 +
#748000
0!
#749000
1!
b100000 &
b101 +
#750000
0!
#751000
1!
b1000000 &
b110 +
#752000
0!
#753000
1!
b10000000 &
b111 +
#754000
0!
#755000
1!
b1 &
b0 +
#756000
0!
#757000
1!
b10 &
b1 +
#758000
0!
#759000
1!
b100 &
b10 +
#760000
0!
#761000
1!
b1000 &
b11 +
#762000
0!
#763000
1!
b10000 &
b100 +
#764000
0!
#765000
1!
b100000 &
b101 +
#766000
0!
#767000
1!
b1000000 &
b110 +
#768000
0!
#769000
1!
b10000000 &
b111 +
#770000
0!
#771000
1!
b1 &
b0 +
#772000
0!
#773000
1!
b10 &
b1 +
#774000
0!
#775000
1!
b100 &
b10 +
#776000
0!
#777000
1!
b1000 &
b11 +
#778000
0!
#779000
1!
b10000 &
b100 +
#780000
0!
#781000
1!
b100000 &
b101 +
#782000
0!
#783000
1!
b1000000 &
b110 +
#784000
0!
#785000
1!
b10000000 &
b111 +
#786000
0!
#787000
1!
b1 &
b0 +
#788000
0!
#789000
1!
b10 &
b1 +
#790000
0!
#791000
1!
b100 &
b10 +
#792000
0!
#793000
1!
b1000 &
b11 +
#794000
0!
#795000
1!
b10000 &
b100 +
#796000
0!
#797000
1!
b100000 &
b101 +
#798000
0!
#799000
1!
b1000000 &
b110 +
#800000
0!
#801000
1!
b10000000 &
b111 +
#802000
0!
#803000
1!
b1 &
b0 +
#804000
0!
#805000
1!
b10 &
b1 +
#806000
0!
#807000
1!
b100 &
b10 +
#808000
0!
#809000
1!
b1000 &
b11 +
#810000
0!
#811000
1!
b10000 &
b100 +
#812000
0!
#813000
1!
b100000 &
b101 +
#814000
0!
#815000
1!
b1000000 &
b110 +
#816000
0!
#817000
1!
b10000000 &
b111 +
#818000
0!
#819000
1!
b1 &
b0 +
#820000
0!
#821000
1!
b10 &
b1 +
#822000
0!
#823000
1!
b100 &
b10 +
#824000
0!
#825000
1!
b1000 &
b11 +
#826000
0!
#827000
1!
b10000 &
b100 +
#828000
0!
#829000
1!
b100000 &
b101 +
#830000
0!
#831000
1!
b1000000 &
b110 +
#832000
0!
#833000
1!
b10000000 &
b111 +
#834000
0!
#835000
1!
b1 &
b0 +
#836000
0!
#837000
1!
b10 &
b1 +
#838000
0!
#839000
1!
b100 &
b10 +
#840000
0!
#841000
1!
b1000 &
b11 +
#842000
0!
#843000
1!
b10000 &
b100 +
#844000
0!
#845000
1!
b100000 &
b101 +
#846000
0!
#847000
1!
b1000000 &
b110 +
#848000
0!
#849000
1!
b10000000 &
b111 +
#850000
0!
#851000
1!
b1 &
b0 +
#852000
0!
#853000
1!
b10 &
b1 +
#854000
0!
#855000
1!
b100 &
b10 +
#856000
0!
#857000
1!
b1000 &
b11 +
#858000
0!
#859000
1!
b10000 &
b100 +
#860000
0!
#861000
1!
b100000 &
b101 +
#862000
0!
#863000
1!
b1000000 &
b110 +
#864000
0!
#865000
1!
b10000000 &
b111 +
#866000
0!
#867000
1!
b1 &
b0 +
#868000
0!
#869000
1!
b10 &
b1 +
#870000
0!
#871000
1!
b100 &
b10 +
#872000
0!
#873000
1!
b1000 &
b11 +
#874000
0!
#875000
1!
b10000 &
b100 +
#876000
0!
#877000
1!
b100000 &
b101 +
#878000
0!
#879000
1!
b1000000 &
b110 +
#880000
0!
#881000
1!
b10000000 &
b111 +
#882000
0!
#883000
1!
b1 &
b0 +
#884000
0!
#885000
1!
b10 &
b1 +
#886000
0!
#887000
1!
b100 &
b10 +
#888000
0!
#889000
1!
b1000 &
b11 +
#890000
0!
#891000
1!
b10000 &
b100 +
#892000
0!
#893000
1!
b100000 &
b101 +
#894000
0!
#895000
1!
b1000000 &
b110 +
#896000
0!
#897000
1!
b10000000 &
b111 +
#898000
0!
#899000
1!
b1 &
b0 +
#900000
0!
#901000
1!
b10 &
b1 +
#902000
0!
#903000
1!
b100 &
b10 +
#904000
0!
#905000
1!
b1000 &
b11 +
#906000
0!
#907000
1!
b10000 &
b100 +
#908000
0!
#909000
1!
b100000 &
b101 +
#910000
0!
#911000
1!
b1000000 &
b110 +
#912000
0!
#913000
1!
b10000000 &
b111 +
#914000
0!
#915000
1!
b1 &
b0 +
#916000
0!
#917000
1!
b10 &
b1 +
#918000
0!
#919000
1!
b100 &
b10 +
#920000
0!
#921000
1!
b1000 &
b11 +
#922000
0!
#923000
1!
b10000 &
b100 +
#924000
0!
#925000
1!
b100000 &
b101 +
#926000
0!
#927000
1!
b1000000 &
b110 +
#928000
0!
#929000
1!
b10000000 &
b111 +
#930000
0!
#931000
1!
b1 &
b0 +
#932000
0!
#933000
1!
b10 &
b1 +
#934000
0!
#935000
1!
b100 &
b10 +
#936000
0!
#937000
1!
b1000 &
b11 +
#938000
0!
#939000
1!
b10000 &
b100 +
#940000
0!
#941000
1!
b100000 &
b101 +
#942000
0!
#943000
1!
b1000000 &
b110 +
#944000
0!
#945000
1!
b10000000 &
b111 +
#946000
0!
#947000
1!
b1 &
b0 +
#948000
0!
#949000
1!
b10 &
b1 +
#950000
0!
#951000
1!
b100 &
b10 +
#952000
0!
#953000
1!
b1000 &
b11 +
#954000
0!
#955000
1!
b10000 &
b100 +
#956000
0!
#957000
1!
b100000 &
b101 +
#958000
0!
#959000
1!
b1000000 &
b110 +
#960000
0!
#961000
1!
b10000000 &
b111 +
#962000
0!
#963000
1!
b1 &
b0 +
#964000
0!
#965000
1!
b10 &
b1 +
#966000
0!
#967000
1!
b100 &
b10 +
#968000
0!
#969000
1!
b1000 &
b11 +
#970000
0!
#971000
1!
b10000 &
b100 +
#972000
0!
#973000
1!
b100000 &
b101 +
#974000
0!
#975000
1!
b1000000 &
b110 +
#976000
0!
#977000
1!
b10000000 &
b111 +
#978000
0!
#979000
1!
b1 &
b0 +
#980000
0!
#981000
1!
b10 &
b1 +
#982000
0!
#983000
1!
b100 &
b10 +
#984000
0!
#985000
1!
b1000 &
b11 +
#986000
0!
#987000
1!
b10000 &
b100 +
#988000
0!
#989000
1!
b100000 &
b101 +
#990000
0!
#991000
1!
b1000000 &
b110 +
#992000
0!
#993000
1!
b10000000 &
b111 +
#994000
0!
#995000
1!
b1 &
b0 +
#996000
0!
#997000
1!
b10 &
b1 +
#998000
0!
#999000
1!
b100 &
b10 +
