vivado-vcd/snitch.vcd
$date
   Sat Aug 22 18:03:57 2020
$end
$version
  2020.1
$end
$timescale
  1ps
$end
$scope module snitch_tb $end
$var reg 1 ! clk_i $end
$var reg 1 " rst_i $end
$var reg 32 # inst_addr_o [31:0] $end
$var reg 32 $ inst_data_i [31:0] $end
$var reg 1 % inst_valid_o $end
$var reg 1 & inst_ready_i $end
$var reg 32 ' data_qaddr_o [31:0] $end
$var reg 1 ( data_qwrite_o $end
$var reg 4 ) data_qamo_o [3:0] $end
$var reg 64 * data_qdata_o [63:0] $end
$var reg 8 + data_qstrb_o [7:0] $end
$var reg 1 , data_qvalid_o $end
$var reg 1 - data_qready_i $end
$var reg 64 . data_pdata_i [63:0] $end
$var reg 1 / data_perror_i $end
$var reg 1 0 data_pvalid_i $end
$var reg 1 1 data_pready_o $end
$var reg 512 2 PROGRAM [15:0] $end
$var reg 32 3 data_resp_pending $end
$var parameter 32 4 BootAddr [31:0] $end
$upscope $end
$enddefinitions $end
#0
$dumpvars
x!
0"
bx #
bx $
x%
1&
b0 '
0(
b0 )
b0xxxxxxxxxxxxxxxxxxxxxxxxxxxxxxxx *
b1 +
0,
1-
b11011110101011011100101010110000 .
0/
00
01
b1000000001100111111111111101111111110000011011110001000001010000000000000111001111111110000001110001011011100011000000000000011010000111100100110000000000000111100001100001001111111111111101110000011100010011000000001101010110100000001000110000000011110110000001101011001111001010111111100001010110110111000000000000000000000110000100110000000000010000000001111001001100111110100000000000011100010011 2
b0 3
b10000000000000000 4
$end
#1000
1"
0,
#2000
1!
b10000000000000000 #
b111110100000000000011100010011 $
1%
b1111101000 '
b1 +
#3000
0!
#4000
0"
#5000
1!
b10000000000000100 #
b100000000011110010011 $
b0 '
b0xxxxxxxxxxxxxxxxxxxxxxxxxxxxxxxx00000000 *
b10 +
#6000
0!
#7000
1!
b10000000000001000 #
b11000010011 $
b0 *
b1 +
#8000
0!
#9000
1!
b10000000000001100 #
b11001010111111100001010110110111 $
b1 *
#10000
0!
#11000
1!
b10000000000010000 #
b111101100000011010110011 $
b0 '
b100000000 *
b10 +
#12000
0!
#13000
1!
b10000000000010100 #
b110101011010000000100011 $
b11001010111111100001000000000000 '
1(
b1 *
b1111 +
1,
#14000
0!
#15000
1!
b10000000000011000 #
b11111111111101110000011100010011 $
b1111100000 '
0(
bx00000000000000000000000000000000xxxxxxxxxxxxxxxxxxxxxxxx *
b10000000 +
0,
10
01
b1 3
#16000
0!
#17000
1!
b10000000000011100 #
b1111000011000010011 $
b0 '
b0 *
b10 +
#18000
0!
#19000
1!
b10000000000100000 #
b1101000011110010011 $
#20000
0!
#21000
1!
b10000000000100100 #
b11111110000001110001011011100011 $
11
#22000
0!
#23000
1!
b10000000000010000 #
b111101100000011010110011 $
b0 '
b10000000000000000 *
b100 +
0,
00
01
b0 3
#24000
0!
#25000
1!
b10000000000010100 #
b110101011010000000100011 $
b11001010111111100001000000000000 '
1(
b10 *
b1111 +
1,
#26000
0!
#27000
1!
b10000000000011000 #
b11111111111101110000011100010011 $
b1111100000 '
0(
bx00000000000000000000000000000000xxxxxxxxxxxxxxxx *
b1000000 +
0,
10
01
b1 3
#28000
0!
#29000
1!
b10000000000011100 #
b1111000011000010011 $
b0 '
b0 *
b10 +
#30000
0!
#31000
1!
b10000000000100000 #
b1101000011110010011 $
b100 +
#32000
0!
#33000
1!
b10000000000100100 #
b11111110000001110001011011100011 $
b10 +
11
#34000
0!
#35000
1!
b10000000000010000 #
b111101100000011010110011 $
b0 '
b10000000000000000000000000 *
b1000 +
0,
00
01
b0 3
#36000
0!
#37000
1!
b10000000000010100 #
b110101011010000000100011 $
b11001010111111100001000000000000 '
1(
b11 *
b1111 +
1,
#38000
0!
#39000
1!
b10000000000011000 #
b11111111111101110000011100010011 $
b1111100000 '
0(
bx00000000000000000000000000000000xxxxxxxx *
b100000 +
0,
10
01
b1 3
#40000
0!
#41000
1!
b10000000000011100 #
b1111000011000010011 $
b0 '
b0 *
b100 +
#42000
0!
#43000
1!
b10000000000100000 #
b1101000011110010011 $
b1000 +
#44000
0!
#45000
1!
b10000000000100100 #
b11111110000001110001011011100011 $
b10 +
11
#46000
0!
#47000
1!
b10000000000010000 #
b111101100000011010110011 $
b0 '
b110000000000000000000000000000000000000000 *
b100000 +
0,
00
01
b0 3
#48000
0!
#49000
1!
b10000000000010100 #
b110101011010000000100011 $
b11001010111111100001000000000000 '
1(
b101 *
b1111 +
1,
#50000
0!
#51000
1!
b10000000000011000 #
b11111111111101110000011100010011 $
b1111100000 '
0(
bx00000000000000000000000000000000 *
b10000 +
0,
10
01
b1 3
#52000
0!
#53000
1!
b10000000000011100 #
b1111000011000010011 $
b0 '
b0 *
b1000 +
#54000
0!
#55000
1!
b10000000000100000 #
b1101000011110010011 $
b100000 +
#56000
0!
#57000
1!
b10000000000100100 #
b11111110000001110001011011100011 $
b10 +
11
#58000
0!
#59000
1!
b10000000000010000 #
b111101100000011010110011 $
b1000 '
b101 *
b1 +
0,
00
01
b0 3
#60000
0!
#61000
1!
b10000000000010100 #
b110101011010000000100011 $
b11001010111111100001000000000000 '
1(
b1000 *
b1111 +
1,
#62000
0!
#63000
1!
b10000000000011000 #
b11111111111101110000011100010011 $
b1111100000 '
0(
b0xxxxxxxxxxxxxxxxxxxxxxxxxxxxxxxx000000000000000000000000 *
b1000 +
0,
10
01
b1 3
#64000
0!
#65000
1!
b10000000000011100 #
b1111000011000010011 $
b0 '
b0 *
b100000 +
#66000
0!
#67000
1!
b10000000000100000 #
b1101000011110010011 $
b1000 '
b1 +
#68000
0!
#69000
1!
b10000000000100100 #
b11111110000001110001011011100011 $
b0 '
b10 +
11
#70000
0!
#71000
1!
b10000000000010000 #
b111101100000011010110011 $
b1000 '
b10000000000000000000000000000000000000000000 *
b100000 +
0,
00
01
b0 3
#72000
0!
#73000
1!
b10000000000010100 #
b110101011010000000100011 $
b11001010111111100001000000000000 '
1(
b1101 *
b1111 +
1,
#74000
0!
#75000
1!
b10000000000011000 #
b11111111111101110000011100010011 $
b1111100000 '
0(
b0xxxxxxxxxxxxxxxxxxxxxxxxxxxxxxxx0000000000000000 *
b100 +
0,
10
01
b1 3
#76000
0!
#77000
1!
b10000000000011100 #
b1111000011000010011 $
b1000 '
b0 *
b1 +
#78000
0!
#79000
1!
b10000000000100000 #
b1101000011110010011 $
b100000 +
#80000
0!
#81000
1!
b10000000000100100 #
b11111110000001110001011011100011 $
b0 '
b10 +
11
#82000
0!
#83000
1!
b10000000000010000 #
b111101100000011010110011 $
b10000 '
b11010000000000000000000000000000000000000000 *
b100000 +
0,
00
01
b0 3
#84000
0!
#85000
1!
b10000000000010100 #
b110101011010000000100011 $
b11001010111111100001000000000000 '
1(
b10101 *
b1111 +
1,
#86000
0!
#87000
1!
b10000000000011000 #
b11111111111101110000011100010011 $
b1111100000 '
0(
b0xxxxxxxxxxxxxxxxxxxxxxxxxxxxxxxx00000000 *
b10 +
0,
10
01
b1 3
#88000
0!
#89000
1!
b10000000000011100 #
b1111000011000010011 $
b1000 '
b0 *
b100000 +
#90000
0!
#91000
1!
b10000000000100000 #
b1101000011110010011 $
b10000 '
#92000
0!
#93000
1!
b10000000000100100 #
b11111110000001110001011011100011 $
b0 '
b10 +
11
#94000
0!
#95000
1!
b10000000000010000 #
b111101100000011010110011 $
b100000 '
b101010000000000000000 *
b100 +
0,
00
01
b0 3
#96000
0!
#97000
1!
b10000000000010100 #
b110101011010000000100011 $
b11001010111111100001000000000000 '
1(
b100010 *
b1111 +
1,
#98000
0!
#99000
1!
b10000000000011000 #
b11111111111101110000011100010011 $
b1111100000 '
0(
b0xxxxxxxxxxxxxxxxxxxxxxxxxxxxxxxx *
b1 +
0,
10
01
b1 3
#100000
0!
#101000
1!
b10000000000011100 #
b1111000011000010011 $
b10000 '
b0 *
b100000 +
#102000
0!
#103000
1!
b10000000000100000 #
b1101000011110010011 $
b100000 '
b100 +
#104000
0!
#105000
1!
b10000000000100100 #
b11111110000001110001011011100011 $
b0 '
b10 +
11
#106000
0!
#107000
1!
b10000000000010000 #
b111101100000011010110011 $
b110000 '
b10001000000000000000000000000000000000000000000000000000000000 *
b10000000 +
0,
00
01
b0 3
#108000
0!
#109000
1!
b10000000000010100 #
b110101011010000000100011 $
b11001010111111100001000000000000 '
1(
b110111 *
b1111 +
1,
#110000
0!
#111000
1!
b10000000000011000 #
b11111111111101110000011100010011 $
b1111011000 '
0(
bx00000000000000000000000000000000xxxxxxxxxxxxxxxxxxxxxxxx *
b10000000 +
0,
10
01
b1 3
#112000
0!
#113000
1!
b10000000000011100 #
b1111000011000010011 $
b100000 '
b0 *
b100 +
#114000
0!
#115000
1!
b10000000000100000 #
b1101000011110010011 $
b110000 '
b10000000 +
#116000
0!
#117000
1!
b10000000000100100 #
b11111110000001110001011011100011 $
b0 '
b10 +
11
#118000
0!
#119000
1!
b10000000000010000 #
b111101100000011010110011 $
b1011000 '
b11011100000000 *
b10 +
0,
00
01
b0 3
#120000
0!
#121000
1!
b10000000000010100 #
b110101011010000000100011 $
b11001010111111100001000000000000 '
1(
b1011001 *
b1111 +
1,
#122000
0!
#123000
1!
b10000000000011000 #
b11111111111101110000011100010011 $
b1111011000 '
0(
bx00000000000000000000000000000000xxxxxxxxxxxxxxxx *
b1000000 +
0,
10
01
b1 3
#124000
0!
#125000
1!
b10000000000011100 #
b1111000011000010011 $
b110000 '
b0 *
b10000000 +
#126000
0!
#127000
1!
b10000000000100000 #
b1101000011110010011 $
b1011000 '
b10 +
#128000
0!
#129000
1!
b10000000000100100 #
b11111110000001110001011011100011 $
b0 '
11
#130000
0!
#131000
1!
b10000000000010000 #
b111101100000011010110011 $
b10010000 '
b1011001 *
b1 +
0,
00
01
b0 3
#132000
0!
#133000
1!
b10000000000010100 #
b110101011010000000100011 $
b11001010111111100001000000000000 '
1(
b10010000 *
b1111 +
1,
#134000
0!
#135000
1!
b10000000000011000 #
b11111111111101110000011100010011 $
b1111011000 '
0(
bx00000000000000000000000000000000xxxxxxxx *
b100000 +
0,
10
01
b1 3
#136000
0!
#137000
1!
b10000000000011100 #
b1111000011000010011 $
b1011000 '
b0 *
b10 +
#138000
0!
#139000
1!
b10000000000100000 #
b1101000011110010011 $
b10010000 '
b1 +
#140000
0!
#141000
1!
b10000000000100100 #
b11111110000001110001011011100011 $
b0 '
b10 +
11
#142000
0!
#143000
1!
b10000000000010000 #
b111101100000011010110011 $
b11101000 '
b1001000000000000 *
b10 +
0,
00
01
b0 3
#144000
0!
#145000
1!
b10000000000010100 #
b110101011010000000100011 $
b11001010111111100001000000000000 '
1(
b11101001 *
b1111 +
1,
#146000
0!
#147000
1!
b10000000000011000 #
b11111111111101110000011100010011 $
b1111011000 '
0(
bx00000000000000000000000000000000 *
b10000 +
0,
10
01
b1 3
#148000
0!
#149000
1!
b10000000000011100 #
b1111000011000010011 $
b10010000 '
b0 *
b1 +
#150000
0!
#151000
1!
b10000000000100000 #
b1101000011110010011 $
b11101000 '
b10 +
#152000
0!
#153000
1!
b10000000000100100 #
b11111110000001110001011011100011 $
b0 '
11
#154000
0!
#155000
1!
b10000000000010000 #
b111101100000011010110011 $
b101111000 '
b1110100100000000 *
b10 +
0,
00
01
b0 3
#156000
0!
#157000
1!
b10000000000010100 #
b110101011010000000100011 $
b11001010111111100001000000000000 '
1(
b101111001 *
b1111 +
1,
#158000
0!
#159000
1!
b10000000000011000 #
b11111111111101110000011100010011 $
b1111011000 '
0(
b0xxxxxxxxxxxxxxxxxxxxxxxxxxxxxxxx000000000000000000000000 *
b1000 +
0,
10
01
b1 3
#160000
0!
#161000
1!
b10000000000011100 #
b1111000011000010011 $
b11101000 '
b0 *
b10 +
#162000
0!
#163000
1!
b10000000000100000 #
b1101000011110010011 $
b101111000 '
#164000
0!
#165000
1!
b10000000000100100 #
b11111110000001110001011011100011 $
b0 '
11
#166000
0!
#167000
1!
b10000000000010000 #
b111101100000011010110011 $
b1001100000 '
b1011110010000000000000000 *
b100 +
0,
00
01
b0 3
#168000
0!
#169000
1!
b10000000000010100 #
b110101011010000000100011 $
b11001010111111100001000000000000 '
1(
b1001100010 *
b1111 +
1,
#170000
0!
#171000
1!
b10000000000011000 #
b11111111111101110000011100010011 $
b1111011000 '
0(
b0xxxxxxxxxxxxxxxxxxxxxxxxxxxxxxxx0000000000000000 *
b100 +
0,
10
01
b1 3
#172000
0!
#173000
1!
b10000000000011100 #
b1111000011000010011 $
b101111000 '
b0 *
b10 +
#174000
0!
#175000
1!
b10000000000100000 #
b1101000011110010011 $
b1001100000 '
b100 +
#176000
0!
#177000
1!
b10000000000100100 #
b11111110000001110001011011100011 $
b0 '
b10 +
11
#178000
0!
#179000
1!
b10000000000010000 #
b111101100000011010110011 $
b1111011000 '
b1001100010000000000000000000000000 *
b1000 +
0,
00
01
b0 3
#180000
0!
#181000
1!
b10000000000010100 #
b110101011010000000100011 $
b11001010111111100001000000000000 '
1(
b1111011011 *
b1111 +
1,
#182000
0!
#183000
1!
b10000000000011000 #
b11111111111101110000011100010011 $
b1111011000 '
0(
b0xxxxxxxxxxxxxxxxxxxxxxxxxxxxxxxx00000000 *
b10 +
0,
10
01
b1 3
#184000
0!
#185000
1!
b10000000000011100 #
b1111000011000010011 $
b1001100000 '
b0 *
b100 +
#186000
0!
#187000
1!
b10000000000100000 #
b1101000011110010011 $
b1111011000 '
b1000 +
#188000
0!
#189000
1!
b10000000000100100 #
b11111110000001110001011011100011 $
b0 '
b10 +
11
#190000
0!
#191000
1!
b10000000000010000 #
b111101100000011010110011 $
b11000111000 '
b11110110110000000000000000000000000000000000000000 *
b100000 +
0,
00
01
b0 3
#192000
0!
#193000
1!
b10000000000010100 #
b110101011010000000100011 $
b11001010111111100001000000000000 '
1(
b11000111101 *
b1111 +
1,
#194000
0!
#195000
1!
b10000000000011000 #
b11111111111101110000011100010011 $
b1111011000 '
0(
b0xxxxxxxxxxxxxxxxxxxxxxxxxxxxxxxx *
b1 +
0,
10
01
b1 3
#196000
0!
#197000
1!
b10000000000011100 #
b1111000011000010011 $
b1111011000 '
b0 *
b1000 +
#198000
0!
#199000
1!
b10000000000100000 #
b1101000011110010011 $
b11000111000 '
b100000 +
#200000
0!
#201000
1!
b10000000000100100 #
b11111110000001110001011011100011 $
b0 '
b10 +
11
#202000
0!
#203000
1!
b10000000000010000 #
b111101100000011010110011 $
b101000011000 '
b11000111101 *
b1 +
0,
00
01
b0 3
#204000
0!
#205000
1!
b10000000000010100 #
b110101011010000000100011 $
b11001010111111100001000000000000 '
1(
b101000011000 *
b1111 +
1,
#206000
0!
#207000
1!
b10000000000011000 #
b11111111111101110000011100010011 $
b1111010000 '
0(
bx00000000000000000000000000000000xxxxxxxxxxxxxxxxxxxxxxxx *
b10000000 +
0,
10
01
b1 3
#208000
0!
#209000
1!
b10000000000011100 #
b1111000011000010011 $
b11000111000 '
b0 *
b100000 +
#210000
0!
#211000
1!
b10000000000100000 #
b1101000011110010011 $
b101000011000 '
b1 +
#212000
0!
#213000
1!
b10000000000100100 #
b11111110000001110001011011100011 $
b0 '
b10 +
11
#214000
0!
#215000
1!
b10000000000010000 #
b111101100000011010110011 $
b1000001010000 '
b1010000110000000000000000000000000000000000000000000 *
b100000 +
0,
00
01
b0 3
#216000
0!
#217000
1!
b10000000000010100 #
b110101011010000000100011 $
b11001010111111100001000000000000 '
1(
b1000001010101 *
b1111 +
1,
#218000
0!
#219000
1!
b10000000000011000 #
b11111111111101110000011100010011 $
b1111010000 '
0(
bx00000000000000000000000000000000xxxxxxxxxxxxxxxx *
b1000000 +
0,
10
01
b1 3
#220000
0!
#221000
1!
b10000000000011100 #
b1111000011000010011 $
b101000011000 '
b0 *
b1 +
#222000
0!
#223000
1!
b10000000000100000 #
b1101000011110010011 $
b1000001010000 '
b100000 +
#224000
0!
#225000
1!
b10000000000100100 #
b11111110000001110001011011100011 $
b0 '
b10 +
11
#226000
0!
#227000
1!
b10000000000010000 #
b111101100000011010110011 $
b1101001101000 '
b10000010101010000000000000000000000000000000000000000 *
b100000 +
0,
00
01
b0 3
#228000
0!
#229000
1!
b10000000000010100 #
b110101011010000000100011 $
b11001010111111100001000000000000 '
1(
b1101001101101 *
b1111 +
1,
#230000
0!
#231000
1!
b10000000000011000 #
b11111111111101110000011100010011 $
b1111010000 '
0(
bx00000000000000000000000000000000xxxxxxxx *
b100000 +
0,
10
01
b1 3
#232000
0!
#233000
1!
b10000000000011100 #
b1111000011000010011 $
b1000001010000 '
b0 *
b100000 +
#234000
0!
#235000
1!
b10000000000100000 #
b1101000011110010011 $
b1101001101000 '
#236000
0!
#237000
1!
b10000000000100100 #
b11111110000001110001011011100011 $
b0 '
b10 +
11
#238000
0!
#239000
1!
b10000000000010000 #
b111101100000011010110011 $
b10101011000000 '
b11010011011010000000000000000 *
b100 +
0,
00
01
b0 3
#240000
0!
#241000
1!
b10000000000010100 #
b110101011010000000100011 $
b11001010111111100001000000000000 '
1(
b10101011000010 *
b1111 +
1,
#242000
0!
#243000
1!
b10000000000011000 #
b11111111111101110000011100010011 $
b1111010000 '
0(
bx00000000000000000000000000000000 *
b10000 +
0,
10
01
b1 3
#244000
0!
#245000
1!
b10000000000011100 #
b1111000011000010011 $
b1101001101000 '
b0 *
b100000 +
#246000
0!
#247000
1!
b10000000000100000 #
b1101000011110010011 $
b10101011000000 '
b100 +
#248000
0!
#249000
1!
b10000000000100100 #
b11111110000001110001011011100011 $
b0 '
b10 +
11
#250000
0!
#251000
1!
b10000000000010000 #
b111101100000011010110011 $
b100010100101000 '
b1100001000000000000000000000000000000000000000000000000000101010 *
b10000000 +
0,
00
01
b0 3
#252000
0!
#253000
1!
b10000000000010100 #
b110101011010000000100011 $
b11001010111111100001000000000000 '
1(
b100010100101111 *
b1111 +
1,
#254000
0!
#255000
1!
b10000000000011000 #
b11111111111101110000011100010011 $
b1111010000 '
0(
b0xxxxxxxxxxxxxxxxxxxxxxxxxxxxxxxx000000000000000000000000 *
b1000 +
0,
10
01
b1 3
#256000
0!
#257000
1!
b10000000000011100 #
b1111000011000010011 $
b10101011000000 '
b0 *
b100 +
#258000
0!
#259000
1!
b10000000000100000 #
b1101000011110010011 $
b100010100101000 '
b10000000 +
#260000
0!
#261000
1!
b10000000000100100 #
b11111110000001110001011011100011 $
b0 '
b10 +
11
#262000
0!
#263000
1!
b10000000000010000 #
b111101100000011010110011 $
b110111111110000 '
b10001010010111100000000 *
b10 +
0,
00
01
b0 3
#264000
0!
#265000
1!
b10000000000010100 #
b110101011010000000100011 $
b11001010111111100001000000000000 '
1(
b110111111110001 *
b1111 +
1,
#266000
0!
#267000
1!
b10000000000011000 #
b11111111111101110000011100010011 $
b1111010000 '
0(
b0xxxxxxxxxxxxxxxxxxxxxxxxxxxxxxxx0000000000000000 *
b100 +
0,
10
01
b1 3
#268000
0!
#269000
1!
b10000000000011100 #
b1111000011000010011 $
b100010100101000 '
b0 *
b10000000 +
#270000
0!
#271000
1!
b10000000000100000 #
b1101000011110010011 $
b110111111110000 '
b10 +
#272000
0!
#273000
1!
b10000000000100100 #
b11111110000001110001011011100011 $
b0 '
11
#274000
0!
#275000
1!
b10000000000010000 #
b111101100000011010110011 $
b1011010100100000 '
b110111111110001 *
b1 +
0,
00
01
b0 3
#276000
0!
#277000
1!
b10000000000010100 #
b110101011010000000100011 $
b11001010111111100001000000000000 '
1(
b1011010100100000 *
b1111 +
1,
#278000
0!
#279000
1!
b10000000000011000 #
b11111111111101110000011100010011 $
b1111010000 '
0(
b0xxxxxxxxxxxxxxxxxxxxxxxxxxxxxxxx00000000 *
b10 +
0,
10
01
b1 3
#280000
0!
#281000
1!
b10000000000011100 #
b1111000011000010011 $
b110111111110000 '
b0 *
b10 +
#282000
0!
#283000
1!
b10000000000100000 #
b1101000011110010011 $
b1011010100100000 '
b1 +
#284000
0!
#285000
1!
b10000000000100100 #
b11111110000001110001011011100011 $
b0 '
b10 +
11
#286000
0!
#287000
1!
b10000000000010000 #
b111101100000011010110011 $
b10010010100010000 '
b101101010010000000000000 *
0,
00
01
b0 3
#288000
0!
#289000
1!
b10000000000010100 #
b110101011010000000100011 $
b11001010111111100001000000000000 '
1(
b10010010100010001 *
b1111 +
1,
#290000
0!
#291000
1!
b10000000000011000 #
b11111111111101110000011100010011 $
b1111010000 '
0(
b0xxxxxxxxxxxxxxxxxxxxxxxxxxxxxxxx *
b1 +
0,
10
01
b1 3
#292000
0!
#293000
1!
b10000000000011100 #
b1111000011000010011 $
b1011010100100000 '
b0 *
b1 +
#294000
0!
#295000
1!
b10000000000100000 #
b1101000011110010011 $
b10010010100010000 '
b10 +
#296000
0!
#297000
1!
b10000000000100100 #
b11111110000001110001011011100011 $
b0 '
11
#298000
0!
#299000
1!
b10000000000010000 #
b111101100000011010110011 $
b11101101000110000 '
b1001001010001000100000000 *
b10 +
0,
00
01
b0 3
#300000
0!
#301000
1!
b10000000000010100 #
b110101011010000000100011 $
b11001010111111100001000000000000 '
1(
b11101101000110001 *
b1111 +
1,
#302000
0!
#303000
1!
b10000000000011000 #
b11111111111101110000011100010011 $
b1111001000 '
0(
bx00000000000000000000000000000000xxxxxxxxxxxxxxxxxxxxxxxx *
b10000000 +
0,
10
01
b1 3
#304000
0!
#305000
1!
b10000000000011100 #
b1111000011000010011 $
b10010010100010000 '
b0 *
b10 +
#306000
0!
#307000
1!
b10000000000100000 #
b1101000011110010011 $
b11101101000110000 '
#308000
0!
#309000
1!
b10000000000100100 #
b11111110000001110001011011100011 $
b0 '
11
#310000
0!
#311000
1!
b10000000000010000 #
b111101100000011010110011 $
b101111111101000000 '
b111011010001100010000000000000000 *
b100 +
0,
00
01
b0 3
#312000
0!
#313000
1!
b10000000000010100 #
b110101011010000000100011 $
b11001010111111100001000000000000 '
1(
b101111111101000010 *
b1111 +
1,
#314000
0!
#315000
1!
b10000000000011000 #
b11111111111101110000011100010011 $
b1111001000 '
0(
bx00000000000000000000000000000000xxxxxxxxxxxxxxxx *
b1000000 +
0,
10
01
b1 3
#316000
0!
#317000
1!
b10000000000011100 #
b1111000011000010011 $
b11101101000110000 '
b0 *
b10 +
#318000
0!
#319000
1!
b10000000000100000 #
b1101000011110010011 $
b101111111101000000 '
b100 +
#320000
0!
#321000
1!
b10000000000100100 #
b11111110000001110001011011100011 $
b0 '
b10 +
11
#322000
0!
#323000
1!
b10000000000010000 #
b111101100000011010110011 $
b1001101100101110000 '
b101111111101000010000000000000000000000000 *
b1000 +
0,
00
01
b0 3
#324000
0!
#325000
1!
b10000000000010100 #
b110101011010000000100011 $
b11001010111111100001000000000000 '
1(
b1001101100101110011 *
b1111 +
1,
#326000
0!
#327000
1!
b10000000000011000 #
b11111111111101110000011100010011 $
b1111001000 '
0(
bx00000000000000000000000000000000xxxxxxxx *
b100000 +
0,
10
01
b1 3
#328000
0!
#329000
1!
b10000000000011100 #
b1111000011000010011 $
b101111111101000000 '
b0 *
b100 +
#330000
0!
#331000
1!
b10000000000100000 #
b1101000011110010011 $
b1001101100101110000 '
b1000 +
#332000
0!
#333000
1!
b10000000000100100 #
b11111110000001110001011011100011 $
b0 '
b10 +
11
#334000
0!
#335000
1!
b10000000000010000 #
b111101100000011010110011 $
b1111101100010110000 '
b10011011001011100110000000000000000000000000000000000000000 *
b100000 +
0,
00
01
b0 3
#336000
0!
#337000
1!
b10000000000010100 #
b110101011010000000100011 $
b11001010111111100001000000000000 '
1(
b1111101100010110101 *
b1111 +
1,
#338000
0!
#339000
1!
b10000000000011000 #
b11111111111101110000011100010011 $
b1111001000 '
0(
bx00000000000000000000000000000000 *
b10000 +
0,
10
01
b1 3
#340000
0!
#341000
1!
b10000000000011100 #
b1111000011000010011 $
b1001101100101110000 '
b0 *
b1000 +
#342000
0!
#343000
1!
b10000000000100000 #
b1101000011110010011 $
b1111101100010110000 '
b100000 +
#344000
0!
#345000
1!
b10000000000100100 #
b11111110000001110001011011100011 $
b0 '
b10 +
11
#346000
0!
#347000
1!
b10000000000010000 #
b111101100000011010110011 $
b11001011001000101000 '
b1111101100010110101 *
b1 +
0,
00
01
b0 3
#348000
0!
#349000
1!
b10000000000010100 #
b110101011010000000100011 $
b11001010111111100001000000000000 '
1(
b11001011001000101000 *
b1111 +
1,
#350000
0!
#351000
1!
b10000000000011000 #
b11111111111101110000011100010011 $
b1111001000 '
0(
b0xxxxxxxxxxxxxxxxxxxxxxxxxxxxxxxx000000000000000000000000 *
b1000 +
0,
10
01
b1 3
#352000
0!
#353000
1!
b10000000000011100 #
b1111000011000010011 $
b1111101100010110000 '
b0 *
b100000 +
#354000
0!
#355000
1!
b10000000000100000 #
b1101000011110010011 $
b11001011001000101000 '
b1 +
#356000
0!
#357000
1!
b10000000000100100 #
b11111110000001110001011011100011 $
b0 '
b10 +
11
#358000
0!
#359000
1!
b10000000000010000 #
b111101100000011010110011 $
b101001000101011011000 '
b110010110010001010000000000000000000000000000000000000000000 *
b100000 +
0,
00
01
b0 3
#360000
0!
#361000
1!
b10000000000010100 #
b110101011010000000100011 $
b11001010111111100001000000000000 '
1(
b101001000101011011101 *
b1111 +
1,
#362000
0!
#363000
1!
b10000000000011000 #
b11111111111101110000011100010011 $
b1111001000 '
0(
b0xxxxxxxxxxxxxxxxxxxxxxxxxxxxxxxx0000000000000000 *
b100 +
0,
10
01
b1 3
#364000
0!
#365000
1!
b10000000000011100 #
b1111000011000010011 $
b11001011001000101000 '
b0 *
b1 +
#366000
0!
#367000
1!
b10000000000100000 #
b1101000011110010011 $
b101001000101011011000 '
b100000 +
#368000
0!
#369000
1!
b10000000000100100 #
b11111110000001110001011011100011 $
b0 '
b10 +
11
#370000
0!
#371000
1!
b10000000000010000 #
b111101100000011010110011 $
b1000010011110100000000 '
b1010010001010110111010000000000000000000000000000000000000000 *
b100000 +
0,
00
01
b0 3
#372000
0!
#373000
1!
b10000000000010100 #
b110101011010000000100011 $
b11001010111111100001000000000000 '
1(
b1000010011110100000101 *
b1111 +
1,
#374000
0!
#375000
1!
b10000000000011000 #
b11111111111101110000011100010011 $
b1111001000 '
0(
b0xxxxxxxxxxxxxxxxxxxxxxxxxxxxxxxx00000000 *
b10 +
0,
10
01
b1 3
#376000
0!
#377000
1!
b10000000000011100 #
b1111000011000010011 $
b101001000101011011000 '
b0 *
b100000 +
#378000
0!
#379000
1!
b10000000000100000 #
b1101000011110010011 $
b1000010011110100000000 '
#380000
0!
#381000
1!
b10000000000100100 #
b11111110000001110001011011100011 $
b0 '
b10 +
11
#382000
0!
#383000
1!
b10000000000010000 #
b111101100000011010110011 $
b1101011100011111100000 '
b10000100111101000001010000000000000000 *
b100 +
0,
00
01
b0 3
#384000
0!
#385000
1!
b10000000000010100 #
b110101011010000000100011 $
b11001010111111100001000000000000 '
1(
b1101011100011111100010 *
b1111 +
1,
#386000
0!
#387000
1!
b10000000000011000 #
b11111111111101110000011100010011 $
b1111001000 '
0(
b0xxxxxxxxxxxxxxxxxxxxxxxxxxxxxxxx *
b1 +
0,
10
01
b1 3
#388000
0!
#389000
1!
b10000000000011100 #
b1111000011000010011 $
b1000010011110100000000 '
b0 *
b100000 +
#390000
0!
#391000
1!
b10000000000100000 #
b1101000011110010011 $
b1101011100011111100000 '
b100 +
#392000
0!
#393000
1!
b10000000000100100 #
b11111110000001110001011011100011 $
b0 '
b10 +
11
#394000
0!
#395000
1!
b10000000000010000 #
b111101100000011010110011 $
b10101110000010011100000 '
b1110001000000000000000000000000000000000000000000011010111000111 *
b10000000 +
0,
00
01
b0 3
#396000
0!
#397000
1!
b10000000000010100 #
b110101011010000000100011 $
b11001010111111100001000000000000 '
1(
b10101110000010011100111 *
b1111 +
1,
#398000
0!
#399000
1!
b10000000000011000 #
b11111111111101110000011100010011 $
b1111000000 '
0(
bx00000000000000000000000000000000xxxxxxxxxxxxxxxxxxxxxxxx *
b10000000 +
0,
10
01
b1 3
#400000
0!
#401000
1!
b10000000000011100 #
b1111000011000010011 $
b1101011100011111100000 '
b0 *
b100 +
#402000
0!
#403000
1!
b10000000000100000 #
b1101000011110010011 $
b10101110000010011100000 '
b10000000 +
#404000
0!
#405000
1!
b10000000000100100 #
b11111110000001110001011011100011 $
b0 '
b10 +
11
#406000
0!
#407000
1!
b10000000000010000 #
b111101100000011010110011 $
b100011001100110011001000 '
b1010111000001001110011100000000 *
b10 +
0,
00
01
b0 3
#408000
0!
#409000
1!
b10000000000010100 #
b110101011010000000100011 $
b11001010111111100001000000000000 '
1(
b100011001100110011001001 *
b1111 +
1,
#410000
0!
#411000
1!
b10000000000011000 #
b11111111111101110000011100010011 $
b1111000000 '
0(
bx00000000000000000000000000000000xxxxxxxxxxxxxxxx *
b1000000 +
0,
10
01
b1 3
#412000
0!
#413000
1!
b10000000000011100 #
b1111000011000010011 $
b10101110000010011100000 '
b0 *
b10000000 +
#414000
0!
#415000
1!
b10000000000100000 #
b1101000011110010011 $
b100011001100110011001000 '
b10 +
#416000
0!
#417000
1!
b10000000000100100 #
b11111110000001110001011011100011 $
b0 '
11
#418000
0!
#419000
1!
b10000000000010000 #
b111101100000011010110011 $
b111000111101000110110000 '
b100011001100110011001001 *
b1 +
0,
00
01
b0 3
#420000
0!
#421000
1!
b10000000000010100 #
b110101011010000000100011 $
b11001010111111100001000000000000 '
1(
b111000111101000110110000 *
b1111 +
1,
#422000
0!
#423000
1!
b10000000000011000 #
b11111111111101110000011100010011 $
b1111000000 '
0(
bx00000000000000000000000000000000xxxxxxxx *
b100000 +
0,
10
01
b1 3
#424000
0!
#425000
1!
b10000000000011100 #
b1111000011000010011 $
b100011001100110011001000 '
b0 *
b10 +
#426000
0!
#427000
1!
b10000000000100000 #
b1101000011110010011 $
b111000111101000110110000 '
b1 +
#428000
0!
