vivado-vcd/snitch.vcd
$date
   Sat Aug 22 13:28:45 2020
$end
$version
  2020.1
$end
$timescale
  1ps
$end
$scope module snitch_tb $end
$var reg 1 j! clk_i $end
$var reg 1 k! rst_i $end
$var reg 32 $ inst_addr_o [31:0] $end
$var reg 32 l! inst_data_i [31:0] $end
$var reg 1 & inst_valid_o $end
$var reg 1 m! inst_ready_i $end
$var reg 32 5 data_qaddr_o [31:0] $end
$var reg 1 6 data_qwrite_o $end
$var reg 4 7 data_qamo_o [3:0] $end
$var reg 64 8 data_qdata_o [63:0] $end
$var reg 8 9 data_qstrb_o [7:0] $end
$var reg 1 : data_qvalid_o $end
$var reg 1 n! data_qready_i $end
$var reg 64 o! data_pdata_i [63:0] $end
$var reg 1 p! data_perror_i $end
$var reg 1 q! data_pvalid_i $end
$var reg 1 ? data_pready_o $end
$var reg 512 r! PROGRAM [15:0] $end
$var reg 32 s! data_resp_pending $end
$var parameter 32 t! BootAddr [31:0] $end
$scope module i_snitch $end
$var wire 1 ! clk_i $end
$var wire 1 " rst_i $end
$var wire 32 # hart_id_i [31:0] $end
$var reg 32 $ inst_addr_o [31:0] $end
$var wire 32 % inst_data_i [31:0] $end
$var reg 1 & inst_valid_o $end
$var wire 1 ' inst_ready_i $end
$var reg 32 ( acc_qaddr_o [31:0] $end
$var reg 5 ) acc_qid_o [4:0] $end
$var reg 32 * acc_qdata_op_o [31:0] $end
$var reg 64 + acc_qdata_arga_o [63:0] $end
$var reg 64 , acc_qdata_argb_o [63:0] $end
$var reg 64 - acc_qdata_argc_o [63:0] $end
$var reg 1 . acc_qvalid_o $end
$var wire 1 / acc_qready_i $end
$var wire 64 0 acc_pdata_i [63:0] $end
$var wire 5 1 acc_pid_i [4:0] $end
$var wire 1 2 acc_perror_i $end
$var wire 1 3 acc_pvalid_i $end
$var reg 1 4 acc_pready_o $end
$var reg 32 5 data_qaddr_o [31:0] $end
$var reg 1 6 data_qwrite_o $end
$var reg 4 7 data_qamo_o [3:0] $end
$var reg 64 8 data_qdata_o [63:0] $end
$var reg 8 9 data_qstrb_o [7:0] $end
$var reg 1 : data_qvalid_o $end
$var wire 1 ; data_qready_i $end
$var wire 64 < data_pdata_i [63:0] $end
$var wire 1 = data_perror_i $end
$var wire 1 > data_pvalid_i $end
$var reg 1 ? data_pready_o $end
$var wire 1 @ wake_up_sync_i $end
$var reg 3 A fpu_rnd_mode_o [2:0] $end
$var reg 5 B fpu_status_i $end
$var reg 4 C core_events_o $end
$var reg 1 D illegal_inst $end
$var reg 1 E zero_lsb $end
$var reg 32 F pc_d [31:0] $end
$var reg 32 G pc_q [31:0] $end
$var reg 1 H wfi_d $end
$var reg 1 I wfi_q $end
$var reg 32 J consec_pc [31:0] $end
$var reg 32 K iimm [31:0] $end
$var reg 32 L uimm [31:0] $end
$var reg 32 M jimm [31:0] $end
$var reg 32 N bimm [31:0] $end
$var reg 32 O simm [31:0] $end
$var reg 32 P opa [31:0] $end
$var reg 32 Q opb [31:0] $end
$var reg 33 R adder_result [32:0] $end
$var reg 32 S alu_result [31:0] $end
$var reg 5 T rd [4:0] $end
$var reg 5 U rs1 [4:0] $end
$var reg 5 V rs2 [4:0] $end
$var reg 1 W stall $end
$var reg 1 X lsu_stall $end
$var reg 10 Y gpr_raddr [1:0] $end
$var reg 64 Z gpr_rdata [1:0] $end
$var reg 5 [ gpr_waddr [0:0] $end
$var reg 32 \ gpr_wdata [0:0] $end
$var reg 1 ] gpr_we [0:0] $end
$var reg 32 ^ sb_d [31:0] $end
$var reg 32 _ sb_q [31:0] $end
$var reg 1 ` is_load $end
$var reg 1 a is_store $end
$var reg 1 b is_signed $end
$var reg 2 c ls_size [1:0] $end
$var reg 4 d ls_amo [3:0] $end
$var reg 64 e ld_result [63:0] $end
$var reg 1 f lsu_qready $end
$var reg 1 g lsu_qvalid $end
$var reg 1 h lsu_pvalid $end
$var reg 1 i lsu_pready $end
$var reg 5 j lsu_rd [4:0] $end
$var reg 1 k retire_load $end
$var reg 1 l retire_i $end
$var reg 1 m retire_acc $end
$var reg 1 n acc_stall $end
$var reg 1 o valid_instr $end
$var reg 4 p alu_op [3:0] $end
$var reg 4 q opa_select [3:0] $end
$var reg 4 r opb_select [3:0] $end
$var reg 1 s write_rd $end
$var reg 1 t uses_rd $end
$var reg 2 u next_pc [1:0] $end
$var reg 2 v rd_select [1:0] $end
$var reg 32 w rd_bypass [31:0] $end
$var reg 1 x is_branch $end
$var reg 32 y csr_rvalue [31:0] $end
$var reg 1 z csr_en $end
$var reg 8 { fcsr_d [2:0] $end
$var reg 8 | fcsr_q [2:0] $end
$var reg 1 } acc_register_rd $end
$var reg 1 ~ operands_ready $end
$var reg 1 !! dst_ready $end
$var reg 1 "! opa_ready $end
$var reg 1 #! opb_ready $end
$var reg 32 $! shift_opa [31:0] $end
$var reg 32 %! shift_opa_reversed [31:0] $end
$var reg 32 &! shift_right_result [31:0] $end
$var reg 32 '! shift_left_result [31:0] $end
$var reg 33 (! shift_opa_ext [32:0] $end
$var reg 33 )! shift_right_result_ext [32:0] $end
$var reg 1 *! shift_left $end
$var reg 1 +! shift_arithmetic $end
$var reg 33 ,! alu_opa [32:0] $end
$var reg 33 -! alu_opb [32:0] $end
$var reg 32 .! alu_writeback [31:0] $end
$var parameter 32 /! BootAddr [31:0] $end
$var parameter 32 0! MTVEC [31:0] $end
$var parameter 0 1! RVE $end
$var parameter 0 2! RVFD $end
$var parameter 0 3! RegWidth $end
$scope module i_snitch_regfile $end
$var wire 1 ! clk_i $end
$var wire 10 4! raddr_i [1:0] $end
$var reg 64 Z rdata_o [1:0] $end
$var wire 5 5! waddr_i [0:0] $end
$var wire 32 6! wdata_i [0:0] $end
$var wire 1 7! we_i [0:0] $end
$var reg 1024 8! mem [31:0] $end
$var reg 32 9! we_dec [0:0] $end
$var parameter 32 :! DATA_WIDTH [31:0] $end
$var parameter 32 ;! NR_READ_PORTS [31:0] $end
$var parameter 32 <! NR_WRITE_PORTS [31:0] $end
$var parameter 32 =! ZERO_REG_ZERO [31:0] $end
$var parameter 32 >! ADDR_WIDTH [31:0] $end
$var parameter 32 ?! NUM_WORDS [31:0] $end
$scope begin we_decoder $end
$scope begin Block3777_10 $end
$var reg 32 @! j $end
$scope begin Block3778_11 $end
$var reg 32 A! i $end
$upscope $end
$upscope $end
$upscope $end
$scope begin register_write_behavioral $end
$scope begin Block3787_13 $end
$var reg 32 B! j $end
$scope begin Block3788_14 $end
$var reg 32 C! i $end
$upscope $end
$upscope $end
$upscope $end
$upscope $end
$scope module i_snitch_lsu $end
$var wire 1 ! clk_i $end
$var wire 1 " rst_i $end
$var reg 5 T lsu_qtag_i [4:0] $end
$var wire 1 D! lsu_qwrite $end
$var wire 1 E! lsu_qsigned $end
$var wire 32 F! lsu_qaddr_i [31:0] $end
$var wire 64 G! lsu_qdata_i [63:0] $end
$var wire 2 H! lsu_qsize_i [1:0] $end
$var wire 4 I! lsu_qamo_i [3:0] $end
$var wire 1 J! lsu_qvalid_i $end
$var reg 1 f lsu_qready_o $end
$var reg 64 e lsu_pdata_o [63:0] $end
$var reg 5 j lsu_ptag_o [4:0] $end
$var reg 1 K! lsu_perror_o $end
$var reg 1 h lsu_pvalid_o $end
$var wire 1 L! lsu_pready_i $end
$var reg 32 5 data_qaddr_o [31:0] $end
$var reg 1 6 data_qwrite_o $end
$var reg 4 7 data_qamo_o [3:0] $end
$var reg 64 8 data_qdata_o [63:0] $end
$var reg 8 9 data_qstrb_o [7:0] $end
$var reg 1 : data_qvalid_o $end
$var wire 1 ; data_qready_i $end
$var wire 64 < data_pdata_i [63:0] $end
$var wire 1 = data_perror_i $end
$var wire 1 > data_pvalid_i $end
$var reg 1 ? data_pready_o $end
$var reg 64 M! ld_result [63:0] $end
$var reg 11 N! laq_in [4:0] $end
$var reg 11 O! laq_out [4:0] $end
$var reg 1 P! laq_full $end
$var reg 1 Q! laq_push $end
$var reg 64 R! shifted_data [63:0] $end
$var parameter 0 S! NumOutstandingLoads $end
$var parameter 0 T! NaNBox $end
$scope module i_fifo_laq $end
$var wire 1 ! clk_i $end
$var wire 1 U! rst_ni $end
$var wire 1 V! flush_i $end
$var wire 1 W! testmode_i $end
$var reg 1 P! full_o $end
$var reg 1 X! empty_o $end
$var reg 1 Y! usage_o [0:0] $end
$var reg 11 N! data_i [4:0] $end
$var wire 1 Z! push_i $end
$var reg 11 O! data_o [4:0] $end
$var wire 1 [! pop_i $end
$var reg 1 \! gate_clock $end
$var reg 1 ]! read_pointer_n [0:0] $end
$var reg 1 ^! read_pointer_q [0:0] $end
$var reg 1 _! write_pointer_n [0:0] $end
$var reg 1 `! write_pointer_q [0:0] $end
$var reg 2 a! status_cnt_n [1:0] $end
$var reg 2 b! status_cnt_q [1:0] $end
$var reg 11 c! mem_n [0:0] $end
$var reg 11 d! mem_q [0:0] $end
$var parameter 0 e! FALL_THROUGH $end
$var parameter 0 f! DATA_WIDTH $end
$var parameter 0 g! DEPTH $end
$var parameter 0 h! ADDR_DEPTH $end
$var parameter 0 i! FIFO_DEPTH $end
$upscope $end
$upscope $end
$upscope $end
$upscope $end
$enddefinitions $end
#0
$dumpvars
x!
0!!
0"
1"!
b1000010 #
1#!
bx $
b0 $!
bx %
b0 %!
x&
b0 &!
1'
b0 '!
b1000010 (
b0 (!
bx )
b0 )!
bx *
0*!
bx +
0+!
bx ,
b0 ,!
b0 -
b0 -!
0.
b0 .!
z/
b10000000000000000 /!
bz 0
b10000000000000000 0!
bz 1
01!
z2
02!
z3
b101 3!
04
bx 4!
b0 5
bx 5!
06
b0 6!
b0 7
07!
b0xxxxxxxxxxxxxxxxxxxxxxxxxxxxxxxx 8
bx 8!
b1 9
b0 9!
0:
b100000 :!
1;
b10 ;!
b11011110101011011100101010110000 <
b1 <!
0=
b1 =!
0>
b101 >!
0?
b100000 ?!
z@
b1 @!
bx A
b100000 A!
bzx B
b0 B!
b0 C
b0 C!
1D
0D!
0E
0E!
bx F
b0 F!
bx G
b0xxxxxxxxxxxxxxxxxxxxxxxxxxxxxxxx G!
xH
b0 H!
xI
b0 I!
bx J
0J!
bx K
0K!
bx000000000000 L
0L!
bx0 M
bx M!
bx0 N
bx000000 N!
bx O
bx O!
b0 P
xP!
b0 Q
0Q!
b0 R
bx R!
b0 S
b1 S!
bx T
0T!
bx U
1U!
bx V
0V!
1W
0W!
0X
xX!
bx Y
xY!
bx Z
0Z!
bx [
0[!
b0 \
1\!
0]
x]!
bx0 ^
x^!
bx _
x_!
0`
x`!
0a
bx a!
0b
bx b!
b0 c
bx c!
b0 d
bx d!
bx e
0e!
xf
b100000 f!
0g
b1 g!
0h
b1 h!
0i
b1 i!
bx j
xj!
0k
0k!
0l
bx l!
0m
1m!
0n
1n!
0o
b11011110101011011100101010110000 o!
b0 p
0p!
b0 q
0q!
b0 r
b1000000001100111111111111101111111110000011011110001000001010000000000000111001111111110000001110001011011100011000000000000011010000111100100110000000000000111100001100001001111111111111101110000011100010011000000001101010110100000001000110000000011110110000001101011001111001010111111100001010110110111000000000000000000000110000100110000000000010000000001111001001100111110100000000000011100010011 r!
0s
b0 s!
0t
b10000000000000000 t!
b10 u
b0 v
b0 w
0x
b0 y
0z
bx {
bx |
0}
1~
$end
#1000
1"
0:
b10110000 M!
b0 O!
0P!
0Q!
b11011110101011011100101010110000 R!
0U!
0X
1X!
0Y!
bx [
b0 \
0]!
bx0 ^
0^!
0_!
0`!
b0 a!
b0 b!
b0 c!
b0 d!
b10110000 e
1f
b0 j
1k!
#2000
1!
1!!
1"!
1#!
b10000000000000000 $
b0 $!
b111110100000000000011100010011 %
b0 %!
1&
b0 &!
b0 '!
b0 (!
b1110 )
b0 )!
b111110100000000000011100010011 *
b0 +
b0 ,!
b1111101000 -
b1111101000 -!
0.
b1111101000 .!
b100000000 4!
b1111101000 5
b1110 5!
b1111101000 6!
17!
bx00000000000000000000000000000000 8!
b1 9
b100000000000000 9!
b1 @!
b0 A
b100000 A!
b1 B!
b1 C
b100000 C!
0D
b10000000000000100 F
b1111101000 F!
b10000000000000000 G
0H
0I
b10000000000000100 J
b1111101000 K
b111110100000000000000000000000 L
b1111101000 M
b1111101110 N
b1110000000 N!
b1111101110 O
b0 O!
b0 P
b1111101000 Q
b1111101000 R
b1111101000 S
b1110 T
b0 U
b1000 V
0W
b100000000 Y
bx00000000000000000000000000000000 Z
b1110 [
b1111101000 \
1]
b0 ^
b0 _
b0 c
b0 d
0g
1j!
1l
b111110100000000000011100010011 l!
1o
b0 p
b1 q
b10 r
1s
1t
b0 u
b0 v
b0 w
b0 y
b0xxxxx {
b0 |
#3000
0!
0j!
#4000
0"
1U!
0k!
#5000
1!
1!!
1"!
1#!
b10000000000000100 $
b100000000011110010011 %
b1111 )
b0 )!
b100000000011110010011 *
b0 ,!
b1 -
b1 -!
0.
b1 .!
b100000 4!
b0 5
b1111 5!
b1 6!
17!
b0xxxxxxxxxxxxxxxxxxxxxxxxxxxxxxxx00000000 8
bx00000000000000000000001111101000xxxxxxxxxxxxxxxxxxxxxxxxxxxxxxxxxxxxxxxxxxxxxxxxxxxxxxxxxxxxxxxxxxxxxxxxxxxxxxxxxxxxxxxxxxxxxxxxxxxxxxxxxxxxxxxxxxxxxxxxxxxxxxxxxxxxxxxxxxxxxxxxxxxxxxxxxxxxxxxxxxxxxxxxxxxxxxxxxxxxxxxxxxxxxxxxxxxxxxxxxxxxxxxxxxxxxxxxxxxxxxxxxxxxxxxxxxxxxxxxxxxxxxxxxxxxxxxxxxxxxxxxxxxxxxxxxxxxxxxxxxxxxxxxxxxxxxxxxxxxxxxxxxxxxxxxxxxxxxxxxxxxxxxxxxxxxxxxxxxxxxxxxxxxxxxxxxxxxxxxxxxxxxxxxxxxxxxxxxxxxxxxxxxxxxxxxxxxxxxxxxxxxxxxxxxxxxxx00000000000000000000000000000000 8!
b10 9
b1000000000000000 9!
b1 @!
b100000 A!
b1 B!
b100000 C!
b10000000000001000 F
b1 F!
b10000000000000100 G
b10000000000001000 J
b1 K
b100000000000000000000 L
b100000000000 M
b100000001110 N
b1111000100 N!
b1111 O
b0 O!
b0 P
b1 Q
b1 R
b1 S
b1111 T
b1 V
b100000 Y
bx00000000000000000000000000000000 Z
b1111 [
b1 \
1]
b0 c
b0 d
1j!
1l
b100000000011110010011 l!
b0 p
b1 q
b10 r
b0 u
b0 v
b0 w
b0 y
b0xxxxx |
#6000
0!
0j!
#7000
1!
1!!
1"!
1#!
b10000000000001000 $
b11000010011 %
b1100 )
b0 )!
b11000010011 *
b0 ,
b0 ,!
b0 -
b0 -!
0.
b0 .!
b0 4!
b1100 5!
b0 6!
17!
b0 8
bx0000000000000000000000000000000100000000000000000000001111101000xxxxxxxxxxxxxxxxxxxxxxxxxxxxxxxxxxxxxxxxxxxxxxxxxxxxxxxxxxxxxxxxxxxxxxxxxxxxxxxxxxxxxxxxxxxxxxxxxxxxxxxxxxxxxxxxxxxxxxxxxxxxxxxxxxxxxxxxxxxxxxxxxxxxxxxxxxxxxxxxxxxxxxxxxxxxxxxxxxxxxxxxxxxxxxxxxxxxxxxxxxxxxxxxxxxxxxxxxxxxxxxxxxxxxxxxxxxxxxxxxxxxxxxxxxxxxxxxxxxxxxxxxxxxxxxxxxxxxxxxxxxxxxxxxxxxxxxxxxxxxxxxxxxxxxxxxxxxxxxxxxxxxxxxxxxxxxxxxxxxxxxxxxxxxxxxxxxxxxxxxxxxxxxxxxxxxxxxxxxxxxxxxxxxxxxxxxxxxxxxxxxxxxxxxxxxxxxx00000000000000000000000000000000 8!
b1 9
b1000000000000 9!
b1 @!
b100000 A!
b1 B!
b100000 C!
b10000000000001100 F
b0 F!
b10000000000001000 G
b0 G!
b10000000000001100 J
b0 K
b0 L
b0 M
b1100 N
b1100000000 N!
b1100 O
b0 O!
b0 P
b0 Q
b0 R
b0 S
b1100 T
b0 V
b0 Y
b0 Z
b1100 [
b0 \
1]
b0 c
b0 d
1j!
1l
b11000010011 l!
b0 p
b1 q
b10 r
b0 u
b0 v
b0 w
b0 y
#8000
0!
0j!
#9000
1!
1!!
1"!
1#!
b10000000000001100 $
b11001010111111100001010110110111 %
b1011 )
b11001010111111100001010110110111 *
bx +
b1 ,
0.
b11001010111111100001000000000000 .!
b111111100 4!
b1011 5!
b11001010111111100001000000000000 6!
17!
b1 8
bx0000000000000000000000000000000100000000000000000000001111101000xxxxxxxxxxxxxxxxxxxxxxxxxxxxxxxx00000000000000000000000000000000xxxxxxxxxxxxxxxxxxxxxxxxxxxxxxxxxxxxxxxxxxxxxxxxxxxxxxxxxxxxxxxxxxxxxxxxxxxxxxxxxxxxxxxxxxxxxxxxxxxxxxxxxxxxxxxxxxxxxxxxxxxxxxxxxxxxxxxxxxxxxxxxxxxxxxxxxxxxxxxxxxxxxxxxxxxxxxxxxxxxxxxxxxxxxxxxxxxxxxxxxxxxxxxxxxxxxxxxxxxxxxxxxxxxxxxxxxxxxxxxxxxxxxxxxxxxxxxxxxxxxxxxxxxxxxxxxxxxxxxxxxxxxxxxxxxxxxxxxxxxxxxxxxxxxxxxxxxxxxxxxxxxxxxxxxxxxxxxxxxxxxxxxxxxxxxx00000000000000000000000000000000 8!
b100000000000 9!
b1 @!
b100000 A!
b1 B!
b100000 C!
b10000000000010000 F
b10000000000001100 G
b1 G!
b10000000000010000 J
b11111111111111111111110010101111 K
b11001010111111100001000000000000 L
b11111111111111100001110010101110 M
b11111111111111111111110010101010 N
b1011000000 N!
b11111111111111111111110010101011 O
b0 O!
b0 P
b0 Q
b1011 T
b11100 U
b1111 V
b111111100 Y
b1xxxxxxxxxxxxxxxxxxxxxxxxxxxxxxxx Z
b1011 [
b11001010111111100001000000000000 \
1]
b0 c
b0 d
1j!
1l
b11001010111111100001010110110111 l!
b0 p
b0 q
b0 r
b0 u
b10 v
b11001010111111100001000000000000 w
b0 y
#10000
0!
0j!
#11000
1!
1!!
1"!
1#!
b10000000000010000 $
b0 $!
b111101100000011010110011 %
b0 %!
b0 &!
b0 '!
b0 (!
b1101 )
b0 )!
b111101100000011010110011 *
b0 +
b0 ,!
b1 -
b1 -!
0.
b1 .!
b111101100 4!
b0 5
b1101 5!
b1 6!
17!
b100000000 8
bx0000000000000000000000000000000100000000000000000000001111101000xxxxxxxxxxxxxxxxxxxxxxxxxxxxxxxx0000000000000000000000000000000011001010111111100001000000000000xxxxxxxxxxxxxxxxxxxxxxxxxxxxxxxxxxxxxxxxxxxxxxxxxxxxxxxxxxxxxxxxxxxxxxxxxxxxxxxxxxxxxxxxxxxxxxxxxxxxxxxxxxxxxxxxxxxxxxxxxxxxxxxxxxxxxxxxxxxxxxxxxxxxxxxxxxxxxxxxxxxxxxxxxxxxxxxxxxxxxxxxxxxxxxxxxxxxxxxxxxxxxxxxxxxxxxxxxxxxxxxxxxxxxxxxxxxxxxxxxxxxxxxxxxxxxxxxxxxxxxxxxxxxxxxxxxxxxxxxxxxxxxxxxxxxxxxxxxxxxxxxxxxxxxxxxxxxxxxx00000000000000000000000000000000 8!
b10 9
b10000000000000 9!
b1 @!
b100000 A!
b1 B!
b100000 C!
b10000000000010100 F
b1 F!
b10000000000010000 G
b10000000000010100 J
b1111 K
b111101100000000000000000 L
b1100000100000001110 M
b100000001100 N
b1101000100 N!
b1101 O
b0 O!
b0 P
b1 Q
b1 R
b1 S
b1101 T
b1100 U
b111101100 Y
b100000000000000000000000000000000 Z
b1101 [
b1 \
1]
b0 c
b0 d
1j!
1l
b111101100000011010110011 l!
b0 p
b1 q
b1 r
b0 u
b0 v
b0 w
b0 y
#12000
0!
0j!
#13000
1!
1!!
1"!
1#!
b10000000000010100 $
b11001010111111100001000000000000 $!
b110101011010000000100011 %
b10000111111101010011 %!
b11001010111111100001000000000000 &!
b10000111111101010011 '!
b11001010111111100001000000000000 (!
b0 )
b11001010111111100001000000000000 )!
b110101011010000000100011 *
b1111111111111111111111111111111111001010111111100001000000000000 +
b111001010111111100001000000000000 ,!
b11001010111111100001000000000000 -
b0 -!
0.
b11001010111111100001000000000000 .!
b110101011 4!
b11001010111111100001000000000000 5
b0 5!
16
b11001010111111100001000000000000 6!
07!
b1 8
bx0000000000000000000000000000000100000000000000000000001111101000000000000000000000000000000000010000000000000000000000000000000011001010111111100001000000000000xxxxxxxxxxxxxxxxxxxxxxxxxxxxxxxxxxxxxxxxxxxxxxxxxxxxxxxxxxxxxxxxxxxxxxxxxxxxxxxxxxxxxxxxxxxxxxxxxxxxxxxxxxxxxxxxxxxxxxxxxxxxxxxxxxxxxxxxxxxxxxxxxxxxxxxxxxxxxxxxxxxxxxxxxxxxxxxxxxxxxxxxxxxxxxxxxxxxxxxxxxxxxxxxxxxxxxxxxxxxxxxxxxxxxxxxxxxxxxxxxxxxxxxxxxxxxxxxxxxxxxxxxxxxxxxxxxxxxxxxxxxxxxxxxxxxxxxxxxxxxxxxxxxxxxxxxxxxxxxx00000000000000000000000000000000 8!
b1111 9
b0 9!
1:
b1 @!
b100000 A!
b1 B!
b100000 C!
1D!
b10000000000011000 F
b11001010111111100001000000000000 F!
b10000000000010100 G
b10 H!
b10000000000011000 J
1J!
b1101 K
b110101011010000000000000 L
b1011010100000001100 M
b0 N
b10 N!
b0 O
b0 O!
b11001010111111100001000000000000 P
b0 Q
1Q!
b111001010111111100001000000000000 R
b11001010111111100001000000000000 S
b0 T
b1011 U
b1101 V
0X
1X!
b110101011 Y
b111001010111111100001000000000000 Z
1Z!
b0 [
b11001010111111100001000000000000 \
0\!
0]
1a
b1 a!
b10 c
b10 c!
b0 d
1f
1g
1j!
0l
b110101011010000000100011 l!
b0 p
b1 q
b101 r
0s
b0 u
b0 v
b0 w
b0 y
#14000
0!
0j!
#15000
1!
1!!
1"!
1#!
b10000000000011000 $
b1111101000 $!
b11111111111101110000011100010011 %
b10111110000000000000000000000 %!
b0 &!
b0 '!
b1111101000 (!
b1110 )
b0 )!
b11111111111101110000011100010011 *
b1111101000 +
bx ,
b1111101000 ,!
b1111100111 -
b111111111111111111111111111111111 -!
0.
b1111100111 .!
b1111101110 4!
b1111100000 5
b1110 5!
06
b1111100111 6!
17!
bx00000000000000000000000000000000xxxxxxxxxxxxxxxxxxxxxxxx 8
b10000000 9
b100000000000000 9!
0:
1>
0?
b1 @!
b100000 A!
b1 B!
b1 C
b100000 C!
0D!
b10000000000011100 F
b1111100111 F!
b10000000000011000 G
b0xxxxxxxxxxxxxxxxxxxxxxxxxxxxxxxx G!
b0 H!
b10000000000011100 J
0J!
b11111111111111111111111111111111 K
b11111111111101110000000000000000 L
0L!
b11111111111101110000111111111110 M
b11011110101011011100101010110000 M!
b11111111111111111111011111101110 N
b1110011100 N!
b11111111111111111111111111101110 O
b10 O!
b1111101000 P
1P!
b11111111111111111111111111111111 Q
0Q!
b1111100111 R
b1111100111 S
b1110 T
b1110 U
b11111 V
0W
0X
0X!
b1111101110 Y
1Y!
bx00000000000000000000001111101000 Z
0Z!
b1110 [
0[!
b1111100111 \
1\!
1]
0a
b1 a!
b1 b!
b0 c
b10 c!
b0 d
b10 d!
b11011110101011011100101010110000 e
0f
0g
1h
0i
1j!
0k
1l
b11111111111101110000011100010011 l!
b0 p
b1 q
1q!
b10 r
1s
b1 s!
b0 u
b0 v
b0 w
b0 y
#16000
0!
0j!
#17000
1!
1!!
1"!
1#!
b10000000000011100 $
b1 $!
b1111000011000010011 %
b10000000000000000000000000000000 %!
b1 &!
b10000000000000000000000000000000 '!
b1 (!
b1100 )
b1 )!
b1111000011000010011 *
b1 +
b0 ,
b1 ,!
b1 -
b0 -!
0.
b1 .!
b1111 4!
b0 5
b1100 5!
b1 6!
17!
b0 8
bx0000000000000000000000000000000100000000000000000000001111100111000000000000000000000000000000010000000000000000000000000000000011001010111111100001000000000000xxxxxxxxxxxxxxxxxxxxxxxxxxxxxxxxxxxxxxxxxxxxxxxxxxxxxxxxxxxxxxxxxxxxxxxxxxxxxxxxxxxxxxxxxxxxxxxxxxxxxxxxxxxxxxxxxxxxxxxxxxxxxxxxxxxxxxxxxxxxxxxxxxxxxxxxxxxxxxxxxxxxxxxxxxxxxxxxxxxxxxxxxxxxxxxxxxxxxxxxxxxxxxxxxxxxxxxxxxxxxxxxxxxxxxxxxxxxxxxxxxxxxxxxxxxxxxxxxxxxxxxxxxxxxxxxxxxxxxxxxxxxxxxxxxxxxxxxxxxxxxxxxxxxxxxxxxxxxxxx00000000000000000000000000000000 8!
b10 9
b1000000000000 9!
b1 @!
b100000 A!
b1 B!
b100000 C!
b10000000000100000 F
b1 F!
b10000000000011100 G
b0 G!
b10000000000100000 J
b0 K
b1111000000000000000 L
b1111000000000000000 M
b1100 N
b1100000100 N!
b1100 O
b10 O!
b1 P
b0 Q
b1 R
b1 S
b1100 T
b1111 U
b0 V
b1111 Y
b1 Z
b1100 [
b1 \
1]
b0 c
b0 d
1j!
1l
b1111000011000010011 l!
b0 p
b1 q
b10 r
b0 u
b0 v
b0 w
b0 y
#18000
0!
0j!
#19000
1!
1!!
1"!
1#!
b10000000000100000 $
b1101000011110010011 %
b1111 )
b1101000011110010011 *
0.
b1 .!
b1101 4!
b1111 5!
17!
bx0000000000000000000000000000000100000000000000000000001111100111000000000000000000000000000000010000000000000000000000000000000111001010111111100001000000000000xxxxxxxxxxxxxxxxxxxxxxxxxxxxxxxxxxxxxxxxxxxxxxxxxxxxxxxxxxxxxxxxxxxxxxxxxxxxxxxxxxxxxxxxxxxxxxxxxxxxxxxxxxxxxxxxxxxxxxxxxxxxxxxxxxxxxxxxxxxxxxxxxxxxxxxxxxxxxxxxxxxxxxxxxxxxxxxxxxxxxxxxxxxxxxxxxxxxxxxxxxxxxxxxxxxxxxxxxxxxxxxxxxxxxxxxxxxxxxxxxxxxxxxxxxxxxxxxxxxxxxxxxxxxxxxxxxxxxxxxxxxxxxxxxxxxxxxxxxxxxxxxxxxxxxxxxxxxxxxx00000000000000000000000000000000 8!
b1000000000000000 9!
b1 @!
b100000 A!
b1 B!
b100000 C!
b10000000000100100 F
b10000000000100000 G
b10000000000100100 J
b1101000000000000000 L
b1101000000000000000 M
b100000001110 N
b1111000100 N!
b1111 O
b10 O!
b1 P
b0 Q
b1111 T
b1101 U
b1101 Y
b1 Z
b1111 [
b1 \
1]
b0 c
b0 d
1j!
1l
b1101000011110010011 l!
b0 p
b1 q
b10 r
b0 u
b0 v
b0 w
#20000
0!
0j!
#21000
1!
1!!
1"!
1#!
b10000000000100100 $
b1111100111 $!
b11111110000001110001011011100011 %
b11100111110000000000000000000000 %!
b1111100111 &!
b11100111110000000000000000000000 '!
b1111100111 (!
b1101 )
b1111100111 )!
b11111110000001110001011011100011 *
b1111100111 +
b1111100111 ,!
b0 -!
0.
b1 .!
b1110 4!
b0 5!
b11011110101011011100101010110000 6!
17!
b1 9!
1?
b1 @!
b100000 A!
b1 B!
b100000 C!
b10000000000010000 F
b1 F!
b10000000000100100 G
b10000000000010000 J
b11111111111111111111111111100000 K
b11111110000001110001000000000000 L
1L!
b11111111111101110001011111100000 M
b11111111111111111111111111101100 N
b1101000100 N!
b11111111111111111111111111101101 O
b10 O!
b1111100111 P
b0 Q
b1111100111 R
b1 S
b1101 T
b1110 U
b1110 Y
b1111100111 Z
b0 [
1[!
b11011110101011011100101010110000 \
1]
b0 a!
b0 c
b0 d
1i
1j!
1k
0l
b11111110000001110001011011100011 l!
b1100 p
b1 q
b1 r
0s
b0 u
b0 v
b0 w
1x
b0 y
#22000
0!
0j!
#23000
1!
1"!
1#!
b10000000000010000 $
b1 $!
b111101100000011010110011 %
b10000000000000000000000000000000 %!
b0 &!
b0 '!
b1 (!
b0 )!
b111101100000011010110011 *
b1 +
b1 ,
b1 ,!
b10 -
b1 -!
0.
b10 .!
b111101100 4!
b0 5
b1101 5!
b10 6!
17!
b10000000000000000 8
bx0000000000000000000000000000000100000000000000000000001111100111000000000000000000000000000000010000000000000000000000000000000111001010111111100001000000000000xxxxxxxxxxxxxxxxxxxxxxxxxxxxxxxxxxxxxxxxxxxxxxxxxxxxxxxxxxxxxxxxxxxxxxxxxxxxxxxxxxxxxxxxxxxxxxxxxxxxxxxxxxxxxxxxxxxxxxxxxxxxxxxxxxxxxxxxxxxxxxxxxxxxxxxxxxxxxxxxxxxxxxxxxxxxxxxxxxxxxxxxxxxxxxxxxxxxxxxxxxxxxxxxxxxxxxxxxxxxxxxxxxxxxxxxxxxxxxxxxxxxxxxxxxxxxxxxxxxxxxxxxxxxxxxxxxxxxxxxxxxxxxxxxxxxxxxxxxxxxxxxxxxxxxxxxxxxxxxx00000000000000000000000000000000 8!
b100 9
b10000000000000 9!
0:
0>
0?
b1 @!
b100000 A!
b1 B!
b100000 C!
b10000000000010100 F
b10 F!
b10000000000010000 G
b1 G!
b10000000000010100 J
b1111 K
b111101100000000000000000 L
0L!
b1100000100000001110 M
b100000001100 N
b1101001000 N!
b1101 O
b10 O!
b1 P
0P!
b1 Q
0Q!
b10 R
b10 S
b1100 U
b1111 V
0X
1X!
b111101100 Y
0Y!
b100000000000000000000000000000001 Z
b1101 [
0[!
b10 \
1]
b0 a!
b0 b!
b0 c
b0 d
1f
0h
0i
1j!
0k
1l
b111101100000011010110011 l!
b0 p
b1 q
0q!
b1 r
1s
b0 s!
b0 u
b0 v
b0 w
0x
b0 y
#24000
0!
0j!
