vivado-vcd/stream_delay.vcd
$date
   Sat Aug 22 18:10:03 2020
$end
$version
  2020.1
$end
$timescale
  1ps
$end
$scope module stream_delay_tb $end
$var reg 1 ! clk_i $end
$var reg 1 " rst_ni $end
$var reg 32 # payload_i $end
$var reg 1 $ ready_o $end
$var reg 1 % valid_i $end
$var reg 32 & payload_o $end
$var reg 1 ' ready_i $end
$var reg 1 ( valid_o $end
$upscope $end
$enddefinitions $end
#0
$dumpvars
x!
1"
b0 #
0$
1%
b0 &
0'
0(
$end
#1000
0"
1$
1'
1(
#2000
1"
#5000
1!
0$
0'
0(
#5500
b1 #
b1 &
#6000
0!
#7000
1!
1$
1'
1(
#8000
0!
#9000
1!
0$
0'
0(
#9500
b10 #
b10 &
#10000
0!
#11000
1!
0(
#12000
0!
#13000
1!
0(
#14000
0!
#15000
1!
0(
#16000
0!
#17000
1!
0(
#18000
0!
#19000
1!
1$
1'
1(
#20000
0!
#21000
1!
0$
0'
0(
#21500
b11 #
b11 &
#22000
0!
#23000
1!
0(
#24000
0!
#25000
1!
0(
#26000
0!
#27000
1!
0(
#28000
0!
#29000
1!
0(
#30000
0!
#31000
1!
0(
#32000
0!
#33000
1!
0(
#34000
0!
#35000
1!
0(
#36000
0!
#37000
1!
1$
1'
1(
#38000
0!
#39000
1!
0$
0'
0(
#39500
b100 #
b100 &
#40000
0!
#41000
1!
0(
#42000
0!
#43000
1!
0(
#44000
0!
#45000
1!
0(
#46000
0!
#47000
1!
0(
#48000
0!
#49000
1!
0(
#50000
0!
#51000
1!
0(
#52000
0!
#53000
1!
0(
#54000
0!
#55000
1!
0(
#56000
0!
#57000
1!
0(
#58000
0!
#59000
1!
0(
#60000
0!
#61000
1!
0(
#62000
0!
#63000
1!
0(
#64000
0!
#65000
1!
0(
#66000
0!
#67000
1!
1$
1'
1(
#68000
0!
#69000
1!
0$
0'
0(
#69500
b101 #
b101 &
#70000
0!
#71000
1!
0(
#72000
0!
#73000
1!
0(
#74000
0!
#75000
1!
0(
#76000
0!
#77000
1!
0(
#78000
0!
#79000
1!
0(
#80000
0!
#81000
1!
0(
#82000
0!
#83000
1!
0(
#84000
0!
#85000
1!
0(
#86000
0!
#87000
1!
0(
#88000
0!
#89000
1!
0(
#90000
0!
#91000
1!
1$
1'
1(
#92000
0!
#93000
1!
0$
0'
0(
#93500
b110 #
b110 &
#94000
0!
#95000
1!
0(
#96000
0!
#97000
1!
0(
#98000
0!
#99000
1!
0(
#100000
0!
#101000
1!
0(
#102000
0!
#103000
1!
1$
1'
1(
#104000
0!
#105000
1!
0$
0'
0(
#105500
b111 #
b111 &
#106000
0!
#107000
1!
0(
#108000
0!
#109000
1!
0(
#110000
0!
#111000
1!
0(
#112000
0!
#113000
1!
0(
#114000
0!
#115000
1!
0(
#116000
0!
#117000
1!
0(
#118000
0!
#119000
1!
0(
#120000
0!
#121000
1!
0(
#122000
0!
#123000
1!
1$
1'
1(
#124000
0!
#125000
1!
0$
0'
0(
#125500
b1000 #
b1000 &
#126000
0!
#127000
1!
0(
#128000
0!
#129000
1!
0(
#130000
0!
#131000
1!
0(
#132000
0!
#133000
1!
0(
#134000
0!
#135000
1!
0(
#136000
0!
#137000
1!
0(
#138000
0!
#139000
1!
0(
#140000
0!
#141000
1!
0(
#142000
0!
#143000
1!
0(
#144000
0!
#145000
1!
0(
#146000
0!
#147000
1!
0(
#148000
0!
#149000
1!
0(
#150000
0!
#151000
1!
0(
#152000
0!
#153000
1!
0(
#154000
0!
#155000
1!
0(
#156000
0!
#157000
1!
0(
#158000
0!
#159000
1!
1$
1'
1(
#160000
0!
#161000
1!
0$
0'
0(
#161500
b1001 #
b1001 &
#162000
0!
#163000
1!
0(
#164000
0!
#165000
1!
0(
#166000
0!
#167000
1!
0(
#168000
0!
#169000
1!
0(
#170000
0!
#171000
1!
0(
#172000
0!
#173000
1!
0(
#174000
0!
#175000
1!
0(
#176000
0!
#177000
1!
0(
#178000
0!
#179000
1!
0(
#180000
0!
#181000
1!
0(
#182000
0!
#183000
1!
0(
#184000
0!
#185000
1!
0(
#186000
0!
#187000
1!
0(
#188000
0!
#189000
1!
0(
#190000
0!
#191000
1!
0(
#192000
0!
#193000
1!
1$
1'
1(
#194000
0!
#195000
1!
0$
0'
0(
#195500
b1010 #
b1010 &
#196000
0!
#197000
1!
0(
#198000
0!
#199000
1!
0(
#200000
0!
#201000
1!
0(
#202000
0!
#203000
1!
0(
#204000
0!
#205000
1!
0(
#206000
0!
#207000
1!
0(
#208000
0!
#209000
1!
0(
#210000
0!
#211000
1!
0(
#212000
0!
#213000
1!
0(
#214000
0!
#215000
1!
0(
#216000
0!
#217000
1!
0(
#218000
0!
#219000
1!
0(
#220000
0!
#221000
1!
0(
#222000
0!
#223000
1!
1$
1'
1(
#224000
0!
#225000
1!
0$
0'
0(
#225500
b1011 #
b1011 &
#226000
0!
#227000
1!
0(
#228000
0!
#229000
1!
0(
#230000
0!
#231000
1!
0(
#232000
0!
#233000
1!
0(
#234000
0!
#235000
1!
0(
#236000
0!
#237000
1!
0(
#238000
0!
#239000
1!
0(
#240000
0!
#241000
1!
0(
#242000
0!
#243000
1!
0(
#244000
0!
#245000
1!
1$
1'
1(
#246000
0!
#247000
1!
1$
1'
1(
#247500
b1100 #
b1100 &
#248000
0!
#249000
1!
1$
1'
1(
#249500
b1101 #
b1101 &
#250000
0!
#251000
1!
0$
0'
0(
#251500
b1110 #
b1110 &
#252000
0!
#253000
1!
1$
1'
1(
#254000
0!
#255000
1!
0$
0'
0(
#255500
b1111 #
b1111 &
#256000
0!
#257000
1!
0(
#258000
0!
#259000
1!
0(
#260000
0!
#261000
1!
0(
#262000
0!
#263000
1!
1$
1'
1(
#264000
0!
#265000
1!
0$
0'
0(
#265500
b10000 #
b10000 &
#266000
0!
#267000
1!
0(
#268000
0!
#269000
1!
0(
#270000
0!
#271000
1!
0(
#272000
0!
#273000
1!
0(
#274000
0!
#275000
1!
0(
#276000
0!
#277000
1!
1$
1'
1(
#278000
0!
#279000
1!
0$
0'
0(
#279500
b10001 #
b10001 &
#280000
0!
#281000
1!
0(
#282000
0!
#283000
1!
0(
#284000
0!
#285000
1!
0(
#286000
0!
#287000
1!
0(
#288000
0!
#289000
1!
0(
#290000
0!
#291000
1!
0(
#292000
0!
#293000
1!
0(
#294000
0!
#295000
1!
0(
#296000
0!
#297000
1!
0(
#298000
0!
#299000
1!
1$
1'
1(
#300000
0!
#301000
1!
0$
0'
0(
#301500
b10010 #
b10010 &
#302000
0!
#303000
1!
1$
1'
1(
#304000
0!
#305000
1!
0$
0'
0(
#305500
b10011 #
b10011 &
#306000
0!
#307000
1!
0(
#308000
0!
#309000
1!
0(
#310000
0!
#311000
1!
0(
#312000
0!
#313000
1!
1$
1'
1(
#314000
0!
#315000
1!
0$
0'
0(
#315500
b10100 #
b10100 &
#316000
0!
#317000
1!
0(
#318000
0!
#319000
1!
0(
#320000
0!
#321000
1!
0(
#322000
0!
#323000
1!
0(
#324000
0!
#325000
1!
0(
#326000
0!
#327000
1!
1$
1'
1(
#328000
0!
#329000
1!
0$
0'
0(
#329500
b10101 #
b10101 &
#330000
0!
#331000
1!
0(
#332000
0!
#333000
1!
0(
#334000
0!
#335000
1!
0(
#336000
0!
#337000
1!
0(
#338000
0!
#339000
1!
0(
#340000
0!
#341000
1!
0(
#342000
0!
#343000
1!
0(
#344000
0!
#345000
1!
0(
#346000
0!
#347000
1!
0(
#348000
0!
#349000
1!
0(
#350000
0!
#351000
1!
1$
1'
1(
#352000
0!
#353000
1!
0$
0'
0(
#353500
b10110 #
b10110 &
#354000
0!
#355000
1!
0(
#356000
0!
#357000
1!
0(
#358000
0!
#359000
1!
0(
#360000
0!
#361000
1!
1$
1'
1(
#362000
0!
#363000
1!
0$
0'
0(
#363500
b10111 #
b10111 &
#364000
0!
#365000
1!
0(
#366000
0!
#367000
1!
0(
#368000
0!
#369000
1!
0(
#370000
0!
#371000
1!
0(
#372000
0!
#373000
1!
0(
#374000
0!
#375000
1!
0(
#376000
0!
#377000
1!
1$
1'
1(
#378000
0!
#379000
1!
0$
0'
0(
#379500
b11000 #
b11000 &
#380000
0!
#381000
1!
0(
#382000
0!
#383000
1!
0(
#384000
0!
#385000
1!
0(
#386000
0!
#387000
1!
0(
#388000
0!
#389000
1!
0(
#390000
0!
#391000
1!
0(
#392000
0!
#393000
1!
0(
#394000
0!
#395000
1!
0(
#396000
0!
#397000
1!
0(
#398000
0!
#399000
1!
0(
#400000
0!
#401000
1!
0(
#402000
0!
#403000
1!
0(
#404000
0!
#405000
1!
1$
1'
1(
#406000
0!
#407000
1!
0$
0'
0(
#407500
b11001 #
b11001 &
#408000
0!
#409000
1!
0(
#410000
0!
#411000
1!
0(
#412000
0!
#413000
1!
0(
#414000
0!
#415000
1!
0(
#416000
0!
#417000
1!
0(
#418000
0!
#419000
1!
0(
#420000
0!
#421000
1!
0(
#422000
0!
#423000
1!
1$
1'
1(
#424000
0!
#425000
1!
0$
0'
0(
#425500
b11010 #
b11010 &
#426000
0!
#427000
1!
0(
#428000
0!
#429000
1!
0(
#430000
0!
#431000
1!
0(
#432000
0!
#433000
1!
0(
#434000
0!
#435000
1!
0(
#436000
0!
#437000
1!
0(
#438000
0!
#439000
1!
0(
#440000
0!
#441000
1!
0(
#442000
0!
#443000
1!
0(
#444000
0!
#445000
1!
0(
#446000
0!
#447000
1!
0(
#448000
0!
#449000
1!
0(
#450000
0!
#451000
1!
0(
#452000
0!
#453000
1!
1$
1'
1(
#454000
0!
#455000
1!
0$
0'
0(
#455500
b11011 #
b11011 &
#456000
0!
#457000
1!
0(
#458000
0!
#459000
1!
0(
#460000
0!
#461000
1!
0(
#462000
0!
#463000
1!
0(
#464000
0!
#465000
1!
0(
#466000
0!
#467000
1!
0(
#468000
0!
#469000
1!
0(
#470000
0!
#471000
1!
0(
#472000
0!
#473000
1!
0(
#474000
0!
#475000
1!
0(
#476000
0!
#477000
1!
1$
1'
1(
#478000
0!
#479000
1!
0$
0'
0(
#479500
b11100 #
b11100 &
#480000
0!
#481000
1!
0(
#482000
0!
#483000
1!
0(
#484000
0!
#485000
1!
0(
#486000
0!
#487000
1!
0(
#488000
0!
#489000
1!
1$
1'
1(
#490000
0!
#491000
1!
0$
0'
0(
#491500
b11101 #
b11101 &
#492000
0!
#493000
1!
0(
#494000
0!
#495000
1!
0(
#496000
0!
#497000
1!
0(
#498000
0!
#499000
1!
0(
#500000
0!
#501000
1!
0(
#502000
0!
#503000
1!
0(
#504000
0!
#505000
1!
0(
#506000
0!
#507000
1!
0(
#508000
0!
#509000
1!
1$
1'
1(
#510000
0!
#511000
1!
0$
0'
0(
#511500
b11110 #
b11110 &
#512000
0!
#513000
1!
0(
#514000
0!
#515000
1!
0(
#516000
0!
#517000
1!
0(
#518000
0!
#519000
1!
0(
#520000
0!
#521000
1!
0(
#522000
0!
#523000
1!
0(
#524000
0!
#525000
1!
0(
#526000
0!
#527000
1!
0(
#528000
0!
#529000
1!
0(
#530000
0!
#531000
1!
0(
#532000
0!
#533000
1!
0(
#534000
0!
#535000
1!
0(
#536000
0!
#537000
1!
0(
#538000
0!
#539000
1!
0(
#540000
0!
#541000
1!
0(
#542000
0!
#543000
1!
1$
1'
1(
#544000
0!
#545000
1!
0$
0'
0(
#545500
b11111 #
b11111 &
#546000
0!
#547000
1!
0(
#548000
0!
#549000
1!
0(
#550000
0!
#551000
1!
0(
#552000
0!
#553000
1!
0(
#554000
0!
#555000
1!
0(
#556000
0!
#557000
1!
0(
#558000
0!
#559000
1!
0(
#560000
0!
#561000
1!
0(
#562000
0!
#563000
1!
0(
#564000
0!
#565000
1!
0(
#566000
0!
#567000
1!
0(
#568000
0!
#569000
1!
0(
#570000
0!
#571000
1!
0(
#572000
0!
#573000
1!
0(
#574000
0!
#575000
1!
1$
1'
1(
#576000
0!
#577000
1!
0$
0'
0(
#577500
b100000 #
b100000 &
#578000
0!
#579000
1!
0(
#580000
0!
#581000
1!
0(
#582000
0!
#583000
1!
0(
#584000
0!
#585000
1!
0(
#586000
0!
#587000
1!
0(
#588000
0!
#589000
1!
0(
#590000
0!
#591000
1!
0(
#592000
0!
#593000
1!
0(
#594000
0!
#595000
1!
0(
#596000
0!
#597000
1!
0(
#598000
0!
#599000
1!
0(
#600000
0!
#601000
1!
0(
#602000
0!
#603000
1!
1$
1'
1(
#604000
0!
#605000
1!
0$
0'
0(
#605500
b100001 #
b100001 &
#606000
0!
#607000
1!
0(
#608000
0!
#609000
1!
0(
#610000
0!
#611000
1!
0(
#612000
0!
#613000
1!
0(
#614000
0!
#615000
1!
0(
#616000
0!
#617000
1!
0(
#618000
0!
#619000
1!
0(
#620000
0!
#621000
1!
0(
#622000
0!
#623000
1!
1$
1'
1(
#624000
0!
#625000
1!
0$
0'
0(
#625500
b100010 #
b100010 &
#626000
0!
#627000
1!
0(
#628000
0!
#629000
1!
0(
#630000
0!
#631000
1!
0(
#632000
0!
#633000
1!
0(
#634000
0!
#635000
1!
0(
#636000
0!
#637000
1!
0(
#638000
0!
#639000
1!
0(
#640000
0!
#641000
1!
0(
#642000
0!
#643000
1!
0(
#644000
0!
#645000
1!
0(
#646000
0!
#647000
1!
0(
#648000
0!
#649000
1!
0(
#650000
0!
#651000
1!
0(
#652000
0!
#653000
1!
0(
#654000
0!
#655000
1!
0(
#656000
0!
#657000
1!
0(
#658000
0!
#659000
1!
1$
1'
1(
#660000
0!
#661000
1!
0$
0'
0(
#661500
b100011 #
b100011 &
#662000
0!
#663000
1!
0(
#664000
0!
#665000
1!
0(
#666000
0!
#667000
1!
0(
#668000
0!
#669000
1!
0(
#670000
0!
#671000
1!
0(
#672000
0!
#673000
1!
0(
#674000
0!
#675000
1!
0(
#676000
0!
#677000
1!
0(
#678000
0!
#679000
1!
0(
#680000
0!
#681000
1!
0(
#682000
0!
#683000
1!
0(
#684000
0!
#685000
1!
0(
#686000
0!
#687000
1!
0(
#688000
0!
#689000
1!
0(
#690000
0!
#691000
1!
0(
#692000
0!
#693000
1!
0(
#694000
0!
#695000
1!
1$
1'
1(
#696000
0!
#697000
1!
0$
0'
0(
#697500
b100100 #
b100100 &
#698000
0!
#699000
1!
0(
#700000
0!
#701000
1!
0(
#702000
0!
#703000
1!
0(
#704000
0!
#705000
1!
0(
#706000
0!
#707000
1!
0(
#708000
0!
#709000
1!
0(
#710000
0!
#711000
1!
0(
#712000
0!
#713000
1!
0(
#714000
0!
#715000
1!
0(
#716000
0!
#717000
1!
0(
#718000
0!
#719000
1!
0(
#720000
0!
#721000
1!
0(
#722000
0!
#723000
1!
0(
#724000
0!
#725000
1!
0(
#726000
0!
#727000
1!
0(
#728000
0!
#729000
1!
0(
#730000
0!
#731000
1!
1$
1'
1(
#732000
0!
#733000
1!
0$
0'
0(
#733500
b100101 #
b100101 &
#734000
0!
#735000
1!
0(
#736000
0!
#737000
1!
0(
#738000
0!
#739000
1!
0(
#740000
0!
#741000
1!
0(
#742000
0!
#743000
1!
0(
#744000
0!
#745000
1!
0(
#746000
0!
#747000
1!
0(
#748000
0!
#749000
1!
0(
#750000
0!
#751000
1!
0(
#752000
0!
#753000
1!
0(
#754000
0!
#755000
1!
0(
#756000
0!
#757000
1!
0(
#758000
0!
#759000
1!
0(
#760000
0!
#761000
1!
0(
#762000
0!
#763000
1!
0(
#764000
0!
#765000
1!
0(
#766000
0!
#767000
1!
1$
1'
1(
#768000
0!
#769000
1!
0$
0'
0(
#769500
b100110 #
b100110 &
#770000
0!
#771000
1!
0(
#772000
0!
#773000
1!
0(
#774000
0!
#775000
1!
0(
#776000
0!
#777000
1!
0(
#778000
0!
#779000
1!
0(
#780000
0!
#781000
1!
0(
#782000
0!
#783000
1!
0(
#784000
0!
#785000
1!
0(
#786000
0!
#787000
1!
0(
#788000
0!
#789000
1!
0(
#790000
0!
#791000
1!
0(
#792000
0!
#793000
1!
0(
#794000
0!
#795000
1!
0(
#796000
0!
#797000
1!
0(
#798000
0!
#799000
1!
0(
#800000
0!
#801000
1!
0(
#802000
0!
#803000
1!
1$
1'
1(
#804000
0!
#805000
1!
0$
0'
0(
#805500
b100111 #
b100111 &
#806000
0!
#807000
1!
0(
#808000
0!
#809000
1!
0(
#810000
0!
#811000
1!
0(
#812000
0!
#813000
1!
0(
#814000
0!
#815000
1!
0(
#816000
0!
#817000
1!
0(
#818000
0!
#819000
1!
0(
#820000
0!
#821000
1!
0(
#822000
0!
#823000
1!
0(
#824000
0!
#825000
1!
0(
#826000
0!
#827000
1!
0(
#828000
0!
#829000
1!
0(
#830000
0!
#831000
1!
0(
#832000
0!
#833000
1!
0(
#834000
0!
#835000
1!
0(
#836000
0!
#837000
1!
1$
1'
1(
#838000
0!
#839000
1!
0$
0'
0(
#839500
b101000 #
b101000 &
#840000
0!
#841000
1!
0(
#842000
0!
#843000
1!
0(
#844000
0!
#845000
1!
0(
#846000
0!
#847000
1!
0(
#848000
0!
#849000
1!
0(
#850000
0!
#851000
1!
0(
#852000
0!
#853000
1!
0(
#854000
0!
#855000
1!
0(
#856000
0!
#857000
1!
0(
#858000
0!
#859000
1!
0(
#860000
0!
#861000
1!
0(
#862000
0!
#863000
1!
0(
#864000
0!
#865000
1!
0(
#866000
0!
#867000
1!
0(
#868000
0!
#869000
1!
1$
1'
1(
#870000
0!
#871000
1!
0$
0'
0(
#871500
b101001 #
b101001 &
#872000
0!
#873000
1!
0(
#874000
0!
#875000
1!
0(
#876000
0!
#877000
1!
0(
#878000
0!
#879000
1!
0(
#880000
0!
#881000
1!
0(
#882000
0!
#883000
1!
0(
#884000
0!
#885000
1!
0(
#886000
0!
#887000
1!
0(
#888000
0!
#889000
1!
0(
#890000
0!
#891000
1!
0(
#892000
0!
#893000
1!
0(
#894000
0!
#895000
1!
0(
#896000
0!
#897000
1!
1$
1'
1(
#898000
0!
#899000
1!
0$
0'
0(
#899500
b101010 #
b101010 &
#900000
0!
#901000
1!
0(
#902000
0!
#903000
1!
0(
#904000
0!
#905000
1!
0(
#906000
0!
#907000
1!
0(
#908000
0!
#909000
1!
0(
#910000
0!
#911000
1!
0(
#912000
0!
#913000
1!
0(
#914000
0!
#915000
1!
1$
1'
1(
#916000
0!
#917000
1!
0$
0'
0(
#917500
b101011 #
b101011 &
#918000
0!
#919000
1!
0(
#920000
0!
#921000
1!
0(
#922000
0!
#923000
1!
0(
#924000
0!
#925000
1!
0(
#926000
0!
#927000
1!
0(
#928000
0!
#929000
1!
0(
#930000
0!
#931000
1!
0(
#932000
0!
#933000
1!
0(
#934000
0!
#935000
1!
0(
#936000
0!
#937000
1!
0(
#938000
0!
#939000
1!
0(
#940000
0!
#941000
1!
0(
#942000
0!
#943000
1!
0(
#944000
0!
#945000
1!
1$
1'
1(
#946000
0!
#947000
1!
0$
0'
0(
#947500
b101100 #
b101100 &
#948000
0!
#949000
1!
0(
#950000
0!
#951000
1!
0(
#952000
0!
#953000
1!
0(
#954000
0!
#955000
1!
0(
#956000
0!
#957000
1!
0(
#958000
0!
#959000
1!
0(
#960000
0!
#961000
1!
0(
#962000
0!
#963000
1!
0(
#964000
0!
#965000
1!
0(
#966000
0!
#967000
1!
1$
1'
1(
#968000
0!
#969000
1!
0$
0'
0(
#969500
b101101 #
b101101 &
#970000
0!
#971000
1!
1$
1'
1(
#972000
0!
#973000
1!
0$
0'
0(
#973500
b101110 #
b101110 &
#974000
0!
#975000
1!
0(
#976000
0!
#977000
1!
0(
#978000
0!
#979000
1!
0(
#980000
0!
#981000
1!
0(
#982000
0!
#983000
1!
1$
1'
1(
#984000
0!
#985000
1!
0$
0'
0(
#985500
b101111 #
b101111 &
#986000
0!
#987000
1!
0(
#988000
0!
#989000
1!
0(
#990000
0!
#991000
1!
0(
#992000
0!
#993000
1!
0(
#994000
0!
#995000
1!
0(
#996000
0!
#997000
1!
0(
#998000
0!
#999000
1!
0(
#1000000
0!
#1001000
1!
0(
#1002000
0!
#1003000
1!
1$
1'
1(
#1004000
0!
#1005000
1!
0$
0'
0(
#1005500
b110000 #
b110000 &
#1006000
0!
#1007000
1!
0(
#1008000
0!
#1009000
1!
0(
#1010000
0!
#1011000
1!
0(
#1012000
0!
#1013000
1!
0(
#1014000
0!
#1015000
1!
0(
#1016000
0!
#1017000
1!
0(
#1018000
0!
#1019000
1!
0(
#1020000
0!
#1021000
1!
0(
#1022000
0!
#1023000
1!
0(
#1024000
0!
#1025000
1!
0(
#1026000
0!
#1027000
1!
0(
#1028000
0!
#1029000
1!
0(
#1030000
0!
#1031000
1!
0(
#1032000
0!
#1033000
1!
0(
#1034000
0!
#1035000
1!
0(
#1036000
0!
#1037000
1!
1$
1'
1(
#1038000
0!
#1039000
1!
0$
0'
0(
#1039500
b110001 #
b110001 &
#1040000
0!
#1041000
1!
0(
#1042000
0!
#1043000
1!
0(
#1044000
0!
#1045000
1!
0(
#1046000
0!
#1047000
1!
0(
#1048000
0!
#1049000
1!
0(
#1050000
0!
#1051000
1!
0(
#1052000
0!
#1053000
1!
0(
#1054000
0!
#1055000
1!
0(
#1056000
0!
#1057000
1!
0(
#1058000
0!
#1059000
1!
0(
#1060000
0!
#1061000
1!
0(
#1062000
0!
#1063000
1!
0(
#1064000
0!
#1065000
1!
0(
#1066000
0!
#1067000
1!
1$
1'
1(
#1068000
0!
#1069000
1!
0$
0'
0(
#1069500
b110010 #
b110010 &
#1070000
0!
#1071000
1!
0(
#1072000
0!
#1073000
1!
0(
#1074000
0!
#1075000
1!
0(
#1076000
0!
#1077000
1!
0(
#1078000
0!
#1079000
1!
0(
#1080000
0!
#1081000
1!
0(
#1082000
0!
#1083000
1!
0(
#1084000
0!
#1085000
1!
0(
#1086000
0!
#1087000
1!
0(
#1088000
0!
#1089000
1!
0(
#1090000
0!
#1091000
1!
1$
1'
1(
#1092000
0!
#1093000
1!
0$
0'
0(
#1093500
b110011 #
b110011 &
#1094000
0!
#1095000
1!
0(
#1096000
0!
#1097000
1!
0(
#1098000
0!
#1099000
1!
0(
#1100000
0!
#1101000
1!
1$
1'
1(
#1102000
0!
#1103000
1!
0$
0'
0(
#1103500
b110100 #
b110100 &
#1104000
0!
#1105000
1!
0(
#1106000
0!
#1107000
1!
0(
#1108000
0!
#1109000
1!
0(
#1110000
0!
#1111000
1!
0(
#1112000
0!
#1113000
1!
0(
#1114000
0!
#1115000
1!
1$
1'
1(
#1116000
0!
#1117000
1!
0$
0'
0(
#1117500
b110101 #
b110101 &
#1118000
0!
#1119000
1!
0(
#1120000
0!
#1121000
1!
0(
#1122000
0!
#1123000
1!
0(
#1124000
0!
#1125000
1!
0(
#1126000
0!
#1127000
1!
0(
#1128000
0!
#1129000
1!
0(
#1130000
0!
#1131000
1!
0(
#1132000
0!
#1133000
1!
0(
#1134000
0!
#1135000
1!
0(
#1136000
0!
#1137000
1!
1$
1'
1(
#1138000
0!
#1139000
1!
0$
0'
0(
#1139500
b110110 #
b110110 &
#1140000
0!
#1141000
1!
1$
1'
1(
#1142000
0!
#1143000
1!
0$
0'
0(
#1143500
b110111 #
b110111 &
#1144000
0!
#1145000
1!
0(
#1146000
0!
#1147000
1!
0(
#1148000
0!
#1149000
1!
0(
#1150000
0!
#1151000
1!
0(
#1152000
0!
#1153000
1!
1$
1'
1(
#1154000
0!
#1155000
1!
0$
0'
0(
#1155500
b111000 #
b111000 &
#1156000
0!
#1157000
1!
0(
#1158000
0!
#1159000
1!
0(
#1160000
0!
#1161000
1!
0(
#1162000
0!
#1163000
1!
0(
#1164000
0!
#1165000
1!
0(
#1166000
0!
#1167000
1!
0(
#1168000
0!
#1169000
1!
0(
#1170000
0!
#1171000
1!
1$
1'
1(
#1172000
0!
#1173000
1!
0$
0'
0(
#1173500
b111001 #
b111001 &
#1174000
0!
#1175000
1!
0(
#1176000
0!
#1177000
1!
0(
#1178000
0!
#1179000
1!
0(
#1180000
0!
#1181000
1!
0(
#1182000
0!
#1183000
1!
0(
#1184000
0!
#1185000
1!
0(
#1186000
0!
#1187000
1!
0(
#1188000
0!
#1189000
1!
0(
#1190000
0!
#1191000
1!
0(
#1192000
0!
#1193000
1!
0(
#1194000
0!
#1195000
1!
0(
#1196000
0!
#1197000
1!
0(
#1198000
0!
#1199000
1!
0(
#1200000
0!
#1201000
1!
0(
#1202000
0!
#1203000
1!
1$
1'
1(
#1204000
0!
#1205000
1!
0$
0'
0(
#1205500
b111010 #
b111010 &
#1206000
0!
#1207000
1!
0(
#1208000
0!
#1209000
1!
0(
#1210000
0!
#1211000
1!
0(
#1212000
0!
#1213000
1!
0(
#1214000
0!
#1215000
1!
0(
#1216000
0!
#1217000
1!
0(
#1218000
0!
#1219000
1!
0(
#1220000
0!
#1221000
1!
0(
#1222000
0!
#1223000
1!
0(
#1224000
0!
#1225000
1!
0(
#1226000
0!
#1227000
1!
0(
#1228000
0!
#1229000
1!
1$
1'
1(
#1230000
0!
#1231000
1!
0$
0'
0(
#1231500
b111011 #
b111011 &
#1232000
0!
#1233000
1!
0(
#1234000
0!
#1235000
1!
0(
#1236000
0!
#1237000
1!
0(
#1238000
0!
#1239000
1!
0(
#1240000
0!
#1241000
1!
0(
#1242000
0!
#1243000
1!
0(
#1244000
0!
#1245000
1!
1$
1'
1(
#1246000
0!
#1247000
1!
0$
0'
0(
#1247500
b111100 #
b111100 &
#1248000
0!
#1249000
1!
0(
#1250000
0!
#1251000
1!
0(
#1252000
0!
#1253000
1!
0(
#1254000
0!
#1255000
1!
0(
#1256000
0!
#1257000
1!
0(
#1258000
0!
#1259000
1!
0(
#1260000
0!
#1261000
1!
0(
#1262000
0!
#1263000
1!
0(
#1264000
0!
#1265000
1!
0(
#1266000
0!
#1267000
1!
0(
#1268000
0!
#1269000
1!
0(
#1270000
0!
#1271000
1!
0(
#1272000
0!
#1273000
1!
1$
1'
1(
#1274000
0!
#1275000
1!
0$
0'
0(
#1275500
b111101 #
b111101 &
#1276000
0!
#1277000
1!
0(
#1278000
0!
#1279000
1!
0(
#1280000
0!
#1281000
1!
0(
#1282000
0!
#1283000
1!
0(
#1284000
0!
#1285000
1!
0(
#1286000
0!
#1287000
1!
0(
#1288000
0!
#1289000
1!
0(
#1290000
0!
#1291000
1!
1$
1'
1(
#1292000
0!
#1293000
1!
0$
0'
0(
#1293500
b111110 #
b111110 &
#1294000
0!
#1295000
1!
0(
#1296000
0!
#1297000
1!
0(
#1298000
0!
#1299000
1!
0(
#1300000
0!
#1301000
1!
0(
#1302000
0!
#1303000
1!
0(
#1304000
0!
#1305000
1!
0(
#1306000
0!
#1307000
1!
0(
#1308000
0!
#1309000
1!
0(
#1310000
0!
#1311000
1!
0(
#1312000
0!
#1313000
1!
0(
#1314000
0!
#1315000
1!
0(
#1316000
0!
#1317000
1!
0(
#1318000
0!
#1319000
1!
0(
#1320000
0!
#1321000
1!
0(
#1322000
0!
#1323000
1!
1$
1'
1(
#1324000
0!
#1325000
1!
0$
0'
0(
#1325500
b111111 #
b111111 &
#1326000
0!
#1327000
1!
0(
#1328000
0!
#1329000
1!
0(
#1330000
0!
#1331000
1!
0(
#1332000
0!
#1333000
1!
0(
#1334000
0!
#1335000
1!
0(
#1336000
0!
#1337000
1!
0(
#1338000
0!
#1339000
1!
0(
#1340000
0!
#1341000
1!
0(
#1342000
0!
#1343000
1!
0(
#1344000
0!
#1345000
1!
0(
#1346000
0!
#1347000
1!
0(
#1348000
0!
#1349000
1!
1$
1'
1(
#1350000
0!
#1351000
1!
0$
0'
0(
#1351500
b1000000 #
b1000000 &
#1352000
0!
#1353000
1!
0(
#1354000
0!
#1355000
1!
0(
#1356000
0!
#1357000
1!
0(
#1358000
0!
#1359000
1!
0(
#1360000
0!
#1361000
1!
0(
#1362000
0!
#1363000
1!
1$
1'
1(
#1364000
0!
#1365000
1!
0$
0'
0(
#1365500
b1000001 #
b1000001 &
#1366000
0!
#1367000
1!
0(
#1368000
0!
#1369000
1!
0(
#1370000
0!
#1371000
1!
0(
#1372000
0!
#1373000
1!
0(
#1374000
0!
#1375000
1!
0(
#1376000
0!
#1377000
1!
0(
#1378000
0!
#1379000
1!
0(
#1380000
0!
#1381000
1!
0(
#1382000
0!
#1383000
1!
0(
#1384000
0!
#1385000
1!
1$
1'
1(
#1386000
0!
#1387000
1!
0$
0'
0(
#1387500
b1000010 #
b1000010 &
#1388000
0!
#1389000
1!
1$
1'
1(
#1390000
0!
#1391000
1!
0$
0'
0(
#1391500
b1000011 #
b1000011 &
#1392000
0!
#1393000
1!
0(
#1394000
0!
#1395000
1!
0(
#1396000
0!
#1397000
1!
0(
#1398000
0!
#1399000
1!
1$
1'
1(
#1400000
0!
#1401000
1!
0$
0'
0(
#1401500
b1000100 #
b1000100 &
#1402000
0!
#1403000
1!
0(
#1404000
0!
#1405000
1!
0(
#1406000
0!
#1407000
1!
0(
#1408000
0!
#1409000
1!
0(
#1410000
0!
#1411000
1!
0(
#1412000
0!
#1413000
1!
1$
1'
1(
#1414000
0!
#1415000
1!
0$
0'
0(
#1415500
b1000101 #
b1000101 &
#1416000
0!
#1417000
1!
0(
#1418000
0!
#1419000
1!
0(
#1420000
0!
#1421000
1!
0(
#1422000
0!
#1423000
1!
0(
#1424000
0!
#1425000
1!
0(
#1426000
0!
#1427000
1!
0(
#1428000
0!
#1429000
1!
0(
#1430000
0!
#1431000
1!
0(
#1432000
0!
#1433000
1!
0(
#1434000
0!
#1435000
1!
0(
#1436000
0!
#1437000
1!
1$
1'
1(
#1438000
0!
#1439000
1!
0$
0'
0(
#1439500
b1000110 #
b1000110 &
#1440000
0!
#1441000
1!
0(
#1442000
0!
#1443000
1!
0(
#1444000
0!
#1445000
1!
0(
#1446000
0!
#1447000
1!
0(
#1448000
0!
#1449000
1!
1$
1'
1(
